<?xml version='1.0' encoding='UTF-8'?>
<!-- This file was generated by dvisvgm 2.6.1 -->
<svg height='8.346479pt' version='1.1' viewBox='56.413267 57.406946 31.071866 8.346479' width='31.071866pt' xmlns='http://www.w3.org/2000/svg' xmlns:xlink='http://www.w3.org/1999/xlink'>
<defs>
<path d='M3.730012 -8.301868C3.730012 -8.599751 3.730012 -8.612702 3.470984 -8.612702C3.160149 -8.263014 2.512578 -7.783811 1.17858 -7.783811V-7.408219C1.476463 -7.408219 2.124035 -7.408219 2.836364 -7.744956V-0.99726C2.836364 -0.531009 2.797509 -0.375592 1.657783 -0.375592H1.256289V0C1.605978 -0.025903 2.862267 -0.025903 3.289664 -0.025903S4.960399 -0.025903 5.310087 0V-0.375592H4.908593C3.768867 -0.375592 3.730012 -0.531009 3.730012 -0.99726V-8.301868Z' id='g1-49'/>
<path d='M8.742217 -4.196264C8.923537 -4.196264 9.156663 -4.196264 9.156663 -4.42939C9.156663 -4.675467 8.936488 -4.675467 8.742217 -4.675467H1.113823C0.932503 -4.675467 0.699377 -4.675467 0.699377 -4.442341C0.699377 -4.196264 0.919552 -4.196264 1.113823 -4.196264H8.742217ZM8.742217 -1.787298C8.923537 -1.787298 9.156663 -1.787298 9.156663 -2.020423C9.156663 -2.266501 8.936488 -2.266501 8.742217 -2.266501H1.113823C0.932503 -2.266501 0.699377 -2.266501 0.699377 -2.033375C0.699377 -1.787298 0.919552 -1.787298 1.113823 -1.787298H8.742217Z' id='g1-61'/>
<path d='M6.579328 -4.88269C6.747696 -4.88269 7.175093 -4.88269 7.175093 -5.297136C7.175093 -5.582067 6.929016 -5.582067 6.69589 -5.582067H3.833624C1.890909 -5.582067 0.492154 -3.419178 0.492154 -1.890909C0.492154 -0.790037 1.204483 0.129514 2.370112 0.129514C3.898381 0.129514 5.569116 -1.515318 5.569116 -3.458032C5.569116 -3.963138 5.452553 -4.455293 5.141719 -4.88269H6.579328ZM2.383064 -0.129514C1.72254 -0.129514 1.243337 -0.63462 1.243337 -1.528269C1.243337 -2.305355 1.709589 -4.88269 3.61345 -4.88269C4.170361 -4.88269 4.79203 -4.61071 4.79203 -3.61345C4.79203 -3.160149 4.584807 -2.072229 4.131507 -1.321046C3.665255 -0.556912 2.965878 -0.129514 2.383064 -0.129514Z' id='g0-27'/>
</defs>
<g id='page1'>
<use x='56.413267' xlink:href='#g0-27' y='65.753425'/>
<use x='67.683443' xlink:href='#g1-61' y='65.753425'/>
<use x='81.144393' xlink:href='#g1-49' y='65.753425'/>
</g>
</svg>