<?xml version='1.0' encoding='UTF-8'?>
<!-- This file was generated by dvisvgm 2.8.1 -->
<svg version='1.1' xmlns='http://www.w3.org/2000/svg' xmlns:xlink='http://www.w3.org/1999/xlink' width='82.55083pt' height='15.972712pt' viewBox='56.413267 54.33006 82.55083 15.972712'>
<defs>
<use id='g16-43' xlink:href='#g12-43' transform='scale(1.351341)'/>
<use id='g11-50' xlink:href='#g3-50' transform='scale(.740005)'/>
<path id='g8-97' d='M6.447553-1.528515C6.239119-1.320081 6.155745-1.250603 6.058476-1.139438C5.641609-.708675 5.460966-.569719 5.335906-.569719C5.224741-.569719 5.141367-.653093 5.141367-.750362C5.141367-1.028273 5.724982-3.404419 6.378075-5.79446C6.419762-5.933416 6.433657-5.961207 6.461448-6.086267L6.364179-6.127954L5.516548-6.030685L5.474862-5.988998L5.32201-5.32201C5.210845-5.836147 4.807873-6.127954 4.210363-6.127954C2.376145-6.127954 .236225-3.585062 .236225-1.389559C.236225-.416868 .764257 .152851 1.653575 .152851C2.626266 .152851 3.223776-.305703 4.446588-2.028756C4.168676-.9449 4.12699-.764257 4.12699-.430763C4.12699-.027791 4.293737 .138956 4.682813 .138956C5.238637 .138956 5.586026-.12506 6.6143-1.389559L6.447553-1.528515ZM4.293737-5.822251C4.766187-5.79446 5.07189-5.460966 5.07189-4.97462C5.07189-3.807391 4.37711-2.167712 3.418315-1.139438C3.08482-.764257 2.61237-.528032 2.209398-.528032C1.723053-.528032 1.403454-.931004 1.403454-1.570201C1.403454-2.320563 1.931487-3.751809 2.528997-4.613335C3.08482-5.419279 3.737913-5.863938 4.293737-5.822251Z'/>
<path id='g8-98' d='M1.528515-8.934863C2.348354-8.907072 2.431728-8.865385 2.431728-8.559682C2.431728-8.434622 2.390041-8.267875 2.306668-7.962172C2.278876-7.864903 2.251085-7.767634 2.23719-7.698156L2.209398-7.600886L.319599-.639197V-.583615C.319599-.264016 1.389559 .152851 2.167712 .152851C4.265945 .152851 6.572613-2.278876 6.572613-4.460484C6.572613-5.433175 5.891729-6.127954 4.960725-6.127954C3.988034-6.127954 3.265463-5.558235 2.278876-4.02972C3.001447-6.669882 3.098716-7.045063 3.724017-9.421208L3.65454-9.490686C2.95976-9.365626 2.459519-9.282253 1.528515-9.171088V-8.934863ZM4.418797-5.44707C5.016307-5.44707 5.391488-4.988516 5.391488-4.25205C5.391488-3.334941 4.682813-1.848113 3.862973-.986587C3.348837-.458554 2.751326-.166747 2.153816-.166747C1.723053-.166747 1.514619-.319599 1.514619-.639197C1.514619-1.472932 1.931487-2.820804 2.515101-3.849078C3.126507-4.919038 3.751809-5.44707 4.418797-5.44707Z'/>
<path id='g8-99' d='M4.863456-1.472932C4.099198-.653093 3.55727-.34739 2.876387-.34739C2.084338-.34739 1.611888-.9449 1.611888-1.931487C1.611888-3.112612 2.098234-4.349319 2.876387-5.169159C3.279359-5.586026 3.835182-5.836147 4.37711-5.836147C4.696709-5.836147 4.905142-5.724982 4.905142-5.558235C4.905142-5.488757 4.877351-5.419279 4.821769-5.294219C4.7245-5.113576 4.696709-5.016307 4.696709-4.891247C4.696709-4.557753 4.905142-4.363215 5.238637-4.363215C5.613817-4.363215 5.905625-4.641126 5.905625-5.002412C5.905625-5.641609 5.280323-6.127954 4.446588-6.127954C2.36225-6.127954 .416868-4.099198 .416868-1.931487C.416868-.611406 1.167229 .152851 2.459519 .152851C3.487793 .152851 4.25205-.277912 5.085785-1.333976L4.863456-1.472932Z'/>
<path id='g12-43' d='M4.20567-2.365047H7.074574C7.218533-2.365047 7.413907-2.365047 7.413907-2.570703S7.218533-2.776359 7.074574-2.776359H4.20567V-5.655546C4.20567-5.799506 4.20567-5.994879 4.000014-5.994879S3.794357-5.799506 3.794357-5.655546V-2.776359H.91517C.771211-2.776359 .575837-2.776359 .575837-2.570703S.771211-2.365047 .91517-2.365047H3.794357V.514141C3.794357 .6581 3.794357 .853473 4.000014 .853473S4.20567 .6581 4.20567 .514141V-2.365047Z'/>
<path id='g3-50' d='M6.600404-1.903696L6.419762-1.973173C5.905625-1.181125 5.724982-1.056065 5.099681-1.056065H1.778635L4.113094-3.501688C5.349801-4.793978 5.891729-5.850042 5.891729-6.933898C5.891729-8.323457 4.766187-9.393417 3.321045-9.393417C2.556788-9.393417 1.834218-9.087714 1.320081-8.531891C.875422-8.059441 .666988-7.614782 .430763-6.628195L.722571-6.558717C1.278394-7.920485 1.778635-8.365144 2.737431-8.365144C3.90466-8.365144 4.696709-7.573095 4.696709-6.405866C4.696709-5.32201 4.057512-4.02972 2.890282-2.793013L.416868-.166747V0H5.836147L6.600404-1.903696Z'/>
<path id='g1-17' d='M9.532373-5.891729C9.768598-5.891729 10.032614-5.891729 10.032614-6.169641S9.782494-6.447553 9.546269-6.447553H1.250603C1.014378-6.447553 .764257-6.447553 .764257-6.169641S1.042169-5.891729 1.264498-5.891729H9.532373ZM9.546269-.500241C9.782494-.500241 10.032614-.500241 10.032614-.778153S9.768598-1.056065 9.532373-1.056065H1.264498C1.042169-1.056065 .764257-1.056065 .764257-.778153S1.014378-.500241 1.250603-.500241H9.546269ZM9.546269-3.195985C9.782494-3.195985 10.032614-3.195985 10.032614-3.473897S9.782494-3.751809 9.546269-3.751809H1.250603C1.014378-3.751809 .764257-3.751809 .764257-3.473897S1.014378-3.195985 1.250603-3.195985H9.546269Z'/>
<path id='g1-106' d='M2.209398-9.92145C2.209398-10.17157 2.209398-10.421691 1.931487-10.421691S1.653575-10.17157 1.653575-9.92145V2.973656C1.653575 3.223776 1.653575 3.473897 1.931487 3.473897S2.209398 3.223776 2.209398 2.973656V-9.92145Z'/>
<path id='g1-112' d='M5.405384 11.880727L2.95976 6.475344C2.862491 6.253014 2.793013 6.253014 2.751326 6.253014C2.737431 6.253014 2.667953 6.253014 2.515101 6.364179L1.195021 7.364661C1.014378 7.503617 1.014378 7.545304 1.014378 7.586991C1.014378 7.656469 1.056065 7.739842 1.153334 7.739842C1.236707 7.739842 1.472932 7.545304 1.625784 7.434139C1.709157 7.364661 1.917591 7.21181 2.070443 7.100645L4.807873 13.117435C4.905142 13.339764 4.97462 13.339764 5.099681 13.339764C5.308114 13.339764 5.349801 13.256391 5.44707 13.061852L11.755667 0C11.852936-.194538 11.852936-.250121 11.852936-.277912C11.852936-.416868 11.741772-.555824 11.575025-.555824C11.46386-.555824 11.366591-.486346 11.255426-.264016L5.405384 11.880727Z'/>
</defs>
<g id='page1'>
<use x='56.413267' y='66.828875' xlink:href='#g1-106'/>
<use x='60.276639' y='66.828875' xlink:href='#g8-99'/>
<use x='66.469339' y='66.828875' xlink:href='#g1-106'/>
<use x='73.432172' y='66.828875' xlink:href='#g1-17'/>
<use x='87.368852' y='54.885883' xlink:href='#g1-112'/>
<rect x='98.987225' y='54.34207' height='.543813' width='39.976872'/>
<use x='98.987225' y='66.828875' xlink:href='#g8-97'/>
<use x='105.961073' y='62.798137' xlink:href='#g11-50'/>
<use x='113.557054' y='66.828875' xlink:href='#g16-43'/>
<use x='126.331437' y='66.828875' xlink:href='#g8-98'/>
<use x='133.305285' y='62.798137' xlink:href='#g11-50'/>
</g>
</svg>