<?xml version='1.0' encoding='UTF-8'?>
<!-- This file was generated by dvisvgm 2.8.1 -->
<svg version='1.1' xmlns='http://www.w3.org/2000/svg' xmlns:xlink='http://www.w3.org/1999/xlink' width='12.436173pt' height='11.279075pt' viewBox='55.71588 56.679606 12.436173 11.279075'>
<defs>
<path id='g3-85' d='M7.866351-6.714676H5.820071V-6.550151C6.149121-6.519302 6.251949-6.498737 6.375343-6.416474C6.478171-6.354777 6.550151-6.210818 6.550151-6.077141C6.550151-5.912616 6.282798-4.86377 5.789223-3.125975C5.748091-2.992298 5.70696-2.81749 5.655546-2.622117C5.470456-1.953734 5.316213-1.542422 5.089992-1.192806C4.688962-.555272 4.13369-.236505 3.413893-.236505C2.56042-.236505 1.9743-.73008 1.9743-1.449876C1.9743-1.799492 2.293067-3.043712 2.982015-5.419042C3.002581-5.491021 3.023146-5.563001 3.033429-5.614415C3.249368-6.334212 3.413893-6.478171 4.113124-6.550151V-6.714676H1.305917V-6.550151C1.994865-6.488454 2.107976-6.426757 2.107976-6.128555C2.107976-6.005162 2.077128-5.840637 2.035997-5.665829L1.491008-3.691529C1.182523-2.580986 1.048847-1.922886 1.048847-1.511573C1.048847-.524423 1.994865 .185091 3.2905 .185091C4.637548 .185091 5.491021-.544989 5.943465-2.087411L6.796938-5.018012C7.187685-6.354777 7.228816-6.406191 7.866351-6.550151V-6.714676Z'/>
<path id='g3-105' d='M2.282784-1.17224C2.035997-.843191 1.964017-.760928 1.861189-.647817C1.686381-.473009 1.532139-.370181 1.439594-.370181C1.357331-.370181 1.275069-.452444 1.275069-.524423C1.275069-.627251 1.305917-.781494 1.377897-.976867C1.377897-1.007715 1.408745-1.079695 1.429311-1.161958V-1.182523L1.439594-1.203089L2.344481-4.514154L2.313633-4.53472C1.275069-4.339346 1.069412-4.308498 .668383-4.277649V-4.113124C1.213372-4.102842 1.3162-4.071993 1.3162-3.866337C1.3162-3.784075 1.285351-3.61955 1.223655-3.413893L.73008-1.593836C.565555-.997433 .503858-.678666 .503858-.473009C.503858-.092545 .668383 .113111 .976867 .113111C1.449876 .113111 1.83034-.195373 2.416461-1.05913L2.282784-1.17224ZM2.200522-6.724959C1.922886-6.724959 1.717229-6.488454 1.717229-6.17997C1.717229-5.85092 1.912603-5.634981 2.210804-5.634981C2.478158-5.634981 2.714662-5.871485 2.714662-6.159404C2.714662-6.457605 2.478158-6.724959 2.200522-6.724959Z'/>
<use id='g7-85' xlink:href='#g3-85' transform='scale(1.351341)'/>
</defs>
<g id='page1'>
<use x='55.71588' y='65.753425' xlink:href='#g7-85'/>
<use x='65.437391' y='67.84557' xlink:href='#g3-105'/>
</g>
</svg>