<?xml version='1.0' encoding='UTF-8'?>
<!-- This file was generated by dvisvgm 2.8.1 -->
<svg version='1.1' xmlns='http://www.w3.org/2000/svg' xmlns:xlink='http://www.w3.org/1999/xlink' width='16.123303pt' height='13.895588pt' viewBox='56.413267 55.275928 16.123303 13.895588'>
<defs>
<path id='g8-118' d='M.291807-5.599922C.444659-5.613817 .555824-5.613817 .708675-5.613817C1.250603-5.613817 1.389559-5.377592 1.584097-4.099198C1.723053-3.140403 1.8898-1.042169 1.8898-.236225C1.8898 .152851 1.917591 .250121 2.01486 .250121C2.36225 .250121 3.65454-1.222812 5.07189-3.195985C5.558235-3.890765 5.91952-4.793978 5.91952-5.308114C5.91952-5.752773 5.558235-6.127954 5.141367-6.127954C4.835665-6.127954 4.627231-5.947312 4.627231-5.655504C4.627231-5.433175 4.710604-5.266428 4.960725-5.044098C5.141367-4.877351 5.210845-4.766187 5.210845-4.627231C5.210845-3.988034 4.293737-2.445623 3.30715-1.41735L2.876387-.972691C2.779118-2.931969 2.695744-3.65454 2.515101-4.682813C2.23719-6.100163 2.23719-6.127954 2.112129-6.127954C2.042651-6.127954 1.945382-6.114059 1.834218-6.072372C1.584097-6.002894 .81984-5.863938 .291807-5.780564V-5.599922Z'/>
<path id='g1-100' d='M5.363697-9.865867C5.572131-9.865867 5.863938-9.865867 5.863938-10.143779S5.572131-10.421691 5.363697-10.421691H2.918073C2.473415-10.421691 2.417832-10.366108 2.417832-9.92145V2.973656C2.417832 3.18209 2.417832 3.473897 2.695744 3.473897S2.973656 3.223776 2.973656 2.973656V-9.865867H5.363697Z'/>
<path id='g1-101' d='M3.737913-9.92145C3.737913-10.380004 3.696226-10.421691 3.251568-10.421691H.792048C.583615-10.421691 .291807-10.421691 .291807-10.143779S.583615-9.865867 .792048-9.865867H3.18209V2.973656C3.18209 3.18209 3.18209 3.473897 3.460001 3.473897S3.737913 3.223776 3.737913 2.973656V-9.92145Z'/>
</defs>
<g id='page1'>
<use x='56.413267' y='65.697619' xlink:href='#g1-100'/>
<use x='62.605956' y='65.753425' xlink:href='#g8-118'/>
<use x='68.798657' y='65.697619' xlink:href='#g1-101'/>
</g>
</svg>