<?xml version='1.0' encoding='UTF-8'?>
<!-- This file was generated by dvisvgm 2.8.1 -->
<svg version='1.1' xmlns='http://www.w3.org/2000/svg' xmlns:xlink='http://www.w3.org/1999/xlink' width='8.661519pt' height='9.554172pt' viewBox='56.413267 56.199253 8.661519 9.554172'>
<defs>
<path id='g0-66' d='M1.952677-8.284932C1.952677-8.466252 1.952677-8.814944 1.827148-9.066002H3.347447C3.166127-8.842839 3.166127-8.563885 3.166127-8.35467V-1.199502C3.166127-.990286 3.166127-.711333 3.347447-.488169H1.827148C1.952677-.739228 1.952677-1.08792 1.952677-1.26924V-8.284932ZM5.746451-5.355915C6.206725-5.802242 6.318306-6.513574 6.318306-7.113325C6.318306-8.075716 6.011457-8.675467 5.69066-9.010212C6.653051-8.89863 7.643337-8.549938 7.643337-7.169116C7.643337-6.276463 6.666999-5.551183 5.746451-5.355915ZM3.654296-8.312827C3.654296-8.591781 3.654296-8.745205 3.849564-8.89863C3.905355-8.926526 4.11457-9.066002 4.449315-9.066002C5.063014-9.066002 5.830137-8.577833 5.830137-7.113325C5.830137-5.551183 5.035118-5.216438 3.654296-5.188543V-8.312827ZM6.583313-5.118804C7.364384-5.523288 8.131507-6.220672 8.131507-7.169116C8.131507-9.107846 6.527522-9.554172 4.825903-9.554172H.599751C.348692-9.554172 .125529-9.554172 .125529-9.303113C.125529-9.066002 .36264-9.066002 .585803-9.066002C1.422665-9.066002 1.464508-8.926526 1.464508-8.257036V-1.297136C1.464508-.599751 1.408717-.488169 .530012-.488169C.376588-.488169 .125529-.488169 .125529-.251059C.125529 0 .348692 0 .599751 0H4.742217C6.457783 0 8.661519-.669489 8.661519-2.608219C8.661519-4.05878 7.601494-4.839851 6.583313-5.118804ZM3.654296-1.241345V-4.700374C4.770112-4.700374 5.244334-4.700374 5.676712-4.379577C6.220672-3.961146 6.262516-3.054545 6.262516-2.608219C6.262516-2.064259 6.220672-.488169 4.47721-.488169C3.654296-.488169 3.654296-.976339 3.654296-1.241345ZM6.136986-.655542C6.653051-1.241345 6.750685-1.980573 6.750685-2.608219C6.750685-3.57061 6.541469-4.29589 5.983562-4.756164C7.26675-4.546949 8.17335-3.821669 8.17335-2.608219C8.17335-1.548194 7.336488-.934496 6.136986-.655542Z'/>
</defs>
<g id='page1'>
<use x='56.413267' y='65.753425' xlink:href='#g0-66'/>
</g>
</svg>