<?xml version='1.0' encoding='UTF-8'?>
<!-- This file was generated by dvisvgm 2.8.1 -->
<svg version='1.1' xmlns='http://www.w3.org/2000/svg' xmlns:xlink='http://www.w3.org/1999/xlink' width='73.630809pt' height='89.233494pt' viewBox='195.943023 81.16693 73.630809 89.233494'>
<defs>
<path id='g7-58' d='M2.667953-.736466C2.667953-1.139438 2.334459-1.472932 1.931487-1.472932S1.195021-1.139438 1.195021-.736466S1.528515 0 1.931487 0S2.667953-.333494 2.667953-.736466Z'/>
<use id='g11-48' xlink:href='#g3-48'/>
<use id='g11-49' xlink:href='#g3-49'/>
<use id='g11-50' xlink:href='#g3-50'/>
<use id='g11-52' xlink:href='#g3-52'/>
<use id='g11-54' xlink:href='#g3-54'/>
<use id='g11-56' xlink:href='#g3-56'/>
<use id='g11-99' xlink:href='#g3-99'/>
<use id='g11-101' xlink:href='#g3-101'/>
<use id='g11-116' xlink:href='#g3-116'/>
<path id='g3-48' d='M3.529479-9.393417C2.765222-9.393417 2.181607-9.157192 1.667471-8.670847C.861526-7.892694 .333494-6.294701 .333494-4.668917C.333494-3.154298 .792048-1.528515 1.445141-.750362C1.959278-.138956 2.667953 .194538 3.473897 .194538C4.182572 .194538 4.780082-.041687 5.280323-.528032C6.086267-1.29229 6.6143-2.904178 6.6143-4.585544C6.6143-7.434139 5.349801-9.393417 3.529479-9.393417ZM3.487793-9.032132C4.655022-9.032132 5.280323-7.461931 5.280323-4.557753S4.668917-.166747 3.473897-.166747S1.667471-1.653575 1.667471-4.543857C1.667471-7.489722 2.292772-9.032132 3.487793-9.032132Z'/>
<path id='g3-49' d='M4.043616-9.393417L1.54241-8.128919V-7.934381C1.709157-8.003859 1.862009-8.059441 1.917591-8.087232C2.167712-8.184501 2.403937-8.240083 2.542893-8.240083C2.8347-8.240083 2.95976-8.03165 2.95976-7.586991V-1.29229C2.95976-.833735 2.848595-.514137 2.626266-.389076C2.417832-.264016 2.223294-.222329 1.639679-.208434V0H5.474862V-.208434C4.37711-.222329 4.154781-.361285 4.154781-1.028273V-9.365626L4.043616-9.393417Z'/>
<path id='g3-50' d='M6.600404-1.903696L6.419762-1.973173C5.905625-1.181125 5.724982-1.056065 5.099681-1.056065H1.778635L4.113094-3.501688C5.349801-4.793978 5.891729-5.850042 5.891729-6.933898C5.891729-8.323457 4.766187-9.393417 3.321045-9.393417C2.556788-9.393417 1.834218-9.087714 1.320081-8.531891C.875422-8.059441 .666988-7.614782 .430763-6.628195L.722571-6.558717C1.278394-7.920485 1.778635-8.365144 2.737431-8.365144C3.90466-8.365144 4.696709-7.573095 4.696709-6.405866C4.696709-5.32201 4.057512-4.02972 2.890282-2.793013L.416868-.166747V0H5.836147L6.600404-1.903696Z'/>
<path id='g3-52' d='M6.558717-3.209881H5.141367V-9.393417H4.529962L.166747-3.209881V-2.320563H4.071407V0H5.141367V-2.320563H6.558717V-3.209881ZM4.057512-3.209881H.722571L4.057512-7.976067V-3.209881Z'/>
<path id='g3-54' d='M6.197432-9.504582C4.613335-9.365626 3.807391-9.10161 2.793013-8.392935C1.29229-7.322975 .47245-5.738878 .47245-3.876869C.47245-2.667953 .847631-1.445141 1.445141-.750362C1.973173-.138956 2.723535 .194538 3.585062 .194538C5.308114 .194538 6.503135-1.125543 6.503135-3.043134C6.503135-4.821769 5.488757-5.947312 3.890765-5.947312C3.279359-5.947312 2.987551-5.850042 2.112129-5.32201C2.48731-7.420244 4.043616-8.920967 6.225223-9.282253L6.197432-9.504582ZM3.362732-5.308114C4.557753-5.308114 5.252532-4.307632 5.252532-2.570684C5.252532-1.042169 4.710604-.194538 3.737913-.194538C2.515101-.194538 1.76474-1.500723 1.76474-3.65454C1.76474-4.363215 1.875904-4.752291 2.153816-4.960725C2.445623-5.183054 2.876387-5.308114 3.362732-5.308114Z'/>
<path id='g3-56' d='M4.02972-5.155263C5.405384-5.891729 5.891729-6.475344 5.891729-7.420244C5.891729-8.559682 4.891247-9.393417 3.501688-9.393417C1.987069-9.393417 .861526-8.462413 .861526-7.197914C.861526-6.294701 1.125543-5.891729 2.584579-4.613335C1.083856-3.473897 .778153-3.043134 .778153-2.098234C.778153-.750362 1.875904 .194538 3.446106 .194538C5.113576 .194538 6.183537-.722571 6.183537-2.153816C6.183537-3.223776 5.711087-3.90466 4.02972-5.155263ZM3.7796-3.724017C4.793978-3.001447 5.127472-2.501206 5.127472-1.723053C5.127472-.81984 4.50217-.194538 3.598957-.194538C2.542893-.194538 1.834218-1.000482 1.834218-2.209398C1.834218-3.098716 2.139921-3.682331 2.945865-4.335423L3.7796-3.724017ZM3.626748-5.405384C2.390041-6.211328 1.8898-6.850525 1.8898-7.628678C1.8898-8.434622 2.515101-9.004341 3.390523-9.004341C4.335423-9.004341 4.932934-8.392935 4.932934-7.434139C4.932934-6.642091 4.543857-6.016789 3.751809-5.488757C3.682331-5.44707 3.682331-5.44707 3.626748-5.405384Z'/>
<path id='g3-99' d='M5.530444-2.167712C4.863456-1.195021 4.363215-.861526 3.571166-.861526C2.306668-.861526 1.41735-1.973173 1.41735-3.571166C1.41735-5.002412 2.181607-5.988998 3.30715-5.988998C3.807391-5.988998 3.988034-5.836147 4.12699-5.32201L4.210363-5.016307C4.321528-4.627231 4.571648-4.37711 4.863456-4.37711C5.224741-4.37711 5.530444-4.641126 5.530444-4.960725C5.530444-5.738878 4.557753-6.39197 3.390523-6.39197C2.70964-6.39197 2.000965-6.114059 1.431246-5.613817C.736466-5.002412 .34739-4.057512 .34739-2.95976C.34739-1.153334 1.445141 .138956 2.987551 .138956C3.612853 .138956 4.168676-.083374 4.668917-.514137C5.044098-.847631 5.308114-1.222812 5.724982-2.042651L5.530444-2.167712Z'/>
<path id='g3-101' d='M5.6694-2.278876C5.002412-1.222812 4.404901-.81984 3.515584-.81984C2.723535-.81984 2.126025-1.222812 1.723053-2.01486C1.472932-2.542893 1.375663-3.001447 1.347872-3.849078H5.627713C5.516548-4.752291 5.377592-5.155263 5.030203-5.599922C4.613335-6.100163 3.974138-6.39197 3.251568-6.39197C2.556788-6.39197 1.903696-6.14185 1.375663-5.6694C.722571-5.099681 .34739-4.113094 .34739-2.973656C.34739-1.056065 1.347872 .138956 2.945865 .138956C4.265945 .138956 5.308114-.680884 5.891729-2.181607L5.6694-2.278876ZM1.375663-4.293737C1.528515-5.377592 2.000965-5.891729 2.848595-5.891729S4.02972-5.502653 4.210363-4.293737H1.375663Z'/>
<path id='g3-116' d='M3.543375-6.253014H2.139921V-7.864903C2.139921-8.003859 2.126025-8.045545 2.042651-8.045545C1.945382-7.920485 1.862009-7.795425 1.76474-7.656469C1.236707-6.892211 .639197-6.225223 .416868-6.169641C.264016-6.072372 .180643-5.975103 .180643-5.905625C.180643-5.863938 .194538-5.836147 .236225-5.808356H.972691V-1.625784C.972691-.458554 1.389559 .138956 2.209398 .138956C2.890282 .138956 3.418315-.194538 3.876869-.917109L3.696226-1.06996C3.404419-.722571 3.168194-.583615 2.862491-.583615C2.348354-.583615 2.139921-.958796 2.139921-1.834218V-5.808356H3.543375V-6.253014Z'/>
<path id='g12-43' d='M5.683295-3.195985H9.560164C9.754703-3.195985 10.018719-3.195985 10.018719-3.473897S9.754703-3.751809 9.560164-3.751809H5.683295V-7.642573C5.683295-7.837111 5.683295-8.101128 5.405384-8.101128S5.127472-7.837111 5.127472-7.642573V-3.751809H1.236707C1.042169-3.751809 .778153-3.751809 .778153-3.473897S1.042169-3.195985 1.236707-3.195985H5.127472V.694779C5.127472 .889318 5.127472 1.153334 5.405384 1.153334S5.683295 .889318 5.683295 .694779V-3.195985Z'/>
<path id='g12-61' d='M9.546269-4.543857C9.754703-4.543857 10.018719-4.543857 10.018719-4.821769S9.754703-5.099681 9.560164-5.099681H1.236707C1.042169-5.099681 .778153-5.099681 .778153-4.821769S1.042169-4.543857 1.250603-4.543857H9.546269ZM9.560164-1.848113C9.754703-1.848113 10.018719-1.848113 10.018719-2.126025S9.754703-2.403937 9.546269-2.403937H1.250603C1.042169-2.403937 .778153-2.403937 .778153-2.126025S1.042169-1.848113 1.236707-1.848113H9.560164Z'/>
<path id='g1-0' d='M9.157192-3.195985C9.393417-3.195985 9.643538-3.195985 9.643538-3.473897S9.393417-3.751809 9.157192-3.751809H1.639679C1.403454-3.751809 1.153334-3.751809 1.153334-3.473897S1.403454-3.195985 1.639679-3.195985H9.157192Z'/>
<path id='g8-120' d='M5.586026-1.54241C5.474862-1.41735 5.405384-1.333976 5.280323-1.167229C4.960725-.750362 4.793978-.611406 4.641126-.611406C4.432692-.611406 4.307632-.792048 4.210363-1.181125C4.182572-1.29229 4.168676-1.375663 4.154781-1.41735C3.807391-2.820804 3.65454-3.460001 3.65454-3.668435C4.265945-4.738395 4.766187-5.349801 5.016307-5.349801C5.099681-5.349801 5.210845-5.308114 5.349801-5.238637C5.516548-5.141367 5.613817-5.113576 5.724982-5.113576C6.016789-5.113576 6.211328-5.32201 6.211328-5.613817S5.975103-6.127954 5.641609-6.127954C5.030203-6.127954 4.50217-5.627713 3.543375-4.140885L3.390523-4.905142C3.195985-5.850042 3.043134-6.127954 2.667953-6.127954C2.36225-6.127954 1.8898-6.002894 1.042169-5.724982L.889318-5.6694L.9449-5.460966C1.472932-5.586026 1.597993-5.613817 1.723053-5.613817C2.070443-5.613817 2.153816-5.488757 2.348354-4.655022L2.751326-2.945865L1.611888-1.320081C1.333976-.903213 1.056065-.653093 .903213-.653093C.81984-.653093 .680884-.694779 .541928-.778153C.361285-.875422 .208434-.917109 .097269-.917109C-.166747-.917109-.375181-.708675-.375181-.430763C-.375181-.069478-.097269 .152851 .319599 .152851C.750362 .152851 .917109 .027791 1.611888-.81984C1.987069-1.264498 2.278876-1.639679 2.862491-2.445623L3.279359-.778153C3.460001-.069478 3.640644 .152851 4.085303 .152851C4.613335 .152851 4.97462-.180643 5.780564-1.431246L5.586026-1.54241Z'/>
</defs>
<g id='page1'>
<use x='196.318204' y='90.560347' xlink:href='#g8-120'/>
<use x='204.489767' y='90.560347' xlink:href='#g1-0'/>
<use x='217.264149' y='90.560347' xlink:href='#g11-52'/>
<use x='227.337458' y='90.560347' xlink:href='#g12-61'/>
<use x='241.274139' y='90.560347' xlink:href='#g11-56'/>
<use x='196.318204' y='110.485627' xlink:href='#g8-120'/>
<use x='204.489767' y='110.485627' xlink:href='#g1-0'/>
<use x='217.264149' y='110.485627' xlink:href='#g11-52'/>
<use x='226.17516' y='110.485627' xlink:href='#g1-0'/>
<use x='238.949543' y='110.485627' xlink:href='#g11-56'/>
<use x='249.022852' y='110.485627' xlink:href='#g12-61'/>
<use x='262.959533' y='110.485627' xlink:href='#g11-48'/>
<use x='196.318204' y='130.410907' xlink:href='#g11-52'/>
<use x='206.391513' y='130.410907' xlink:href='#g12-61'/>
<use x='220.328194' y='130.410907' xlink:href='#g8-120'/>
<use x='228.499756' y='130.410907' xlink:href='#g1-0'/>
<use x='241.274139' y='130.410907' xlink:href='#g11-56'/>
<use x='196.318204' y='150.336187' xlink:href='#g11-50'/>
<use x='203.292052' y='150.336187' xlink:href='#g8-120'/>
<use x='212.625913' y='150.336187' xlink:href='#g12-61'/>
<use x='226.562593' y='150.336187' xlink:href='#g11-56'/>
<use x='235.473604' y='150.336187' xlink:href='#g12-43'/>
<use x='248.247987' y='150.336187' xlink:href='#g11-49'/>
<use x='255.221835' y='150.336187' xlink:href='#g11-54'/>
<use x='196.318204' y='170.261468' xlink:href='#g11-101'/>
<use x='202.510905' y='170.261468' xlink:href='#g11-116'/>
<use x='206.38823' y='170.261468' xlink:href='#g11-99'/>
<use x='212.58093' y='170.261468' xlink:href='#g7-58'/>
</g>
</svg>