<?xml version='1.0' encoding='UTF-8'?>
<!-- This file was generated by dvisvgm 2.6.1 -->
<svg height='12.951432pt' version='1.1' viewBox='56.413267 56.039851 24.154031 12.951432' width='24.154031pt' xmlns='http://www.w3.org/2000/svg' xmlns:xlink='http://www.w3.org/1999/xlink'>
<defs>
<path d='M4.209215 3.147198C4.209215 3.108344 4.209215 3.082441 3.989041 2.862267C2.693898 1.554172 1.968618 -0.582814 1.968618 -3.224907C1.968618 -5.737484 2.577335 -7.900374 4.079701 -9.428643C4.209215 -9.545205 4.209215 -9.571108 4.209215 -9.609963C4.209215 -9.687671 4.144458 -9.713574 4.092653 -9.713574C3.924284 -9.713574 2.862267 -8.781071 2.227646 -7.511831C1.567123 -6.203736 1.26924 -4.817933 1.26924 -3.224907C1.26924 -2.072229 1.45056 -0.531009 2.124035 0.854795C2.888169 2.408966 3.950187 3.250809 4.092653 3.250809C4.144458 3.250809 4.209215 3.224907 4.209215 3.147198Z' id='g1-40'/>
<path d='M3.652304 -3.224907C3.652304 -4.209215 3.52279 -5.815193 2.797509 -7.317559C2.033375 -8.871731 0.971357 -9.713574 0.828892 -9.713574C0.777086 -9.713574 0.712329 -9.687671 0.712329 -9.609963C0.712329 -9.571108 0.712329 -9.545205 0.932503 -9.325031C2.227646 -8.016936 2.952927 -5.87995 2.952927 -3.237858C2.952927 -0.72528 2.344209 1.437609 0.841843 2.965878C0.712329 3.082441 0.712329 3.108344 0.712329 3.147198C0.712329 3.224907 0.777086 3.250809 0.828892 3.250809C0.99726 3.250809 2.059278 2.318306 2.693898 1.049066C3.354421 -0.27198 3.652304 -1.670735 3.652304 -3.224907Z' id='g1-41'/>
<path d='M3.898381 -1.54122C3.833624 -1.321046 3.833624 -1.295143 3.652304 -1.049066C3.367372 -0.686426 2.797509 -0.129514 2.188792 -0.129514C1.657783 -0.129514 1.3599 -0.608717 1.3599 -1.372852C1.3599 -2.085181 1.761395 -3.535741 2.007472 -4.079701C2.447821 -4.986301 3.056538 -5.452553 3.561644 -5.452553C4.416438 -5.452553 4.584807 -4.390535 4.584807 -4.286924C4.584807 -4.273973 4.545953 -4.105604 4.533001 -4.079701L3.898381 -1.54122ZM4.727273 -4.856787C4.584807 -5.193524 4.235118 -5.711582 3.561644 -5.711582C2.098132 -5.711582 0.518057 -3.820672 0.518057 -1.903861C0.518057 -0.621669 1.26924 0.129514 2.149938 0.129514C2.862267 0.129514 3.470984 -0.427397 3.833624 -0.854795C3.963138 -0.09066 4.571856 0.129514 4.960399 0.129514S5.659776 -0.103611 5.892902 -0.569863C6.100125 -1.010212 6.281445 -1.800249 6.281445 -1.852055C6.281445 -1.916812 6.229639 -1.968618 6.15193 -1.968618C6.035367 -1.968618 6.022416 -1.903861 5.97061 -1.709589C5.776339 -0.945455 5.530262 -0.129514 4.999253 -0.129514C4.623661 -0.129514 4.597758 -0.466252 4.597758 -0.72528C4.597758 -1.023163 4.636613 -1.165629 4.753176 -1.670735C4.843836 -1.994521 4.908593 -2.279452 5.012204 -2.655044C5.491407 -4.597758 5.60797 -5.06401 5.60797 -5.141719C5.60797 -5.323039 5.465504 -5.465504 5.271233 -5.465504C4.856787 -5.465504 4.753176 -5.012204 4.727273 -4.856787Z' id='g0-97'/>
<path d='M5.776339 -5.206476C6.035367 -5.206476 6.138979 -5.206476 6.138979 -5.452553C6.138979 -5.582067 6.035367 -5.582067 5.802242 -5.582067H4.753176C4.999253 -6.916065 5.180573 -7.835616 5.284184 -8.250062C5.361893 -8.560897 5.633873 -8.85878 5.97061 -8.85878C6.24259 -8.85878 6.51457 -8.742217 6.644085 -8.625654C6.138979 -8.573848 5.983562 -8.198257 5.983562 -7.978082C5.983562 -7.719054 6.177833 -7.563636 6.42391 -7.563636C6.682939 -7.563636 7.071482 -7.783811 7.071482 -8.275965C7.071482 -8.819925 6.527522 -9.117808 5.957659 -9.117808C5.400747 -9.117808 4.856787 -8.703362 4.597758 -8.198257C4.364633 -7.744956 4.235118 -7.278705 3.937235 -5.582067H3.069489C2.823412 -5.582067 2.693898 -5.582067 2.693898 -5.348941C2.693898 -5.206476 2.771606 -5.206476 3.030635 -5.206476H3.859527C3.626401 -4.001993 3.095392 -1.074969 2.797509 0.310834C2.577335 1.437609 2.383064 2.383064 1.735492 2.383064C1.696638 2.383064 1.321046 2.383064 1.08792 2.136986C1.748443 2.085181 1.748443 1.515318 1.748443 1.502366C1.748443 1.243337 1.554172 1.08792 1.308095 1.08792C1.049066 1.08792 0.660523 1.308095 0.660523 1.800249C0.660523 2.357161 1.230386 2.642092 1.735492 2.642092C3.056538 2.642092 3.600498 0.27198 3.742964 -0.375592C3.97609 -1.372852 4.61071 -4.817933 4.675467 -5.206476H5.776339Z' id='g0-102'/>
</defs>
<g id='page1'>
<use x='56.413267' xlink:href='#g0-102' y='65.753425'/>
<use x='64.046903' xlink:href='#g1-40' y='65.753425'/>
<use x='68.978589' xlink:href='#g0-97' y='65.753425'/>
<use x='75.635612' xlink:href='#g1-41' y='65.753425'/>
</g>
</svg>