<?xml version='1.0' encoding='UTF-8'?>
<!-- This file was generated by dvisvgm 2.8.1 -->
<svg version='1.1' xmlns='http://www.w3.org/2000/svg' xmlns:xlink='http://www.w3.org/1999/xlink' width='41.809329pt' height='12.569851pt' viewBox='56.413267 53.752015 41.809329 12.569851'>
<defs>
<path id='g6-48' d='M3.529479-9.393417C2.765222-9.393417 2.181607-9.157192 1.667471-8.670847C.861526-7.892694 .333494-6.294701 .333494-4.668917C.333494-3.154298 .792048-1.528515 1.445141-.750362C1.959278-.138956 2.667953 .194538 3.473897 .194538C4.182572 .194538 4.780082-.041687 5.280323-.528032C6.086267-1.29229 6.6143-2.904178 6.6143-4.585544C6.6143-7.434139 5.349801-9.393417 3.529479-9.393417ZM3.487793-9.032132C4.655022-9.032132 5.280323-7.461931 5.280323-4.557753S4.668917-.166747 3.473897-.166747S1.667471-1.653575 1.667471-4.543857C1.667471-7.489722 2.292772-9.032132 3.487793-9.032132Z'/>
<path id='g6-49' d='M4.043616-9.393417L1.54241-8.128919V-7.934381C1.709157-8.003859 1.862009-8.059441 1.917591-8.087232C2.167712-8.184501 2.403937-8.240083 2.542893-8.240083C2.8347-8.240083 2.95976-8.03165 2.95976-7.586991V-1.29229C2.95976-.833735 2.848595-.514137 2.626266-.389076C2.417832-.264016 2.223294-.222329 1.639679-.208434V0H5.474862V-.208434C4.37711-.222329 4.154781-.361285 4.154781-1.028273V-9.365626L4.043616-9.393417Z'/>
<use id='g10-48' xlink:href='#g6-48' transform='scale(.740005)'/>
<use id='g10-49' xlink:href='#g6-49' transform='scale(.740005)'/>
<path id='g2-67' d='M9.163636-9.358904C9.163636-9.596015 9.163636-9.819178 8.926526-9.819178C8.912578-9.819178 8.703362-9.819178 8.675467-9.56812C8.633624-9.177584 8.312827-9.177584 8.215193-9.177584C7.727024-9.177584 7.238854-9.3868 6.9599-9.512329C6.248568-9.819178 5.648817-9.819178 5.425654-9.819178C3.096389-9.819178 .516065-8.35467 .516065-4.78406C.516065-1.227397 3.040598 .265006 5.453549 .265006C6.192777 .265006 7.183064 .111582 8.201245-.502117C8.842839-.9066 9.554172-1.603985 9.554172-1.799253S9.344956-2.078207 9.26127-2.078207C9.163636-2.078207 9.107846-2.036364 8.968369-1.882939C8.159402-.962391 6.918057-.404483 5.676712-.404483C3.514819-.404483 2.970859-2.594271 2.970859-4.756164C2.970859-7.503861 3.975093-9.331009 5.467497-9.331009C6.513574-9.331009 8.187298-8.312827 8.661519-6.834371C8.703362-6.708842 8.745205-6.569365 8.926526-6.569365C9.163636-6.569365 9.163636-6.792528 9.163636-7.029639V-9.358904ZM8.675467-7.922291C8.508095-8.159402 8.326775-8.340722 7.978082-8.703362C8.047821-8.689415 8.159402-8.689415 8.229141-8.689415C8.382565-8.689415 8.563885-8.71731 8.675467-8.787049V-7.922291ZM3.724035-9.010212C3.403238-8.689415 2.48269-7.489913 2.48269-4.756164C2.48269-3.375342 2.691905-1.45056 3.947198-.446326C1.659776-1.185554 1.004234-3.068493 1.004234-4.770112C1.004234-7.336488 2.412951-8.577833 3.724035-9.024159V-9.010212Z'/>
<path id='g4-50' d='M7.614782-3.195985C7.851007-3.195985 8.101128-3.195985 8.101128-3.473897S7.851007-3.751809 7.614782-3.751809H1.723053C1.8898-5.613817 3.487793-6.947794 5.44707-6.947794H7.614782C7.851007-6.947794 8.101128-6.947794 8.101128-7.225706S7.851007-7.503617 7.614782-7.503617H5.419279C3.043134-7.503617 1.153334-5.697191 1.153334-3.473897S3.043134 .555824 5.419279 .555824H7.614782C7.851007 .555824 8.101128 .555824 8.101128 .277912S7.851007 0 7.614782 0H5.44707C3.487793 0 1.8898-1.333976 1.723053-3.195985H7.614782Z'/>
<path id='g1-99' d='M5.724982-1.514619C5.210845-.931004 4.84956-.736466 4.279841-.736466C3.070925-.736466 2.306668-1.945382 2.306668-3.835182C2.306668-5.266428 2.751326-6.14185 3.473897-6.14185C3.696226-6.14185 3.90466-6.030685 3.988034-5.877834C4.057512-5.752773 4.057512-5.752773 4.057512-5.169159C4.071407-4.488275 4.321528-4.168676 4.835665-4.168676C5.419279-4.168676 5.780564-4.50217 5.780564-5.044098C5.780564-5.905625 4.84956-6.572613 3.626748-6.572613C1.736948-6.572613 .34739-5.099681 .34739-3.098716C.34739-1.181125 1.597993 .194538 3.321045 .194538C4.391006 .194538 5.169159-.236225 5.975103-1.264498L5.724982-1.514619Z'/>
</defs>
<g id='page1'>
<use x='56.413267' y='65.766042' xlink:href='#g1-99'/>
<use x='65.705429' y='65.766042' xlink:href='#g4-50'/>
<use x='78.093928' y='65.766042' xlink:href='#g2-67'/>
<use x='88.167292' y='60.703195' xlink:href='#g10-49'/>
<use x='93.327978' y='60.703195' xlink:href='#g10-48'/>
</g>
</svg>