<?xml version='1.0' encoding='UTF-8'?>
<!-- This file was generated by dvisvgm 2.8.1 -->
<svg version='1.1' xmlns='http://www.w3.org/2000/svg' xmlns:xlink='http://www.w3.org/1999/xlink' width='98.198389pt' height='12.242013pt' viewBox='56.413267 56.19326 98.198389 12.242013'>
<defs>
<path id='g7-58' d='M2.667953-.736466C2.667953-1.139438 2.334459-1.472932 1.931487-1.472932S1.195021-1.139438 1.195021-.736466S1.528515 0 1.931487 0S2.667953-.333494 2.667953-.736466Z'/>
<path id='g7-59' d='M2.820804-.013896C2.820804-.931004 2.473415-1.472932 1.931487-1.472932C1.472932-1.472932 1.195021-1.125543 1.195021-.736466C1.195021-.361285 1.472932 0 1.931487 0C2.098234 0 2.278876-.055582 2.417832-.180643C2.459519-.208434 2.473415-.222329 2.48731-.222329S2.515101-.208434 2.515101-.013896C2.515101 1.014378 2.028756 1.848113 1.570201 2.306668C1.41735 2.459519 1.41735 2.48731 1.41735 2.528997C1.41735 2.626266 1.486828 2.681848 1.556306 2.681848C1.709157 2.681848 2.820804 1.611888 2.820804-.013896Z'/>
<use id='g11-51' xlink:href='#g3-51'/>
<use id='g11-52' xlink:href='#g3-52'/>
<use id='g11-53' xlink:href='#g3-53'/>
<path id='g3-51' d='M2.126025-4.585544C2.945865-4.585544 3.265463-4.557753 3.598957-4.432692C4.460484-4.12699 5.002412-3.334941 5.002412-2.376145C5.002412-1.208916 4.210363-.305703 3.18209-.305703C2.806909-.305703 2.528997-.402972 2.01486-.736466C1.597993-.986587 1.361768-1.083856 1.125543-1.083856C.805944-1.083856 .59751-.889318 .59751-.59751C.59751-.111165 1.195021 .194538 2.167712 .194538C3.237672 .194538 4.335423-.166747 4.988516-.736466S6.002894-2.112129 6.002894-3.043134C6.002894-3.751809 5.780564-4.404901 5.377592-4.835665C5.099681-5.141367 4.835665-5.308114 4.224259-5.572131C5.183054-6.225223 5.530444-6.73936 5.530444-7.489722C5.530444-8.615264 4.641126-9.393417 3.362732-9.393417C2.667953-9.393417 2.056547-9.157192 1.556306-8.712533C1.139438-8.337353 .931004-7.976067 .625301-7.142332L.833735-7.08675C1.403454-8.101128 2.028756-8.559682 2.904178-8.559682C3.807391-8.559682 4.432692-7.948276 4.432692-7.072854C4.432692-6.572613 4.224259-6.072372 3.876869-5.724982C3.460001-5.308114 3.070925-5.099681 2.126025-4.766187V-4.585544Z'/>
<path id='g3-52' d='M6.558717-3.209881H5.141367V-9.393417H4.529962L.166747-3.209881V-2.320563H4.071407V0H5.141367V-2.320563H6.558717V-3.209881ZM4.057512-3.209881H.722571L4.057512-7.976067V-3.209881Z'/>
<path id='g3-53' d='M2.515101-8.101128H5.238637C5.460966-8.101128 5.516548-8.128919 5.558235-8.226188L6.086267-9.462895L5.961207-9.560164C5.752773-9.268357 5.613817-9.198879 5.32201-9.198879H2.417832L.903213-5.905625C.889318-5.877834 .889318-5.863938 .889318-5.836147C.889318-5.766669 .9449-5.724982 1.056065-5.724982C1.500723-5.724982 2.056547-5.627713 2.626266-5.44707C4.224259-4.932934 4.960725-4.071407 4.960725-2.695744C4.960725-1.361768 4.113094-.319599 3.029238-.319599C2.751326-.319599 2.515101-.416868 2.098234-.722571C1.653575-1.042169 1.333976-1.181125 1.042169-1.181125C.639197-1.181125 .444659-1.014378 .444659-.666988C.444659-.138956 1.097751 .194538 2.139921 .194538C3.30715 .194538 4.307632-.180643 5.002412-.889318C5.641609-1.514619 5.933416-2.306668 5.933416-3.362732C5.933416-4.363215 5.6694-5.002412 4.97462-5.697191C4.363215-6.308597 3.571166-6.628195 1.931487-6.920003L2.515101-8.101128Z'/>
<path id='g1-0' d='M9.157192-3.195985C9.393417-3.195985 9.643538-3.195985 9.643538-3.473897S9.393417-3.751809 9.157192-3.751809H1.639679C1.403454-3.751809 1.153334-3.751809 1.153334-3.473897S1.403454-3.195985 1.639679-3.195985H9.157192Z'/>
<path id='g12-61' d='M9.546269-4.543857C9.754703-4.543857 10.018719-4.543857 10.018719-4.821769S9.754703-5.099681 9.560164-5.099681H1.236707C1.042169-5.099681 .778153-5.099681 .778153-4.821769S1.042169-4.543857 1.250603-4.543857H9.546269ZM9.560164-1.848113C9.754703-1.848113 10.018719-1.848113 10.018719-2.126025S9.754703-2.403937 9.546269-2.403937H1.250603C1.042169-2.403937 .778153-2.403937 .778153-2.126025S1.042169-1.848113 1.236707-1.848113H9.560164Z'/>
<path id='g8-115' d='M.500241-2.028756L.222329 .180643H.444659C.555824-.041687 .639197-.111165 .778153-.111165C.931004-.111165 1.181125-.055582 1.459037 .013896C1.76474 .111165 2.000965 .152851 2.223294 .152851C3.390523 .152851 4.224259-.59751 4.224259-1.653575C4.224259-2.181607 3.932451-2.793013 3.279359-3.598957C2.751326-4.25205 2.528997-4.682813 2.528997-5.057994C2.528997-5.516548 2.820804-5.808356 3.30715-5.808356C4.02972-5.808356 4.446588-5.294219 4.585544-4.210363H4.807873L5.085785-6.14185H4.891247C4.780082-5.947312 4.668917-5.891729 4.474379-5.891729C4.37711-5.891729 4.238154-5.91952 3.974138-5.988998C3.626748-6.100163 3.418315-6.127954 3.195985-6.127954C2.181607-6.127954 1.514619-5.530444 1.514619-4.59944C1.514619-4.154781 1.806426-3.55727 2.390041-2.806909C2.931969-2.098234 3.168194-1.611888 3.168194-1.208916C3.168194-.583615 2.751326-.138956 2.139921-.138956C1.375663-.138956 .9449-.708675 .722571-2.028756H.500241Z'/>
</defs>
<g id='page1'>
<use x='56.413267' y='65.753425' xlink:href='#g8-115'/>
<use x='64.938248' y='65.753425' xlink:href='#g12-61'/>
<use x='78.874929' y='65.753425' xlink:href='#g11-53'/>
<use x='85.848777' y='65.753425' xlink:href='#g7-59'/>
<use x='91.261879' y='65.753425' xlink:href='#g11-52'/>
<use x='98.235727' y='65.753425' xlink:href='#g7-59'/>
<use x='103.648829' y='65.753425' xlink:href='#g11-51'/>
<use x='110.622677' y='65.753425' xlink:href='#g7-59'/>
<use x='116.035779' y='65.753425' xlink:href='#g7-58'/>
<use x='121.448881' y='65.753425' xlink:href='#g7-58'/>
<use x='126.861983' y='65.753425' xlink:href='#g7-58'/>
<use x='132.275068' y='65.753425' xlink:href='#g7-59'/>
<use x='137.68817' y='65.753425' xlink:href='#g1-0'/>
<use x='148.525389' y='65.753425' xlink:href='#g11-53'/>
</g>
</svg>