<?xml version='1.0' encoding='UTF-8'?>
<!-- This file was generated by dvisvgm 2.8.1 -->
<svg version='1.1' xmlns='http://www.w3.org/2000/svg' xmlns:xlink='http://www.w3.org/1999/xlink' width='30.513125pt' height='9.69912pt' viewBox='56.413267 56.248843 30.513125 9.69912'>
<defs>
<path id='g6-54' d='M6.197432-9.504582C4.613335-9.365626 3.807391-9.10161 2.793013-8.392935C1.29229-7.322975 .47245-5.738878 .47245-3.876869C.47245-2.667953 .847631-1.445141 1.445141-.750362C1.973173-.138956 2.723535 .194538 3.585062 .194538C5.308114 .194538 6.503135-1.125543 6.503135-3.043134C6.503135-4.821769 5.488757-5.947312 3.890765-5.947312C3.279359-5.947312 2.987551-5.850042 2.112129-5.32201C2.48731-7.420244 4.043616-8.920967 6.225223-9.282253L6.197432-9.504582ZM3.362732-5.308114C4.557753-5.308114 5.252532-4.307632 5.252532-2.570684C5.252532-1.042169 4.710604-.194538 3.737913-.194538C2.515101-.194538 1.76474-1.500723 1.76474-3.65454C1.76474-4.363215 1.875904-4.752291 2.153816-4.960725C2.445623-5.183054 2.876387-5.308114 3.362732-5.308114Z'/>
<path id='g7-61' d='M9.546269-4.543857C9.754703-4.543857 10.018719-4.543857 10.018719-4.821769S9.754703-5.099681 9.560164-5.099681H1.236707C1.042169-5.099681 .778153-5.099681 .778153-4.821769S1.042169-4.543857 1.250603-4.543857H9.546269ZM9.560164-1.848113C9.754703-1.848113 10.018719-1.848113 10.018719-2.126025S9.754703-2.403937 9.546269-2.403937H1.250603C1.042169-2.403937 .778153-2.403937 .778153-2.126025S1.042169-1.848113 1.236707-1.848113H9.560164Z'/>
<path id='g3-110' d='M6.39197-1.625784L6.100163-1.264498C5.697191-.750362 5.44707-.528032 5.252532-.528032C5.141367-.528032 5.030203-.639197 5.030203-.750362C5.030203-.847631 5.030203-.847631 5.224741-1.625784L6.016789-4.488275C6.086267-4.780082 6.14185-5.085785 6.14185-5.280323C6.14185-5.780564 5.766669-6.127954 5.224741-6.127954C4.335423-6.127954 3.460001-5.294219 2.028756-3.070925L2.95976-6.100163L2.918073-6.127954C2.167712-5.975103 1.875904-5.91952 .666988-5.697191V-5.474862C1.375663-5.460966 1.556306-5.377592 1.556306-5.099681C1.556306-5.016307 1.54241-4.932934 1.528515-4.863456L.194538 0H1.236707C1.8898-2.195503 2.01486-2.501206 2.626266-3.446106C3.460001-4.7245 4.168676-5.419279 4.682813-5.419279C4.891247-5.419279 5.016307-5.266428 5.016307-5.016307C5.016307-4.84956 4.932934-4.391006 4.821769-3.960242L4.210363-1.667471C4.02972-.958796 3.988034-.764257 3.988034-.625301C3.988034-.097269 4.182572 .12506 4.641126 .12506C5.266428 .12506 5.627713-.166747 6.586509-1.445141L6.39197-1.625784Z'/>
</defs>
<g id='page1'>
<use x='56.413267' y='65.753425' xlink:href='#g3-110'/>
<use x='66.486576' y='65.753425' xlink:href='#g7-61'/>
<use x='80.423257' y='65.753425' xlink:href='#g6-54'/>
</g>
</svg>