<?xml version='1.0' encoding='UTF-8'?>
<!-- This file was generated by dvisvgm 2.8.1 -->
<svg version='1.1' xmlns='http://www.w3.org/2000/svg' xmlns:xlink='http://www.w3.org/1999/xlink' width='244.161507pt' height='55.860267pt' viewBox='110.185808 81.486528 244.161507 55.860267'>
<defs>
<path id='g7-58' d='M1.9743-.544989C1.9743-.843191 1.727512-1.089978 1.429311-1.089978S.884322-.843191 .884322-.544989S1.131109 0 1.429311 0S1.9743-.246787 1.9743-.544989Z'/>
<path id='g3-229' d='M2.445623-9.879763H6.169641C7.767634-9.879763 8.184501-9.560164 8.420726-8.15671H8.782011L8.643056-10.449482H.319599L3.55727-3.960242L.194538 1.709157H8.907072L9.657433-1.208916H9.296148C8.851489-.083374 8.434622 .152851 6.822734 .152851H2.264981L5.057994-4.738395L2.445623-9.879763Z'/>
<use id='g4-229' xlink:href='#g3-229' transform='scale(1.43999)'/>
<path id='g8-68' d='M1.336765-6.550151C1.9743-6.488454 2.128542-6.406191 2.128542-6.128555C2.128542-5.974313 2.087411-5.727526 2.015431-5.470456L.750645-.925453C.565555-.32905 .493575-.267353-.082262-.164525V0H2.519289C3.722378 0 4.822638-.318767 5.614415-.894605C6.611848-1.624684 7.197968-2.755793 7.197968-3.9486C7.197968-5.634981 6.025727-6.714676 4.195387-6.714676H1.336765V-6.550151ZM3.21852-6.10799C3.280217-6.334212 3.434459-6.406191 3.845771-6.406191C4.431892-6.406191 4.946032-6.272515 5.275082-6.025727C5.77894-5.655546 6.056576-5.007729 6.056576-4.195387C6.056576-3.084843 5.624698-1.933169 4.925467-1.233937C4.318781-.616969 3.485873-.308484 2.416461-.308484C1.943451-.308484 1.748078-.421595 1.748078-.688948C1.748078-.822625 1.799492-1.048847 1.9743-1.665815L3.21852-6.10799Z'/>
<path id='g8-85' d='M7.866351-6.714676H5.820071V-6.550151C6.149121-6.519302 6.251949-6.498737 6.375343-6.416474C6.478171-6.354777 6.550151-6.210818 6.550151-6.077141C6.550151-5.912616 6.282798-4.86377 5.789223-3.125975C5.748091-2.992298 5.70696-2.81749 5.655546-2.622117C5.470456-1.953734 5.316213-1.542422 5.089992-1.192806C4.688962-.555272 4.13369-.236505 3.413893-.236505C2.56042-.236505 1.9743-.73008 1.9743-1.449876C1.9743-1.799492 2.293067-3.043712 2.982015-5.419042C3.002581-5.491021 3.023146-5.563001 3.033429-5.614415C3.249368-6.334212 3.413893-6.478171 4.113124-6.550151V-6.714676H1.305917V-6.550151C1.994865-6.488454 2.107976-6.426757 2.107976-6.128555C2.107976-6.005162 2.077128-5.840637 2.035997-5.665829L1.491008-3.691529C1.182523-2.580986 1.048847-1.922886 1.048847-1.511573C1.048847-.524423 1.994865 .185091 3.2905 .185091C4.637548 .185091 5.491021-.544989 5.943465-2.087411L6.796938-5.018012C7.187685-6.354777 7.228816-6.406191 7.866351-6.550151V-6.714676Z'/>
<path id='g8-86' d='M7.074574-6.714676H5.161971V-6.550151C5.624698-6.498737 5.809788-6.395909 5.809788-6.200535S5.614415-5.563001 5.275082-4.976881L3.156823-1.3162L2.478158-5.871485C2.467875-5.922899 2.467875-5.964031 2.467875-6.025727C2.467875-6.375343 2.611834-6.478171 3.259651-6.550151V-6.714676H.781494V-6.550151C1.357331-6.478171 1.377897-6.447323 1.593836-5.161971L2.467875 .185091H2.663248L6.498737-6.138838C6.673544-6.416474 6.838069-6.539868 7.074574-6.550151V-6.714676Z'/>
<path id='g8-105' d='M2.282784-1.17224C2.035997-.843191 1.964017-.760928 1.861189-.647817C1.686381-.473009 1.532139-.370181 1.439594-.370181C1.357331-.370181 1.275069-.452444 1.275069-.524423C1.275069-.627251 1.305917-.781494 1.377897-.976867C1.377897-1.007715 1.408745-1.079695 1.429311-1.161958V-1.182523L1.439594-1.203089L2.344481-4.514154L2.313633-4.53472C1.275069-4.339346 1.069412-4.308498 .668383-4.277649V-4.113124C1.213372-4.102842 1.3162-4.071993 1.3162-3.866337C1.3162-3.784075 1.285351-3.61955 1.223655-3.413893L.73008-1.593836C.565555-.997433 .503858-.678666 .503858-.473009C.503858-.092545 .668383 .113111 .976867 .113111C1.449876 .113111 1.83034-.195373 2.416461-1.05913L2.282784-1.17224ZM2.200522-6.724959C1.922886-6.724959 1.717229-6.488454 1.717229-6.17997C1.717229-5.85092 1.912603-5.634981 2.210804-5.634981C2.478158-5.634981 2.714662-5.871485 2.714662-6.159404C2.714662-6.457605 2.478158-6.724959 2.200522-6.724959Z'/>
<path id='g16-43' d='M4.20567-2.365047H7.074574C7.218533-2.365047 7.413907-2.365047 7.413907-2.570703S7.218533-2.776359 7.074574-2.776359H4.20567V-5.655546C4.20567-5.799506 4.20567-5.994879 4.000014-5.994879S3.794357-5.799506 3.794357-5.655546V-2.776359H.91517C.771211-2.776359 .575837-2.776359 .575837-2.570703S.771211-2.365047 .91517-2.365047H3.794357V.514141C3.794357 .6581 3.794357 .853473 4.000014 .853473S4.20567 .6581 4.20567 .514141V-2.365047Z'/>
<path id='g16-61' d='M7.064291-3.362479C7.218533-3.362479 7.413907-3.362479 7.413907-3.568135S7.218533-3.773792 7.074574-3.773792H.91517C.771211-3.773792 .575837-3.773792 .575837-3.568135S.771211-3.362479 .925453-3.362479H7.064291ZM7.074574-1.367614C7.218533-1.367614 7.413907-1.367614 7.413907-1.57327S7.218533-1.778926 7.064291-1.778926H.925453C.771211-1.778926 .575837-1.778926 .575837-1.57327S.771211-1.367614 .91517-1.367614H7.074574Z'/>
<use id='g11-58' xlink:href='#g7-58' transform='scale(1.351341)'/>
<path id='g15-48' d='M2.611834-6.95118C2.046279-6.95118 1.614401-6.776373 1.233937-6.416474C.637534-5.840637 .246787-4.658113 .246787-3.455025C.246787-2.334198 .58612-1.131109 1.069412-.555272C1.449876-.102828 1.9743 .143959 2.570703 .143959C3.095126 .143959 3.537287-.030848 3.907468-.390747C4.503871-.956301 4.894618-2.149108 4.894618-3.393328C4.894618-5.501304 3.958882-6.95118 2.611834-6.95118ZM2.580986-6.683827C3.444742-6.683827 3.907468-5.52187 3.907468-3.372762S3.455025-.123394 2.570703-.123394S1.233937-1.223655 1.233937-3.362479C1.233937-5.542435 1.696664-6.683827 2.580986-6.683827Z'/>
<path id='g15-49' d='M2.992298-6.95118L1.141392-6.015445V-5.871485C1.264786-5.922899 1.377897-5.964031 1.419028-5.984596C1.604119-6.056576 1.778926-6.097707 1.881754-6.097707C2.097693-6.097707 2.190239-5.943465 2.190239-5.614415V-.956301C2.190239-.616969 2.107976-.380464 1.943451-.287919C1.789209-.195373 1.64525-.164525 1.213372-.154242V0H4.051428V-.154242C3.239086-.164525 3.074561-.267353 3.074561-.760928V-6.930615L2.992298-6.95118Z'/>
<use id='g20-43' xlink:href='#g16-43' transform='scale(1.351341)'/>
<use id='g20-61' xlink:href='#g16-61' transform='scale(1.351341)'/>
<use id='g12-68' xlink:href='#g8-68' transform='scale(1.351341)'/>
<use id='g12-85' xlink:href='#g8-85' transform='scale(1.351341)'/>
<use id='g12-86' xlink:href='#g8-86' transform='scale(1.351341)'/>
</defs>
<g id='page1'>
<use x='110.296973' y='90.560347' xlink:href='#g12-68'/>
<use x='123.466627' y='90.560347' xlink:href='#g20-61'/>
<use x='136.70592' y='90.560347' xlink:href='#g12-85'/>
<use x='146.427431' y='92.667359' xlink:href='#g15-48'/>
<use x='152.938592' y='90.560347' xlink:href='#g12-86'/>
<use x='160.763234' y='92.667359' xlink:href='#g15-48'/>
<use x='168.359215' y='90.560347' xlink:href='#g20-43'/>
<use x='180.436211' y='90.560347' xlink:href='#g12-85'/>
<use x='190.157722' y='92.667359' xlink:href='#g15-49'/>
<use x='196.668883' y='90.560347' xlink:href='#g12-86'/>
<use x='204.493525' y='92.667359' xlink:href='#g15-49'/>
<use x='212.089506' y='90.560347' xlink:href='#g20-43'/>
<use x='224.863889' y='90.560347' xlink:href='#g11-58'/>
<use x='228.72726' y='90.560347' xlink:href='#g11-58'/>
<use x='232.590632' y='90.560347' xlink:href='#g11-58'/>
<use x='238.391166' y='90.560347' xlink:href='#g20-43'/>
<use x='250.468162' y='90.560347' xlink:href='#g12-85'/>
<use x='260.189673' y='92.652492' xlink:href='#g8-105'/>
<use x='264.409378' y='90.560347' xlink:href='#g12-86'/>
<use x='272.23402' y='92.652492' xlink:href='#g8-105'/>
<use x='277.538546' y='90.560347' xlink:href='#g20-43'/>
<use x='290.312928' y='90.560347' xlink:href='#g11-58'/>
<use x='294.1763' y='90.560347' xlink:href='#g11-58'/>
<use x='298.039671' y='90.560347' xlink:href='#g11-58'/>
<use x='303.840206' y='90.560347' xlink:href='#g20-43'/>
<use x='315.917201' y='90.560347' xlink:href='#g12-85'/>
<use x='325.638712' y='92.667359' xlink:href='#g15-49'/>
<use x='330.799398' y='92.667359' xlink:href='#g15-49'/>
<use x='337.310559' y='90.560347' xlink:href='#g12-86'/>
<use x='345.135202' y='92.667359' xlink:href='#g15-49'/>
<use x='350.295887' y='92.667359' xlink:href='#g15-49'/>
<use x='123.466627' y='122.829109' xlink:href='#g20-61'/>
<use x='140.267384' y='107.926103' xlink:href='#g15-49'/>
<use x='145.42807' y='107.926103' xlink:href='#g15-49'/>
<use x='138.272986' y='125.806956' xlink:href='#g4-229'/>
<use x='137.403307' y='137.202836' xlink:href='#g8-105'/>
<use x='140.272549' y='137.202836' xlink:href='#g16-61'/>
<use x='148.292151' y='137.202836' xlink:href='#g15-48'/>
<use x='154.30516' y='122.829109' xlink:href='#g12-85'/>
<use x='164.026671' y='124.921255' xlink:href='#g8-105'/>
<use x='168.246376' y='122.829109' xlink:href='#g12-86'/>
<use x='176.071019' y='124.921255' xlink:href='#g8-105'/>
<use x='180.988111' y='122.829109' xlink:href='#g11-58'/>
</g>
</svg>