<?xml version='1.0' encoding='UTF-8'?>
<!-- This file was generated by dvisvgm 2.1.3 -->
<svg height='12.2694pt' version='1.1' viewBox='56.4133 54.5634 64.2806 12.2694' width='64.2806pt' xmlns='http://www.w3.org/2000/svg' xmlns:xlink='http://www.w3.org/1999/xlink'>
<defs>
<path d='M8.53499 -2.97883C8.75517 -2.97883 8.98829 -2.97883 8.98829 -3.23786S8.75517 -3.49689 8.53499 -3.49689H1.52827C1.30809 -3.49689 1.07497 -3.49689 1.07497 -3.23786S1.30809 -2.97883 1.52827 -2.97883H8.53499Z' id='g0-0'/>
<path d='M5.16762 -2.99178H8.74222C8.92354 -2.99178 9.15666 -2.99178 9.15666 -3.22491C9.15666 -3.47098 8.93649 -3.47098 8.74222 -3.47098H5.16762V-7.04558C5.16762 -7.2269 5.16762 -7.46002 4.9345 -7.46002C4.68842 -7.46002 4.68842 -7.23985 4.68842 -7.04558V-3.47098H1.11382C0.932503 -3.47098 0.699377 -3.47098 0.699377 -3.23786C0.699377 -2.99178 0.919552 -2.99178 1.11382 -2.99178H4.68842V0.582814C4.68842 0.764134 4.68842 0.99726 4.92154 0.99726C5.16762 0.99726 5.16762 0.777086 5.16762 0.582814V-2.99178Z' id='g3-43'/>
<path d='M5.69863 -2.17584H5.4137C5.37484 -1.95567 5.27123 -1.24334 5.14172 -1.03611C5.05106 -0.919552 4.31283 -0.919552 3.92428 -0.919552H1.52827C1.87796 -1.21743 2.668 -2.04633 3.00473 -2.35716C4.97335 -4.17036 5.69863 -4.84384 5.69863 -6.12603C5.69863 -7.61544 4.52005 -8.6127 3.01768 -8.6127S0.63462 -7.33051 0.63462 -6.21669C0.63462 -5.55616 1.20448 -5.55616 1.24334 -5.55616C1.51532 -5.55616 1.85205 -5.75044 1.85205 -6.16488C1.85205 -6.52752 1.60598 -6.7736 1.24334 -6.7736C1.12677 -6.7736 1.10087 -6.7736 1.06202 -6.76065C1.30809 -7.64134 2.00747 -8.23711 2.84932 -8.23711C3.95019 -8.23711 4.62366 -7.31756 4.62366 -6.12603C4.62366 -5.02516 3.98904 -4.06675 3.25081 -3.23786L0.63462 -0.310834V0H5.36189L5.69863 -2.17584Z' id='g3-50'/>
<path d='M2.38306 -4.64956C2.16289 -4.63661 2.11108 -4.62366 2.11108 -4.5071C2.11108 -4.37758 2.17584 -4.37758 2.40897 -4.37758H3.00473C4.1056 -4.37758 4.59776 -3.47098 4.59776 -2.22765C4.59776 -0.531009 3.71706 -0.0777086 3.08244 -0.0777086C2.46077 -0.0777086 1.39875 -0.375592 1.02316 -1.23039C1.43761 -1.16563 1.8132 -1.39875 1.8132 -1.86501C1.8132 -2.2406 1.54122 -2.49963 1.17858 -2.49963C0.867746 -2.49963 0.531009 -2.31831 0.531009 -1.82615C0.531009 -0.673474 1.68369 0.27198 3.1213 0.27198C4.66252 0.27198 5.80224 -0.9066 5.80224 -2.21469C5.80224 -3.40623 4.84384 -4.33873 3.6005 -4.5589C4.72727 -4.88269 5.45255 -5.82814 5.45255 -6.83836C5.45255 -7.86152 4.39054 -8.6127 3.13425 -8.6127C1.8391 -8.6127 0.880697 -7.82267 0.880697 -6.87721C0.880697 -6.35915 1.28219 -6.25554 1.47646 -6.25554C1.74844 -6.25554 2.05928 -6.44981 2.05928 -6.83836C2.05928 -7.2528 1.74844 -7.43412 1.46351 -7.43412C1.3858 -7.43412 1.3599 -7.43412 1.32105 -7.42117C1.8132 -8.30187 3.03064 -8.30187 3.09539 -8.30187C3.52279 -8.30187 4.36463 -8.1076 4.36463 -6.83836C4.36463 -6.59228 4.32578 -5.867 3.95019 -5.31009C3.56164 -4.74022 3.1213 -4.70137 2.77161 -4.68842L2.38306 -4.64956Z' id='g3-51'/>
<path d='M4.67547 -8.43138C4.67547 -8.67746 4.67547 -8.74222 4.49415 -8.74222C4.39054 -8.74222 4.35168 -8.74222 4.24807 -8.5868L0.349689 -2.53848V-2.16289H3.75592V-0.984309C3.75592 -0.505106 3.73001 -0.375592 2.78456 -0.375592H2.52553V0C2.82341 -0.0259029 3.84658 -0.0259029 4.20922 -0.0259029S5.60797 -0.0259029 5.90585 0V-0.375592H5.64682C4.71432 -0.375592 4.67547 -0.505106 4.67547 -0.984309V-2.16289H5.98356V-2.53848H4.67547V-8.43138ZM3.82067 -7.42117V-2.53848H0.673474L3.82067 -7.42117Z' id='g3-52'/>
<path d='M3.66526 -1.85205C3.66526 -1.91681 3.61345 -1.96862 3.53574 -1.96862C3.41918 -1.96862 3.40623 -1.92976 3.34147 -1.70959C3.00473 -0.531009 2.47372 -0.129514 2.04633 -0.129514C1.89091 -0.129514 1.70959 -0.168369 1.70959 -0.556912C1.70959 -0.9066 1.86501 -1.29514 2.00747 -1.68369L2.91407 -4.09265C2.95293 -4.19626 3.04359 -4.42939 3.04359 -4.67547C3.04359 -5.21943 2.65504 -5.71158 2.02042 -5.71158C0.828892 -5.71158 0.349689 -3.83362 0.349689 -3.73001C0.349689 -3.67821 0.401494 -3.61345 0.492154 -3.61345C0.608717 -3.61345 0.621669 -3.66526 0.673474 -3.84658C0.984309 -4.9345 1.47646 -5.45255 1.98157 -5.45255C2.09813 -5.45255 2.31831 -5.4396 2.31831 -5.02516C2.31831 -4.68842 2.14994 -4.26102 2.04633 -3.97609L1.13973 -1.56712C1.06202 -1.3599 0.984309 -1.15268 0.984309 -0.919552C0.984309 -0.336737 1.3858 0.129514 2.00747 0.129514C3.199 0.129514 3.66526 -1.76139 3.66526 -1.85205ZM3.56164 -8.08169C3.56164 -8.27597 3.40623 -8.50909 3.1213 -8.50909C2.82341 -8.50909 2.48667 -8.22416 2.48667 -7.88742C2.48667 -7.56364 2.75866 -7.46002 2.91407 -7.46002C3.26376 -7.46002 3.56164 -7.79676 3.56164 -8.08169Z' id='g1-105'/>
<path d='M4.18847 -1.60468H3.93463C3.9165 -1.48682 3.84397 -0.951926 3.72611 -0.806871C3.67172 -0.725277 3.04616 -0.725277 2.86484 -0.725277H1.2511L2.14863 -1.57748C3.63545 -2.86484 4.18847 -3.34534 4.18847 -4.27007C4.18847 -5.31265 3.32721 -6.03793 2.21209 -6.03793C1.16951 -6.03793 0.462364 -5.21293 0.462364 -4.38793C0.462364 -3.93463 0.852201 -3.8893 0.933794 -3.8893C1.13325 -3.8893 1.40522 -4.03435 1.40522 -4.36073C1.40522 -4.63271 1.21484 -4.83216 0.933794 -4.83216C0.888464 -4.83216 0.861266 -4.83216 0.825003 -4.82309C1.04259 -5.46678 1.62281 -5.75689 2.11237 -5.75689C3.0371 -5.75689 3.35441 -4.89562 3.35441 -4.27007C3.35441 -3.34534 2.65633 -2.59287 2.22116 -2.12144L0.56209 -0.326375C0.462364 -0.226649 0.462364 -0.208517 0.462364 0H3.93463L4.18847 -1.60468Z' id='g2-50'/>
</defs>
<g id='page1'>
<use x='56.4133' xlink:href='#g3-51' y='65.7534'/>
<use x='62.754' xlink:href='#g1-105' y='65.7534'/>
<use x='67.0802' xlink:href='#g2-50' y='60.4059'/>
<use x='75.1153' xlink:href='#g0-0' y='65.7534'/>
<use x='88.0667' xlink:href='#g3-52' y='65.7534'/>
<use x='94.4075' xlink:href='#g1-105' y='65.7534'/>
<use x='101.612' xlink:href='#g3-43' y='65.7534'/>
<use x='114.353' xlink:href='#g3-50' y='65.7534'/>
</g>
</svg>