<?xml version='1.0' encoding='UTF-8'?>
<!-- This file was generated by dvisvgm 2.6.1 -->
<svg height='12.951432pt' version='1.1' viewBox='56.413267 56.039851 94.796508 12.951432' width='94.796508pt' xmlns='http://www.w3.org/2000/svg' xmlns:xlink='http://www.w3.org/1999/xlink'>
<defs>
<path d='M8.534994 -2.978829C8.755168 -2.978829 8.988294 -2.978829 8.988294 -3.237858S8.755168 -3.496887 8.534994 -3.496887H1.528269C1.308095 -3.496887 1.074969 -3.496887 1.074969 -3.237858S1.308095 -2.978829 1.528269 -2.978829H8.534994Z' id='g1-0'/>
<path d='M6.410959 -4.895641C6.501619 -5.089913 6.553425 -5.193524 7.369365 -5.193524V-5.750436C6.903113 -5.724533 6.87721 -5.724533 6.346202 -5.724533C5.996513 -5.724533 5.97061 -5.724533 5.232379 -5.750436V-5.193524C5.582067 -5.193524 5.866999 -5.128767 5.866999 -5.038107C5.866999 -5.025156 5.866999 -5.012204 5.802242 -4.88269L4.286924 -1.554172L2.616189 -5.193524H3.328518V-5.750436C3.030635 -5.724533 2.124035 -5.724533 1.774346 -5.724533C1.398755 -5.724533 0.647572 -5.724533 0.310834 -5.750436V-5.193524H1.126775L3.406227 -0.246077C3.52279 0 3.548692 0.064757 3.846575 0.064757C4.053798 0.064757 4.15741 0.038854 4.273973 -0.220174L6.410959 -4.895641Z' id='g0-118'/>
<path d='M2.383064 -0.621669C2.383064 -0.99726 2.072229 -1.256289 1.761395 -1.256289C1.385803 -1.256289 1.126775 -0.945455 1.126775 -0.63462C1.126775 -0.259029 1.437609 0 1.748443 0C2.124035 0 2.383064 -0.310834 2.383064 -0.621669Z' id='g2-58'/>
<path d='M2.525529 0.051806C2.525529 -0.699377 2.279452 -1.256289 1.748443 -1.256289C1.333998 -1.256289 1.126775 -0.919552 1.126775 -0.63462S1.321046 0 1.761395 0C1.929763 0 2.072229 -0.051806 2.188792 -0.168369C2.214695 -0.194271 2.227646 -0.194271 2.240598 -0.194271C2.266501 -0.194271 2.266501 -0.012951 2.266501 0.051806C2.266501 0.479203 2.188792 1.321046 1.437609 2.162889C1.295143 2.318306 1.295143 2.344209 1.295143 2.370112C1.295143 2.434869 1.3599 2.499626 1.424658 2.499626C1.528269 2.499626 2.525529 1.54122 2.525529 0.051806Z' id='g2-59'/>
<path d='M4.209215 3.147198C4.209215 3.108344 4.209215 3.082441 3.989041 2.862267C2.693898 1.554172 1.968618 -0.582814 1.968618 -3.224907C1.968618 -5.737484 2.577335 -7.900374 4.079701 -9.428643C4.209215 -9.545205 4.209215 -9.571108 4.209215 -9.609963C4.209215 -9.687671 4.144458 -9.713574 4.092653 -9.713574C3.924284 -9.713574 2.862267 -8.781071 2.227646 -7.511831C1.567123 -6.203736 1.26924 -4.817933 1.26924 -3.224907C1.26924 -2.072229 1.45056 -0.531009 2.124035 0.854795C2.888169 2.408966 3.950187 3.250809 4.092653 3.250809C4.144458 3.250809 4.209215 3.224907 4.209215 3.147198Z' id='g3-40'/>
<path d='M3.652304 -3.224907C3.652304 -4.209215 3.52279 -5.815193 2.797509 -7.317559C2.033375 -8.871731 0.971357 -9.713574 0.828892 -9.713574C0.777086 -9.713574 0.712329 -9.687671 0.712329 -9.609963C0.712329 -9.571108 0.712329 -9.545205 0.932503 -9.325031C2.227646 -8.016936 2.952927 -5.87995 2.952927 -3.237858C2.952927 -0.72528 2.344209 1.437609 0.841843 2.965878C0.712329 3.082441 0.712329 3.108344 0.712329 3.147198C0.712329 3.224907 0.777086 3.250809 0.828892 3.250809C0.99726 3.250809 2.059278 2.318306 2.693898 1.049066C3.354421 -0.27198 3.652304 -1.670735 3.652304 -3.224907Z' id='g3-41'/>
<path d='M3.730012 -8.301868C3.730012 -8.599751 3.730012 -8.612702 3.470984 -8.612702C3.160149 -8.263014 2.512578 -7.783811 1.17858 -7.783811V-7.408219C1.476463 -7.408219 2.124035 -7.408219 2.836364 -7.744956V-0.99726C2.836364 -0.531009 2.797509 -0.375592 1.657783 -0.375592H1.256289V0C1.605978 -0.025903 2.862267 -0.025903 3.289664 -0.025903S4.960399 -0.025903 5.310087 0V-0.375592H4.908593C3.768867 -0.375592 3.730012 -0.531009 3.730012 -0.99726V-8.301868Z' id='g3-49'/>
<path d='M1.657783 -7.421171C2.214695 -7.239851 2.667995 -7.226899 2.810461 -7.226899C4.273973 -7.226899 5.206476 -8.301868 5.206476 -8.483188C5.206476 -8.534994 5.180573 -8.599751 5.102864 -8.599751C5.076961 -8.599751 5.051059 -8.599751 4.934496 -8.547945C4.209215 -8.237111 3.587547 -8.198257 3.250809 -8.198257C2.396015 -8.198257 1.787298 -8.457285 1.54122 -8.560897C1.45056 -8.599751 1.424658 -8.599751 1.411706 -8.599751C1.308095 -8.599751 1.308095 -8.522042 1.308095 -8.314819V-4.468244C1.308095 -4.235118 1.308095 -4.15741 1.463512 -4.15741C1.528269 -4.15741 1.54122 -4.170361 1.670735 -4.325778C2.033375 -4.856787 2.642092 -5.167621 3.289664 -5.167621C3.97609 -5.167621 4.312827 -4.533001 4.416438 -4.312827C4.636613 -3.807721 4.649564 -3.173101 4.649564 -2.680946S4.649564 -1.45056 4.286924 -0.867746C4.001993 -0.401494 3.496887 -0.077709 2.927024 -0.077709C2.072229 -0.077709 1.230386 -0.660523 0.99726 -1.605978C1.062017 -1.580075 1.139726 -1.567123 1.204483 -1.567123C1.424658 -1.567123 1.774346 -1.696638 1.774346 -2.136986C1.774346 -2.499626 1.528269 -2.706849 1.204483 -2.706849C0.971357 -2.706849 0.63462 -2.590286 0.63462 -2.085181C0.63462 -0.984309 1.515318 0.27198 2.952927 0.27198C4.416438 0.27198 5.69863 -0.958406 5.69863 -2.603238C5.69863 -4.144458 4.662516 -5.42665 3.302615 -5.42665C2.564384 -5.42665 1.994521 -5.102864 1.657783 -4.740224V-7.421171Z' id='g3-53'/>
<path d='M1.593026 -4.507098C1.593026 -7.783811 3.186052 -8.301868 3.88543 -8.301868C4.351681 -8.301868 4.817933 -8.159402 5.06401 -7.770859C4.908593 -7.770859 4.416438 -7.770859 4.416438 -7.239851C4.416438 -6.954919 4.61071 -6.708842 4.947447 -6.708842C5.271233 -6.708842 5.491407 -6.903113 5.491407 -7.278705C5.491407 -7.952179 4.999253 -8.612702 3.872478 -8.612702C2.240598 -8.612702 0.531009 -6.941968 0.531009 -4.092653C0.531009 -0.531009 2.085181 0.27198 3.186052 0.27198C4.597758 0.27198 5.802242 -0.958406 5.802242 -2.642092C5.802242 -4.364633 4.597758 -5.51731 3.302615 -5.51731C2.149938 -5.51731 1.72254 -4.52005 1.593026 -4.15741V-4.507098ZM3.186052 -0.077709C2.370112 -0.077709 1.981569 -0.802989 1.865006 -1.074969C1.748443 -1.411706 1.618929 -2.046326 1.618929 -2.952927C1.618929 -3.97609 2.085181 -5.258281 3.250809 -5.258281C3.963138 -5.258281 4.33873 -4.779078 4.533001 -4.33873C4.740224 -3.859527 4.740224 -3.211955 4.740224 -2.655044C4.740224 -1.994521 4.740224 -1.411706 4.494147 -0.919552C4.170361 -0.297883 3.70411 -0.077709 3.186052 -0.077709Z' id='g3-54'/>
<path d='M6.15193 -8.042839V-8.340722H3.030635C1.463512 -8.340722 1.437609 -8.509091 1.385803 -8.755168H1.100872L0.699377 -6.164882H0.984309C1.023163 -6.398007 1.139726 -7.200996 1.308095 -7.343462C1.411706 -7.421171 2.383064 -7.421171 2.564384 -7.421171H5.310087L3.937235 -5.452553C3.587547 -4.947447 2.279452 -2.823412 2.279452 -0.388543C2.279452 -0.246077 2.279452 0.27198 2.810461 0.27198C3.354421 0.27198 3.354421 -0.233126 3.354421 -0.401494V-1.049066C3.354421 -2.978829 3.665255 -4.481196 4.273973 -5.348941L6.15193 -8.042839Z' id='g3-55'/>
<path d='M8.742217 -4.196264C8.923537 -4.196264 9.156663 -4.196264 9.156663 -4.42939C9.156663 -4.675467 8.936488 -4.675467 8.742217 -4.675467H1.113823C0.932503 -4.675467 0.699377 -4.675467 0.699377 -4.442341C0.699377 -4.196264 0.919552 -4.196264 1.113823 -4.196264H8.742217ZM8.742217 -1.787298C8.923537 -1.787298 9.156663 -1.787298 9.156663 -2.020423C9.156663 -2.266501 8.936488 -2.266501 8.742217 -2.266501H1.113823C0.932503 -2.266501 0.699377 -2.266501 0.699377 -2.033375C0.699377 -1.787298 0.919552 -1.787298 1.113823 -1.787298H8.742217Z' id='g3-61'/>
</defs>
<g id='page1'>
<use x='56.413267' xlink:href='#g0-118' y='65.753425'/>
<use x='67.700758' xlink:href='#g3-61' y='65.753425'/>
<use x='81.161708' xlink:href='#g3-40' y='65.753425'/>
<use x='86.093394' xlink:href='#g1-0' y='65.753425'/>
<use x='96.166766' xlink:href='#g3-49' y='65.753425'/>
<use x='102.507506' xlink:href='#g2-58' y='65.753425'/>
<use x='106.030139' xlink:href='#g3-49' y='65.753425'/>
<use x='112.370878' xlink:href='#g2-59' y='65.753425'/>
<use x='118.052058' xlink:href='#g3-53' y='65.753425'/>
<use x='124.392797' xlink:href='#g2-59' y='65.753425'/>
<use x='130.073977' xlink:href='#g3-55' y='65.753425'/>
<use x='136.414716' xlink:href='#g2-58' y='65.753425'/>
<use x='139.937349' xlink:href='#g3-54' y='65.753425'/>
<use x='146.278089' xlink:href='#g3-41' y='65.753425'/>
</g>
</svg>