<?xml version='1.0' encoding='UTF-8'?>
<!-- This file was generated by dvisvgm 2.6.1 -->
<svg height='10.936737pt' version='1.1' viewBox='56.413267 56.759384 10.508933 10.936737' width='10.508933pt' xmlns='http://www.w3.org/2000/svg' xmlns:xlink='http://www.w3.org/1999/xlink'>
<defs>
<path d='M2.601931 -5.983536C2.638195 -6.110459 2.638195 -6.128591 2.638195 -6.164855C2.638195 -6.246448 2.583799 -6.291778 2.502206 -6.291778C2.375282 -6.291778 1.577478 -6.219251 1.396158 -6.201119C1.305499 -6.192053 1.205773 -6.182987 1.205773 -6.028865C1.205773 -5.911008 1.305499 -5.911008 1.450554 -5.911008C1.876654 -5.911008 1.876654 -5.847546 1.876654 -5.765952C1.876654 -5.729689 1.876654 -5.711557 1.831325 -5.548369L0.534892 -0.335441C0.498628 -0.208517 0.498628 -0.190385 0.498628 -0.163187C0.498628 -0.018132 0.616485 0.099726 0.779673 0.099726C1.07885 0.099726 1.142311 -0.163187 1.187641 -0.344507L1.613741 -2.057974C2.230227 -2.003578 2.692591 -1.758797 2.692591 -1.305499C2.692591 -1.251103 2.692591 -1.214839 2.665393 -1.07885C2.656327 -1.042586 2.629129 -0.915662 2.629129 -0.815937C2.629129 -0.281045 3.000834 0.099726 3.499462 0.099726C3.843968 0.099726 4.061551 -0.108792 4.224739 -0.371704C4.451388 -0.716211 4.578311 -1.260169 4.578311 -1.296433C4.578311 -1.341763 4.551113 -1.405224 4.460454 -1.405224C4.360728 -1.405224 4.342596 -1.359894 4.297266 -1.196707C4.179409 -0.734343 3.95276 -0.126923 3.52666 -0.126923C3.263747 -0.126923 3.236549 -0.362639 3.236549 -0.56209C3.236549 -0.788739 3.290945 -1.024454 3.300011 -1.042586C3.318142 -1.096982 3.336274 -1.205773 3.336274 -1.314565C3.336274 -1.949182 2.674459 -2.193963 1.97638 -2.275557C2.248359 -2.44781 2.44781 -2.638195 2.737921 -2.928306C3.200285 -3.39067 3.581055 -3.780507 4.061551 -3.780507C4.170343 -3.780507 4.2882 -3.753309 4.360728 -3.671715C3.95276 -3.635451 3.853034 -3.300011 3.853034 -3.173087C3.853034 -3.000834 3.979958 -2.846712 4.206607 -2.846712C4.415124 -2.846712 4.705235 -3.0099 4.705235 -3.408802C4.705235 -3.707979 4.487652 -4.007156 4.061551 -4.007156C3.508528 -4.007156 3.064295 -3.562923 2.683525 -3.173087C2.248359 -2.746987 2.030776 -2.529404 1.695335 -2.384348L2.601931 -5.983536Z' id='g0-107'/>
<path d='M2.991781 -8.664508C3.004732 -8.716314 3.030635 -8.794022 3.030635 -8.85878C3.030635 -8.988294 2.901121 -8.988294 2.875218 -8.988294C2.862267 -8.988294 2.396015 -8.94944 2.162889 -8.923537C1.942715 -8.910585 1.748443 -8.884682 1.515318 -8.871731C1.204483 -8.845828 1.113823 -8.832877 1.113823 -8.599751C1.113823 -8.470237 1.243337 -8.470237 1.372852 -8.470237C2.033375 -8.470237 2.033375 -8.353674 2.033375 -8.224159C2.033375 -8.133499 1.929763 -7.757908 1.877958 -7.524782L1.567123 -6.281445C1.437609 -5.763387 0.699377 -2.823412 0.647572 -2.590286C0.582814 -2.266501 0.582814 -2.046326 0.582814 -1.877958C0.582814 -0.556912 1.321046 0.129514 2.162889 0.129514C3.665255 0.129514 5.219427 -1.800249 5.219427 -3.678207C5.219427 -4.869738 4.545953 -5.711582 3.574595 -5.711582C2.901121 -5.711582 2.292403 -5.15467 2.046326 -4.895641L2.991781 -8.664508ZM2.175841 -0.129514C1.761395 -0.129514 1.308095 -0.440349 1.308095 -1.45056C1.308095 -1.877958 1.346949 -2.124035 1.580075 -3.030635C1.618929 -3.199004 1.826152 -4.027895 1.877958 -4.196264C1.903861 -4.299875 2.667995 -5.452553 3.548692 -5.452553C4.118555 -5.452553 4.377584 -4.88269 4.377584 -4.209215C4.377584 -3.587547 4.014944 -2.124035 3.691158 -1.45056C3.367372 -0.751183 2.771606 -0.129514 2.175841 -0.129514Z' id='g1-98'/>
</defs>
<g id='page1'>
<use x='56.413267' xlink:href='#g1-98' y='65.753425'/>
<use x='61.805131' xlink:href='#g0-107' y='67.696121'/>
</g>
</svg>