<?xml version='1.0' encoding='UTF-8'?>
<!-- This file was generated by dvisvgm 2.8.1 -->
<svg version='1.1' xmlns='http://www.w3.org/2000/svg' xmlns:xlink='http://www.w3.org/1999/xlink' width='13.103539pt' height='7.253497pt' viewBox='226.15193 75.589268 13.103539 7.253497'>
<defs>
<path id='g1-33' d='M11.58892-3.195985C10.824663-2.61237 10.449482-2.042651 10.338317-1.862009C9.713016-.903213 9.601851-.027791 9.601851-.013896C9.601851 .152851 9.768598 .152851 9.879763 .152851C10.115988 .152851 10.129883 .12506 10.185466-.12506C10.505064-1.486828 11.324904-2.654057 12.895105-3.293254C13.061852-3.348837 13.103539-3.376628 13.103539-3.473897S13.020166-3.612853 12.992374-3.626748C12.380969-3.862973 10.699603-4.557753 10.17157-6.892211C10.129883-7.058959 10.115988-7.100645 9.879763-7.100645C9.768598-7.100645 9.601851-7.100645 9.601851-6.933898C9.601851-6.906107 9.726911-6.030685 10.310526-5.099681C10.588438-4.682813 10.99141-4.196467 11.58892-3.751809H1.264498C1.014378-3.751809 .764257-3.751809 .764257-3.473897S1.014378-3.195985 1.264498-3.195985H11.58892Z'/>
</defs>
<g id='page1'>
<use x='226.15193' y='82.689913' xlink:href='#g1-33'/>
</g>
</svg>