<?xml version='1.0' encoding='UTF-8'?>
<!-- This file was generated by dvisvgm 2.6.1 -->
<svg height='8.346479pt' version='1.1' viewBox='56.413267 57.406946 30.969174 8.346479' width='30.969174pt' xmlns='http://www.w3.org/2000/svg' xmlns:xlink='http://www.w3.org/1999/xlink'>
<defs>
<path d='M1.657783 -7.421171C2.214695 -7.239851 2.667995 -7.226899 2.810461 -7.226899C4.273973 -7.226899 5.206476 -8.301868 5.206476 -8.483188C5.206476 -8.534994 5.180573 -8.599751 5.102864 -8.599751C5.076961 -8.599751 5.051059 -8.599751 4.934496 -8.547945C4.209215 -8.237111 3.587547 -8.198257 3.250809 -8.198257C2.396015 -8.198257 1.787298 -8.457285 1.54122 -8.560897C1.45056 -8.599751 1.424658 -8.599751 1.411706 -8.599751C1.308095 -8.599751 1.308095 -8.522042 1.308095 -8.314819V-4.468244C1.308095 -4.235118 1.308095 -4.15741 1.463512 -4.15741C1.528269 -4.15741 1.54122 -4.170361 1.670735 -4.325778C2.033375 -4.856787 2.642092 -5.167621 3.289664 -5.167621C3.97609 -5.167621 4.312827 -4.533001 4.416438 -4.312827C4.636613 -3.807721 4.649564 -3.173101 4.649564 -2.680946S4.649564 -1.45056 4.286924 -0.867746C4.001993 -0.401494 3.496887 -0.077709 2.927024 -0.077709C2.072229 -0.077709 1.230386 -0.660523 0.99726 -1.605978C1.062017 -1.580075 1.139726 -1.567123 1.204483 -1.567123C1.424658 -1.567123 1.774346 -1.696638 1.774346 -2.136986C1.774346 -2.499626 1.528269 -2.706849 1.204483 -2.706849C0.971357 -2.706849 0.63462 -2.590286 0.63462 -2.085181C0.63462 -0.984309 1.515318 0.27198 2.952927 0.27198C4.416438 0.27198 5.69863 -0.958406 5.69863 -2.603238C5.69863 -4.144458 4.662516 -5.42665 3.302615 -5.42665C2.564384 -5.42665 1.994521 -5.102864 1.657783 -4.740224V-7.421171Z' id='g1-53'/>
<path d='M8.742217 -4.196264C8.923537 -4.196264 9.156663 -4.196264 9.156663 -4.42939C9.156663 -4.675467 8.936488 -4.675467 8.742217 -4.675467H1.113823C0.932503 -4.675467 0.699377 -4.675467 0.699377 -4.442341C0.699377 -4.196264 0.919552 -4.196264 1.113823 -4.196264H8.742217ZM8.742217 -1.787298C8.923537 -1.787298 9.156663 -1.787298 9.156663 -2.020423C9.156663 -2.266501 8.936488 -2.266501 8.742217 -2.266501H1.113823C0.932503 -2.266501 0.699377 -2.266501 0.699377 -2.033375C0.699377 -1.787298 0.919552 -1.787298 1.113823 -1.787298H8.742217Z' id='g1-61'/>
<path d='M2.667995 -3.79477C2.693898 -3.872478 3.017684 -4.52005 3.496887 -4.934496C3.833624 -5.24533 4.273973 -5.452553 4.779078 -5.452553C5.297136 -5.452553 5.478456 -5.06401 5.478456 -4.545953C5.478456 -3.807721 4.947447 -2.331258 4.688418 -1.63188C4.571856 -1.321046 4.507098 -1.152677 4.507098 -0.919552C4.507098 -0.336737 4.908593 0.129514 5.530262 0.129514C6.734745 0.129514 7.188045 -1.774346 7.188045 -1.852055C7.188045 -1.916812 7.136239 -1.968618 7.058531 -1.968618C6.941968 -1.968618 6.929016 -1.929763 6.864259 -1.709589C6.566376 -0.647572 6.074222 -0.129514 5.569116 -0.129514C5.439601 -0.129514 5.232379 -0.142466 5.232379 -0.556912C5.232379 -0.880697 5.374844 -1.26924 5.452553 -1.45056C5.711582 -2.162889 6.255542 -3.61345 6.255542 -4.351681C6.255542 -5.128767 5.802242 -5.711582 4.817933 -5.711582C3.665255 -5.711582 3.056538 -4.895641 2.823412 -4.571856C2.784558 -5.310087 2.253549 -5.711582 1.683686 -5.711582C1.26924 -5.711582 0.984309 -5.465504 0.764134 -5.025156C0.531009 -4.558904 0.349689 -3.781818 0.349689 -3.730012S0.401494 -3.61345 0.492154 -3.61345C0.595766 -3.61345 0.608717 -3.626401 0.686426 -3.924284C0.893649 -4.714321 1.126775 -5.452553 1.644832 -5.452553C1.942715 -5.452553 2.046326 -5.24533 2.046326 -4.856787C2.046326 -4.571856 1.916812 -4.06675 1.826152 -3.665255L1.463512 -2.266501C1.411706 -2.020423 1.26924 -1.437609 1.204483 -1.204483C1.113823 -0.867746 0.971357 -0.259029 0.971357 -0.194271C0.971357 -0.012951 1.113823 0.129514 1.308095 0.129514C1.463512 0.129514 1.644832 0.051806 1.748443 -0.142466C1.774346 -0.207223 1.890909 -0.660523 1.955666 -0.919552L2.240598 -2.085181L2.667995 -3.79477Z' id='g0-110'/>
</defs>
<g id='page1'>
<use x='56.413267' xlink:href='#g0-110' y='65.753425'/>
<use x='67.580751' xlink:href='#g1-61' y='65.753425'/>
<use x='81.041701' xlink:href='#g1-53' y='65.753425'/>
</g>
</svg>