<?xml version='1.0' encoding='UTF-8'?>
<!-- This file was generated by dvisvgm 2.6.1 -->
<svg height='25.992252pt' version='1.1' viewBox='171.428782 78.909213 122.895947 25.992252' width='122.895947pt' xmlns='http://www.w3.org/2000/svg' xmlns:xlink='http://www.w3.org/1999/xlink'>
<defs>
<path d='M4.2882 -2.901108C4.2882 -3.508528 4.261003 -4.2882 3.943694 -4.968148C3.544792 -5.820348 2.855778 -6.037931 2.329952 -6.037931C1.785995 -6.037931 1.096982 -5.820348 0.698079 -4.950016C0.407968 -4.324464 0.362639 -3.590121 0.362639 -2.901108C0.362639 -2.311821 0.38077 -1.432422 0.770607 -0.716211C1.196707 0.054396 1.903852 0.199451 2.320887 0.199451C2.910174 0.199451 3.581055 -0.054396 3.961826 -0.888464C4.233805 -1.495884 4.2882 -2.175831 4.2882 -2.901108ZM2.329952 -0.027198C2.057974 -0.027198 1.405224 -0.154121 1.232971 -1.178575C1.142311 -1.713467 1.142311 -2.49314 1.142311 -3.0099C1.142311 -3.626385 1.142311 -4.342596 1.251103 -4.841224C1.432422 -5.648095 2.012644 -5.811282 2.320887 -5.811282C2.665393 -5.811282 3.236549 -5.629963 3.408802 -4.786828C3.508528 -4.2882 3.508528 -3.581055 3.508528 -3.0099C3.508528 -2.44781 3.508528 -1.686269 3.417868 -1.151377C3.227483 -0.117858 2.556602 -0.027198 2.329952 -0.027198Z' id='g1-48'/>
<path d='M4.188475 -1.604675H3.934628C3.916496 -1.486818 3.843968 -0.951926 3.726111 -0.806871C3.671715 -0.725277 3.046164 -0.725277 2.864844 -0.725277H1.251103L2.148633 -1.577478C3.635451 -2.864844 4.188475 -3.34534 4.188475 -4.270069C4.188475 -5.312654 3.327208 -6.037931 2.212095 -6.037931C1.169509 -6.037931 0.462364 -5.212929 0.462364 -4.387926C0.462364 -3.934628 0.852201 -3.889298 0.933794 -3.889298C1.133245 -3.889298 1.405224 -4.034354 1.405224 -4.360728C1.405224 -4.632707 1.214839 -4.832158 0.933794 -4.832158C0.888464 -4.832158 0.861266 -4.832158 0.825003 -4.823092C1.042586 -5.466776 1.622807 -5.756886 2.112369 -5.756886C3.037098 -5.756886 3.354406 -4.89562 3.354406 -4.270069C3.354406 -3.34534 2.656327 -2.592865 2.221161 -2.121435L0.56209 -0.326375C0.462364 -0.226649 0.462364 -0.208517 0.462364 0H3.934628L4.188475 -1.604675Z' id='g1-50'/>
<path d='M2.525529 0.051806C2.525529 -0.699377 2.279452 -1.256289 1.748443 -1.256289C1.333998 -1.256289 1.126775 -0.919552 1.126775 -0.63462S1.321046 0 1.761395 0C1.929763 0 2.072229 -0.051806 2.188792 -0.168369C2.214695 -0.194271 2.227646 -0.194271 2.240598 -0.194271C2.266501 -0.194271 2.266501 -0.012951 2.266501 0.051806C2.266501 0.479203 2.188792 1.321046 1.437609 2.162889C1.295143 2.318306 1.295143 2.344209 1.295143 2.370112C1.295143 2.434869 1.3599 2.499626 1.424658 2.499626C1.528269 2.499626 2.525529 1.54122 2.525529 0.051806Z' id='g0-59'/>
<path d='M3.898381 -1.54122C3.833624 -1.321046 3.833624 -1.295143 3.652304 -1.049066C3.367372 -0.686426 2.797509 -0.129514 2.188792 -0.129514C1.657783 -0.129514 1.3599 -0.608717 1.3599 -1.372852C1.3599 -2.085181 1.761395 -3.535741 2.007472 -4.079701C2.447821 -4.986301 3.056538 -5.452553 3.561644 -5.452553C4.416438 -5.452553 4.584807 -4.390535 4.584807 -4.286924C4.584807 -4.273973 4.545953 -4.105604 4.533001 -4.079701L3.898381 -1.54122ZM4.727273 -4.856787C4.584807 -5.193524 4.235118 -5.711582 3.561644 -5.711582C2.098132 -5.711582 0.518057 -3.820672 0.518057 -1.903861C0.518057 -0.621669 1.26924 0.129514 2.149938 0.129514C2.862267 0.129514 3.470984 -0.427397 3.833624 -0.854795C3.963138 -0.09066 4.571856 0.129514 4.960399 0.129514S5.659776 -0.103611 5.892902 -0.569863C6.100125 -1.010212 6.281445 -1.800249 6.281445 -1.852055C6.281445 -1.916812 6.229639 -1.968618 6.15193 -1.968618C6.035367 -1.968618 6.022416 -1.903861 5.97061 -1.709589C5.776339 -0.945455 5.530262 -0.129514 4.999253 -0.129514C4.623661 -0.129514 4.597758 -0.466252 4.597758 -0.72528C4.597758 -1.023163 4.636613 -1.165629 4.753176 -1.670735C4.843836 -1.994521 4.908593 -2.279452 5.012204 -2.655044C5.491407 -4.597758 5.60797 -5.06401 5.60797 -5.141719C5.60797 -5.323039 5.465504 -5.465504 5.271233 -5.465504C4.856787 -5.465504 4.753176 -5.012204 4.727273 -4.856787Z' id='g0-97'/>
<path d='M2.952927 -2.590286C3.173101 -2.551432 3.52279 -2.473724 3.600498 -2.460772C3.768867 -2.408966 4.351681 -2.201743 4.351681 -1.580075C4.351681 -1.17858 3.989041 -0.129514 2.486675 -0.129514C2.214695 -0.129514 1.243337 -0.168369 0.984309 -0.880697C1.502366 -0.81594 1.761395 -1.217435 1.761395 -1.502366C1.761395 -1.774346 1.580075 -1.916812 1.321046 -1.916812C1.036115 -1.916812 0.660523 -1.696638 0.660523 -1.113823C0.660523 -0.349689 1.437609 0.129514 2.473724 0.129514C4.442341 0.129514 5.025156 -1.321046 5.025156 -1.994521C5.025156 -2.188792 5.025156 -2.551432 4.61071 -2.965878C4.286924 -3.276712 3.97609 -3.341469 3.276712 -3.483935C2.927024 -3.561644 2.370112 -3.678207 2.370112 -4.261021C2.370112 -4.52005 2.603238 -5.452553 3.833624 -5.452553C4.377584 -5.452553 4.908593 -5.24533 5.038107 -4.779078C4.468244 -4.779078 4.442341 -4.286924 4.442341 -4.273973C4.442341 -4.001993 4.688418 -3.924284 4.804981 -3.924284C4.986301 -3.924284 5.348941 -4.06675 5.348941 -4.61071S4.856787 -5.711582 3.846575 -5.711582C2.149938 -5.711582 1.696638 -4.377584 1.696638 -3.846575C1.696638 -2.862267 2.655044 -2.655044 2.952927 -2.590286Z' id='g0-115'/>
<path d='M2.603238 -5.206476H3.79477C4.040847 -5.206476 4.170361 -5.206476 4.170361 -5.439601C4.170361 -5.582067 4.092653 -5.582067 3.833624 -5.582067H2.693898L3.173101 -7.472976C3.224907 -7.654296 3.224907 -7.680199 3.224907 -7.770859C3.224907 -7.978082 3.056538 -8.094645 2.888169 -8.094645C2.784558 -8.094645 2.486675 -8.055791 2.383064 -7.641345L1.877958 -5.582067H0.660523C0.401494 -5.582067 0.284932 -5.582067 0.284932 -5.33599C0.284932 -5.206476 0.375592 -5.206476 0.621669 -5.206476H1.774346L0.919552 -1.787298C0.81594 -1.333998 0.777086 -1.204483 0.777086 -1.036115C0.777086 -0.427397 1.204483 0.129514 1.929763 0.129514C3.237858 0.129514 3.937235 -1.761395 3.937235 -1.852055C3.937235 -1.929763 3.88543 -1.968618 3.807721 -1.968618C3.781818 -1.968618 3.730012 -1.968618 3.70411 -1.916812C3.691158 -1.903861 3.678207 -1.890909 3.587547 -1.683686C3.315567 -1.036115 2.719801 -0.129514 1.968618 -0.129514C1.580075 -0.129514 1.554172 -0.4533 1.554172 -0.738232C1.554172 -0.751183 1.554172 -0.99726 1.593026 -1.152677L2.603238 -5.206476Z' id='g0-116'/>
<path d='M5.918804 -4.843836C5.918804 -5.659776 5.504359 -5.711582 5.400747 -5.711582C5.089913 -5.711582 4.804981 -5.400747 4.804981 -5.141719C4.804981 -4.986301 4.895641 -4.895641 4.947447 -4.843836C5.076961 -4.727273 5.413699 -4.377584 5.413699 -3.70411C5.413699 -3.160149 4.636613 -0.129514 3.082441 -0.129514C2.292403 -0.129514 2.136986 -0.790037 2.136986 -1.26924C2.136986 -1.916812 2.434869 -2.823412 2.784558 -3.755915C2.991781 -4.286924 3.043587 -4.416438 3.043587 -4.675467C3.043587 -5.219427 2.655044 -5.711582 2.020423 -5.711582C0.828892 -5.711582 0.349689 -3.833624 0.349689 -3.730012C0.349689 -3.678207 0.401494 -3.61345 0.492154 -3.61345C0.608717 -3.61345 0.621669 -3.665255 0.673474 -3.846575C0.984309 -4.960399 1.489415 -5.452553 1.981569 -5.452553C2.098132 -5.452553 2.318306 -5.452553 2.318306 -5.025156C2.318306 -4.688418 2.175841 -4.312827 1.981569 -3.820672C1.3599 -2.162889 1.3599 -1.761395 1.3599 -1.45056C1.3599 -1.165629 1.398755 -0.63462 1.800249 -0.27198C2.266501 0.129514 2.914072 0.129514 3.030635 0.129514C5.180573 0.129514 5.918804 -4.105604 5.918804 -4.843836Z' id='g0-118'/>
<path d='M4.209215 3.147198C4.209215 3.108344 4.209215 3.082441 3.989041 2.862267C2.693898 1.554172 1.968618 -0.582814 1.968618 -3.224907C1.968618 -5.737484 2.577335 -7.900374 4.079701 -9.428643C4.209215 -9.545205 4.209215 -9.571108 4.209215 -9.609963C4.209215 -9.687671 4.144458 -9.713574 4.092653 -9.713574C3.924284 -9.713574 2.862267 -8.781071 2.227646 -7.511831C1.567123 -6.203736 1.26924 -4.817933 1.26924 -3.224907C1.26924 -2.072229 1.45056 -0.531009 2.124035 0.854795C2.888169 2.408966 3.950187 3.250809 4.092653 3.250809C4.144458 3.250809 4.209215 3.224907 4.209215 3.147198Z' id='g2-40'/>
<path d='M3.652304 -3.224907C3.652304 -4.209215 3.52279 -5.815193 2.797509 -7.317559C2.033375 -8.871731 0.971357 -9.713574 0.828892 -9.713574C0.777086 -9.713574 0.712329 -9.687671 0.712329 -9.609963C0.712329 -9.571108 0.712329 -9.545205 0.932503 -9.325031C2.227646 -8.016936 2.952927 -5.87995 2.952927 -3.237858C2.952927 -0.72528 2.344209 1.437609 0.841843 2.965878C0.712329 3.082441 0.712329 3.108344 0.712329 3.147198C0.712329 3.224907 0.777086 3.250809 0.828892 3.250809C0.99726 3.250809 2.059278 2.318306 2.693898 1.049066C3.354421 -0.27198 3.652304 -1.670735 3.652304 -3.224907Z' id='g2-41'/>
<path d='M5.167621 -2.991781H8.742217C8.923537 -2.991781 9.156663 -2.991781 9.156663 -3.224907C9.156663 -3.470984 8.936488 -3.470984 8.742217 -3.470984H5.167621V-7.045579C5.167621 -7.226899 5.167621 -7.460025 4.934496 -7.460025C4.688418 -7.460025 4.688418 -7.239851 4.688418 -7.045579V-3.470984H1.113823C0.932503 -3.470984 0.699377 -3.470984 0.699377 -3.237858C0.699377 -2.991781 0.919552 -2.991781 1.113823 -2.991781H4.688418V0.582814C4.688418 0.764134 4.688418 0.99726 4.921544 0.99726C5.167621 0.99726 5.167621 0.777086 5.167621 0.582814V-2.991781Z' id='g2-43'/>
<path d='M3.730012 -8.301868C3.730012 -8.599751 3.730012 -8.612702 3.470984 -8.612702C3.160149 -8.263014 2.512578 -7.783811 1.17858 -7.783811V-7.408219C1.476463 -7.408219 2.124035 -7.408219 2.836364 -7.744956V-0.99726C2.836364 -0.531009 2.797509 -0.375592 1.657783 -0.375592H1.256289V0C1.605978 -0.025903 2.862267 -0.025903 3.289664 -0.025903S4.960399 -0.025903 5.310087 0V-0.375592H4.908593C3.768867 -0.375592 3.730012 -0.531009 3.730012 -0.99726V-8.301868Z' id='g2-49'/>
<path d='M5.69863 -2.175841H5.413699C5.374844 -1.955666 5.271233 -1.243337 5.141719 -1.036115C5.051059 -0.919552 4.312827 -0.919552 3.924284 -0.919552H1.528269C1.877958 -1.217435 2.667995 -2.046326 3.004732 -2.357161C4.97335 -4.170361 5.69863 -4.843836 5.69863 -6.126027C5.69863 -7.615442 4.52005 -8.612702 3.017684 -8.612702S0.63462 -7.330511 0.63462 -6.216687C0.63462 -5.556164 1.204483 -5.556164 1.243337 -5.556164C1.515318 -5.556164 1.852055 -5.750436 1.852055 -6.164882C1.852055 -6.527522 1.605978 -6.773599 1.243337 -6.773599C1.126775 -6.773599 1.100872 -6.773599 1.062017 -6.760648C1.308095 -7.641345 2.007472 -8.237111 2.849315 -8.237111C3.950187 -8.237111 4.623661 -7.317559 4.623661 -6.126027C4.623661 -5.025156 3.989041 -4.06675 3.250809 -3.237858L0.63462 -0.310834V0H5.361893L5.69863 -2.175841Z' id='g2-50'/>
<path d='M2.383064 -4.960399C2.383064 -5.310087 2.085181 -5.582067 1.761395 -5.582067C1.385803 -5.582067 1.126775 -5.284184 1.126775 -4.960399C1.126775 -4.571856 1.45056 -4.325778 1.748443 -4.325778C2.098132 -4.325778 2.383064 -4.597758 2.383064 -4.960399ZM2.162889 -0.129514C2.162889 0.323786 2.162889 1.243337 1.372852 2.214695C1.295143 2.318306 1.295143 2.344209 1.295143 2.370112C1.295143 2.434869 1.3599 2.499626 1.424658 2.499626C1.515318 2.499626 2.421918 1.54122 2.421918 0.025903C2.421918 -0.4533 2.383064 -1.256289 1.748443 -1.256289C1.372852 -1.256289 1.126775 -0.971357 1.126775 -0.63462C1.126775 -0.284932 1.372852 0 1.761395 0C2.007472 0 2.098132 -0.077709 2.162889 -0.129514Z' id='g2-59'/>
<path d='M8.742217 -4.196264C8.923537 -4.196264 9.156663 -4.196264 9.156663 -4.42939C9.156663 -4.675467 8.936488 -4.675467 8.742217 -4.675467H1.113823C0.932503 -4.675467 0.699377 -4.675467 0.699377 -4.442341C0.699377 -4.196264 0.919552 -4.196264 1.113823 -4.196264H8.742217ZM8.742217 -1.787298C8.923537 -1.787298 9.156663 -1.787298 9.156663 -2.020423C9.156663 -2.266501 8.936488 -2.266501 8.742217 -2.266501H1.113823C0.932503 -2.266501 0.699377 -2.266501 0.699377 -2.033375C0.699377 -1.787298 0.919552 -1.787298 1.113823 -1.787298H8.742217Z' id='g2-61'/>
</defs>
<g id='page1'>
<use x='171.428782' xlink:href='#g0-115' y='96.017437'/>
<use x='177.402288' xlink:href='#g2-40' y='96.017437'/>
<use x='182.333974' xlink:href='#g0-116' y='96.017437'/>
<use x='186.913397' xlink:href='#g2-59' y='96.017437'/>
<use x='192.594577' xlink:href='#g0-118' y='96.017437'/>
<use x='198.725453' xlink:href='#g1-48' y='97.960134'/>
<use x='203.882445' xlink:href='#g0-59' y='96.017437'/>
<use x='209.563625' xlink:href='#g0-97' y='96.017437'/>
<use x='216.220648' xlink:href='#g2-41' y='96.017437'/>
<use x='224.749912' xlink:href='#g2-61' y='96.017437'/>
<use x='238.210862' xlink:href='#g0-118' y='96.017437'/>
<use x='244.341738' xlink:href='#g1-48' y='97.960134'/>
<use x='249.49873' xlink:href='#g0-116' y='96.017437'/>
<use x='256.956215' xlink:href='#g2-43' y='96.017437'/>
<use x='270.893163' xlink:href='#g2-49' y='87.255692'/>
<rect height='0.518031' width='6.340739' x='270.893163' y='92.520556'/>
<use x='270.893163' xlink:href='#g2-50' y='104.901465'/>
<use x='278.429417' xlink:href='#g0-97' y='96.017437'/>
<use x='285.08644' xlink:href='#g0-116' y='96.017437'/>
<use x='289.665863' xlink:href='#g1-50' y='90.669891'/>
</g>
</svg>