<?xml version='1.0' encoding='UTF-8'?>
<!-- This file was generated by dvisvgm 2.8.1 -->
<svg version='1.1' xmlns='http://www.w3.org/2000/svg' xmlns:xlink='http://www.w3.org/1999/xlink' width='74.383005pt' height='13.895588pt' viewBox='56.413267 54.33006 74.383005 13.895588'>
<defs>
<use id='g7-49' xlink:href='#g3-49'/>
<use id='g7-50' xlink:href='#g3-50'/>
<use id='g7-51' xlink:href='#g3-51'/>
<use id='g7-52' xlink:href='#g3-52'/>
<use id='g7-53' xlink:href='#g3-53'/>
<use id='g7-54' xlink:href='#g3-54'/>
<use id='g7-55' xlink:href='#g3-55'/>
<use id='g7-56' xlink:href='#g3-56'/>
<use id='g7-57' xlink:href='#g3-57'/>
<path id='g3-49' d='M4.043616-9.393417L1.54241-8.128919V-7.934381C1.709157-8.003859 1.862009-8.059441 1.917591-8.087232C2.167712-8.184501 2.403937-8.240083 2.542893-8.240083C2.8347-8.240083 2.95976-8.03165 2.95976-7.586991V-1.29229C2.95976-.833735 2.848595-.514137 2.626266-.389076C2.417832-.264016 2.223294-.222329 1.639679-.208434V0H5.474862V-.208434C4.37711-.222329 4.154781-.361285 4.154781-1.028273V-9.365626L4.043616-9.393417Z'/>
<path id='g3-50' d='M6.600404-1.903696L6.419762-1.973173C5.905625-1.181125 5.724982-1.056065 5.099681-1.056065H1.778635L4.113094-3.501688C5.349801-4.793978 5.891729-5.850042 5.891729-6.933898C5.891729-8.323457 4.766187-9.393417 3.321045-9.393417C2.556788-9.393417 1.834218-9.087714 1.320081-8.531891C.875422-8.059441 .666988-7.614782 .430763-6.628195L.722571-6.558717C1.278394-7.920485 1.778635-8.365144 2.737431-8.365144C3.90466-8.365144 4.696709-7.573095 4.696709-6.405866C4.696709-5.32201 4.057512-4.02972 2.890282-2.793013L.416868-.166747V0H5.836147L6.600404-1.903696Z'/>
<path id='g3-51' d='M2.126025-4.585544C2.945865-4.585544 3.265463-4.557753 3.598957-4.432692C4.460484-4.12699 5.002412-3.334941 5.002412-2.376145C5.002412-1.208916 4.210363-.305703 3.18209-.305703C2.806909-.305703 2.528997-.402972 2.01486-.736466C1.597993-.986587 1.361768-1.083856 1.125543-1.083856C.805944-1.083856 .59751-.889318 .59751-.59751C.59751-.111165 1.195021 .194538 2.167712 .194538C3.237672 .194538 4.335423-.166747 4.988516-.736466S6.002894-2.112129 6.002894-3.043134C6.002894-3.751809 5.780564-4.404901 5.377592-4.835665C5.099681-5.141367 4.835665-5.308114 4.224259-5.572131C5.183054-6.225223 5.530444-6.73936 5.530444-7.489722C5.530444-8.615264 4.641126-9.393417 3.362732-9.393417C2.667953-9.393417 2.056547-9.157192 1.556306-8.712533C1.139438-8.337353 .931004-7.976067 .625301-7.142332L.833735-7.08675C1.403454-8.101128 2.028756-8.559682 2.904178-8.559682C3.807391-8.559682 4.432692-7.948276 4.432692-7.072854C4.432692-6.572613 4.224259-6.072372 3.876869-5.724982C3.460001-5.308114 3.070925-5.099681 2.126025-4.766187V-4.585544Z'/>
<path id='g3-52' d='M6.558717-3.209881H5.141367V-9.393417H4.529962L.166747-3.209881V-2.320563H4.071407V0H5.141367V-2.320563H6.558717V-3.209881ZM4.057512-3.209881H.722571L4.057512-7.976067V-3.209881Z'/>
<path id='g3-53' d='M2.515101-8.101128H5.238637C5.460966-8.101128 5.516548-8.128919 5.558235-8.226188L6.086267-9.462895L5.961207-9.560164C5.752773-9.268357 5.613817-9.198879 5.32201-9.198879H2.417832L.903213-5.905625C.889318-5.877834 .889318-5.863938 .889318-5.836147C.889318-5.766669 .9449-5.724982 1.056065-5.724982C1.500723-5.724982 2.056547-5.627713 2.626266-5.44707C4.224259-4.932934 4.960725-4.071407 4.960725-2.695744C4.960725-1.361768 4.113094-.319599 3.029238-.319599C2.751326-.319599 2.515101-.416868 2.098234-.722571C1.653575-1.042169 1.333976-1.181125 1.042169-1.181125C.639197-1.181125 .444659-1.014378 .444659-.666988C.444659-.138956 1.097751 .194538 2.139921 .194538C3.30715 .194538 4.307632-.180643 5.002412-.889318C5.641609-1.514619 5.933416-2.306668 5.933416-3.362732C5.933416-4.363215 5.6694-5.002412 4.97462-5.697191C4.363215-6.308597 3.571166-6.628195 1.931487-6.920003L2.515101-8.101128Z'/>
<path id='g3-54' d='M6.197432-9.504582C4.613335-9.365626 3.807391-9.10161 2.793013-8.392935C1.29229-7.322975 .47245-5.738878 .47245-3.876869C.47245-2.667953 .847631-1.445141 1.445141-.750362C1.973173-.138956 2.723535 .194538 3.585062 .194538C5.308114 .194538 6.503135-1.125543 6.503135-3.043134C6.503135-4.821769 5.488757-5.947312 3.890765-5.947312C3.279359-5.947312 2.987551-5.850042 2.112129-5.32201C2.48731-7.420244 4.043616-8.920967 6.225223-9.282253L6.197432-9.504582ZM3.362732-5.308114C4.557753-5.308114 5.252532-4.307632 5.252532-2.570684C5.252532-1.042169 4.710604-.194538 3.737913-.194538C2.515101-.194538 1.76474-1.500723 1.76474-3.65454C1.76474-4.363215 1.875904-4.752291 2.153816-4.960725C2.445623-5.183054 2.876387-5.308114 3.362732-5.308114Z'/>
<path id='g3-55' d='M6.239119-9.198879H1.097751L.277912-7.156228L.514137-7.045063C1.111647-7.989963 1.361768-8.170606 2.126025-8.170606H5.141367L2.390041 .111165H3.293254L6.239119-8.97655V-9.198879Z'/>
<path id='g3-56' d='M4.02972-5.155263C5.405384-5.891729 5.891729-6.475344 5.891729-7.420244C5.891729-8.559682 4.891247-9.393417 3.501688-9.393417C1.987069-9.393417 .861526-8.462413 .861526-7.197914C.861526-6.294701 1.125543-5.891729 2.584579-4.613335C1.083856-3.473897 .778153-3.043134 .778153-2.098234C.778153-.750362 1.875904 .194538 3.446106 .194538C5.113576 .194538 6.183537-.722571 6.183537-2.153816C6.183537-3.223776 5.711087-3.90466 4.02972-5.155263ZM3.7796-3.724017C4.793978-3.001447 5.127472-2.501206 5.127472-1.723053C5.127472-.81984 4.50217-.194538 3.598957-.194538C2.542893-.194538 1.834218-1.000482 1.834218-2.209398C1.834218-3.098716 2.139921-3.682331 2.945865-4.335423L3.7796-3.724017ZM3.626748-5.405384C2.390041-6.211328 1.8898-6.850525 1.8898-7.628678C1.8898-8.434622 2.515101-9.004341 3.390523-9.004341C4.335423-9.004341 4.932934-8.392935 4.932934-7.434139C4.932934-6.642091 4.543857-6.016789 3.751809-5.488757C3.682331-5.44707 3.682331-5.44707 3.626748-5.405384Z'/>
<path id='g3-57' d='M.81984 .305703C2.376145 .12506 3.140403-.138956 4.085303-.81984C5.530444-1.875904 6.378075-3.598957 6.378075-5.474862C6.378075-7.767634 5.099681-9.393417 3.30715-9.393417C1.653575-9.393417 .416868-7.989963 .416868-6.114059C.416868-4.418797 1.41735-3.293254 2.918073-3.293254C3.682331-3.293254 4.265945-3.515584 5.002412-4.085303C4.432692-1.820322 2.890282-.333494 .778153 .027791L.81984 .305703ZM5.030203-4.932934C5.030203-4.655022 4.97462-4.529962 4.821769-4.404901C4.432692-4.071407 3.918556-3.890765 3.418315-3.890765C2.36225-3.890765 1.695262-4.932934 1.695262-6.586509C1.695262-7.378557 1.917591-8.212292 2.209398-8.573578C2.445623-8.851489 2.793013-9.004341 3.195985-9.004341C4.404901-9.004341 5.030203-7.80932 5.030203-5.474862V-4.932934Z'/>
<path id='g1-112' d='M5.405384 11.880727L2.95976 6.475344C2.862491 6.253014 2.793013 6.253014 2.751326 6.253014C2.737431 6.253014 2.667953 6.253014 2.515101 6.364179L1.195021 7.364661C1.014378 7.503617 1.014378 7.545304 1.014378 7.586991C1.014378 7.656469 1.056065 7.739842 1.153334 7.739842C1.236707 7.739842 1.472932 7.545304 1.625784 7.434139C1.709157 7.364661 1.917591 7.21181 2.070443 7.100645L4.807873 13.117435C4.905142 13.339764 4.97462 13.339764 5.099681 13.339764C5.308114 13.339764 5.349801 13.256391 5.44707 13.061852L11.755667 0C11.852936-.194538 11.852936-.250121 11.852936-.277912C11.852936-.416868 11.741772-.555824 11.575025-.555824C11.46386-.555824 11.366591-.486346 11.255426-.264016L5.405384 11.880727Z'/>
</defs>
<g id='page1'>
<use x='56.413267' y='54.885883' xlink:href='#g1-112'/>
<rect x='68.03164' y='54.34207' height='.543813' width='62.764633'/>
<use x='68.03164' y='66.539022' xlink:href='#g7-57'/>
<use x='75.005488' y='66.539022' xlink:href='#g7-56'/>
<use x='81.979336' y='66.539022' xlink:href='#g7-55'/>
<use x='88.953184' y='66.539022' xlink:href='#g7-54'/>
<use x='95.927032' y='66.539022' xlink:href='#g7-53'/>
<use x='102.90088' y='66.539022' xlink:href='#g7-52'/>
<use x='109.874728' y='66.539022' xlink:href='#g7-51'/>
<use x='116.848576' y='66.539022' xlink:href='#g7-50'/>
<use x='123.822424' y='66.539022' xlink:href='#g7-49'/>
</g>
</svg>