<?xml version='1.0' encoding='UTF-8'?>
<!-- This file was generated by dvisvgm 2.8.1 -->
<svg version='1.1' xmlns='http://www.w3.org/2000/svg' xmlns:xlink='http://www.w3.org/1999/xlink' width='28.019434pt' height='13.895588pt' viewBox='56.413267 55.331734 28.019434 13.895588'>
<defs>
<path id='g7-40' d='M4.59944 3.334941C4.59944 3.293254 4.59944 3.265463 4.363215 3.029238C2.626266 1.278394 2.181607-1.347872 2.181607-3.473897C2.181607-5.891729 2.70964-8.309561 4.418797-10.04651C4.59944-10.213257 4.59944-10.241048 4.59944-10.282735C4.59944-10.380004 4.543857-10.421691 4.460484-10.421691C4.321528-10.421691 3.070925-9.476791 2.251085-7.712051C1.54241-6.183537 1.375663-4.641126 1.375663-3.473897C1.375663-2.390041 1.528515-.708675 2.292772 .861526C3.126507 2.570684 4.321528 3.473897 4.460484 3.473897C4.543857 3.473897 4.59944 3.43221 4.59944 3.334941Z'/>
<path id='g7-41' d='M4.015825-3.473897C4.015825-4.557753 3.862973-6.239119 3.098716-7.80932C2.264981-9.518478 1.06996-10.421691 .931004-10.421691C.847631-10.421691 .792048-10.366108 .792048-10.282735C.792048-10.241048 .792048-10.213257 1.056065-9.963136C2.417832-8.587473 3.209881-6.378075 3.209881-3.473897C3.209881-1.097751 2.695744 1.347872 .972691 3.098716C.792048 3.265463 .792048 3.293254 .792048 3.334941C.792048 3.418315 .847631 3.473897 .931004 3.473897C1.06996 3.473897 2.320563 2.528997 3.140403 .764257C3.849078-.764257 4.015825-2.306668 4.015825-3.473897Z'/>
<path id='g3-99' d='M4.863456-1.472932C4.099198-.653093 3.55727-.34739 2.876387-.34739C2.084338-.34739 1.611888-.9449 1.611888-1.931487C1.611888-3.112612 2.098234-4.349319 2.876387-5.169159C3.279359-5.586026 3.835182-5.836147 4.37711-5.836147C4.696709-5.836147 4.905142-5.724982 4.905142-5.558235C4.905142-5.488757 4.877351-5.419279 4.821769-5.294219C4.7245-5.113576 4.696709-5.016307 4.696709-4.891247C4.696709-4.557753 4.905142-4.363215 5.238637-4.363215C5.613817-4.363215 5.905625-4.641126 5.905625-5.002412C5.905625-5.641609 5.280323-6.127954 4.446588-6.127954C2.36225-6.127954 .416868-4.099198 .416868-1.931487C.416868-.611406 1.167229 .152851 2.459519 .152851C3.487793 .152851 4.25205-.277912 5.085785-1.333976L4.863456-1.472932Z'/>
<path id='g3-111' d='M4.516066-6.127954C2.431728-6.127954 .375181-3.974138 .375181-1.792531C.375181-.59751 1.153334 .152851 2.417832 .152851C3.334941 .152851 4.224259-.264016 5.030203-1.056065C5.947312-1.959278 6.503135-3.140403 6.503135-4.182572C6.503135-5.335906 5.697191-6.127954 4.516066-6.127954ZM4.349319-5.836147C4.946829-5.836147 5.335906-5.32201 5.335906-4.529962C5.335906-3.515584 4.877351-2.126025 4.265945-1.222812C3.751809-.486346 3.223776-.138956 2.626266-.138956C1.973173-.138956 1.54241-.639197 1.54241-1.403454C1.54241-2.431728 1.945382-3.65454 2.626266-4.641126C3.168194-5.419279 3.751809-5.836147 4.349319-5.836147Z'/>
<path id='g3-115' d='M.500241-2.028756L.222329 .180643H.444659C.555824-.041687 .639197-.111165 .778153-.111165C.931004-.111165 1.181125-.055582 1.459037 .013896C1.76474 .111165 2.000965 .152851 2.223294 .152851C3.390523 .152851 4.224259-.59751 4.224259-1.653575C4.224259-2.181607 3.932451-2.793013 3.279359-3.598957C2.751326-4.25205 2.528997-4.682813 2.528997-5.057994C2.528997-5.516548 2.820804-5.808356 3.30715-5.808356C4.02972-5.808356 4.446588-5.294219 4.585544-4.210363H4.807873L5.085785-6.14185H4.891247C4.780082-5.947312 4.668917-5.891729 4.474379-5.891729C4.37711-5.891729 4.238154-5.91952 3.974138-5.988998C3.626748-6.100163 3.418315-6.127954 3.195985-6.127954C2.181607-6.127954 1.514619-5.530444 1.514619-4.59944C1.514619-4.154781 1.806426-3.55727 2.390041-2.806909C2.931969-2.098234 3.168194-1.611888 3.168194-1.208916C3.168194-.583615 2.751326-.138956 2.139921-.138956C1.375663-.138956 .9449-.708675 .722571-2.028756H.500241Z'/>
</defs>
<g id='page1'>
<use x='56.413267' y='65.753425' xlink:href='#g3-99'/>
<use x='62.605968' y='65.753425' xlink:href='#g3-111'/>
<use x='69.579816' y='65.753425' xlink:href='#g3-115'/>
<use x='75.005336' y='65.753425' xlink:href='#g7-40'/>
<use x='80.416876' y='65.753425' xlink:href='#g7-41'/>
</g>
</svg>