<?xml version='1.0' encoding='UTF-8'?>
<!-- This file was generated by dvisvgm 2.6.3 -->
<svg version='1.1' xmlns='http://www.w3.org/2000/svg' xmlns:xlink='http://www.w3.org/1999/xlink' width='40.339877pt' height='76.099087pt' viewBox='212.40186 78.658615 40.339877 76.099087'>
<defs>
<path id='g7-61' d='M7.064291 -3.362479C7.218533 -3.362479 7.413907 -3.362479 7.413907 -3.568135S7.218533 -3.773792 7.074574 -3.773792H0.91517C0.771211 -3.773792 0.575837 -3.773792 0.575837 -3.568135S0.771211 -3.362479 0.925453 -3.362479H7.064291ZM7.074574 -1.367614C7.218533 -1.367614 7.413907 -1.367614 7.413907 -1.57327S7.218533 -1.778926 7.064291 -1.778926H0.925453C0.771211 -1.778926 0.575837 -1.778926 0.575837 -1.57327S0.771211 -1.367614 0.91517 -1.367614H7.074574Z'/>
<path id='g2-58' d='M2.667953 -0.736466C2.667953 -1.139438 2.334459 -1.472932 1.931487 -1.472932S1.195021 -1.139438 1.195021 -0.736466S1.528515 0 1.931487 0S2.667953 -0.333494 2.667953 -0.736466Z'/>
<use id='g11-61' xlink:href='#g7-61' transform='scale(1.351341)'/>
<path id='g3-120' d='M5.586026 -1.54241C5.474862 -1.41735 5.405384 -1.333976 5.280323 -1.167229C4.960725 -0.750362 4.793978 -0.611406 4.641126 -0.611406C4.432692 -0.611406 4.307632 -0.792048 4.210363 -1.181125C4.182572 -1.29229 4.168676 -1.375663 4.154781 -1.41735C3.807391 -2.820804 3.65454 -3.460001 3.65454 -3.668435C4.265945 -4.738395 4.766187 -5.349801 5.016307 -5.349801C5.099681 -5.349801 5.210845 -5.308114 5.349801 -5.238637C5.516548 -5.141367 5.613817 -5.113576 5.724982 -5.113576C6.016789 -5.113576 6.211328 -5.32201 6.211328 -5.613817S5.975103 -6.127954 5.641609 -6.127954C5.030203 -6.127954 4.50217 -5.627713 3.543375 -4.140885L3.390523 -4.905142C3.195985 -5.850042 3.043134 -6.127954 2.667953 -6.127954C2.36225 -6.127954 1.8898 -6.002894 1.042169 -5.724982L0.889318 -5.6694L0.9449 -5.460966C1.472932 -5.586026 1.597993 -5.613817 1.723053 -5.613817C2.070443 -5.613817 2.153816 -5.488757 2.348354 -4.655022L2.751326 -2.945865L1.611888 -1.320081C1.333976 -0.903213 1.056065 -0.653093 0.903213 -0.653093C0.81984 -0.653093 0.680884 -0.694779 0.541928 -0.778153C0.361285 -0.875422 0.208434 -0.917109 0.097269 -0.917109C-0.166747 -0.917109 -0.375181 -0.708675 -0.375181 -0.430763C-0.375181 -0.069478 -0.097269 0.152851 0.319599 0.152851C0.750362 0.152851 0.917109 0.027791 1.611888 -0.81984C1.987069 -1.264498 2.278876 -1.639679 2.862491 -2.445623L3.279359 -0.778153C3.460001 -0.069478 3.640644 0.152851 4.085303 0.152851C4.613335 0.152851 4.97462 -0.180643 5.780564 -1.431246L5.586026 -1.54241Z'/>
<path id='g3-121' d='M0.208434 -5.558235C0.389076 -5.599922 0.486346 -5.613817 0.639197 -5.613817C1.431246 -5.613817 1.639679 -5.266428 2.278876 -2.876387C2.515101 -1.973173 2.848595 -0.34739 2.848595 -0.111165C2.848595 0.111165 2.765222 0.333494 2.556788 0.583615C2.126025 1.153334 1.848113 1.514619 1.695262 1.681366C1.403454 1.987069 1.236707 2.098234 1.056065 2.098234C0.972691 2.098234 0.875422 2.056547 0.722571 1.945382C0.514137 1.778635 0.361285 1.709157 0.208434 1.709157C-0.097269 1.709157 -0.333494 1.945382 -0.333494 2.251085C-0.333494 2.598475 -0.027791 2.862491 0.375181 2.862491C1.264498 2.862491 3.08482 0.778153 4.585544 -1.973173C5.530444 -3.682331 5.91952 -4.682813 5.91952 -5.363697C5.91952 -5.780564 5.572131 -6.127954 5.155263 -6.127954C4.835665 -6.127954 4.613335 -5.91952 4.613335 -5.613817C4.613335 -5.405384 4.7245 -5.252532 5.002412 -5.07189C5.266428 -4.919038 5.363697 -4.793978 5.363697 -4.59944C5.363697 -4.043616 4.84956 -2.95976 3.668435 -1.000482L3.390523 -2.61237C3.18209 -3.835182 2.403937 -6.127954 2.195503 -6.127954H2.139921C2.126025 -6.114059 2.070443 -6.114059 2.01486 -6.114059C1.8898 -6.100163 1.389559 -6.016789 0.653093 -5.877834C0.583615 -5.863938 0.402972 -5.822251 0.208434 -5.79446V-5.558235Z'/>
<path id='g6-48' d='M2.611834 -6.95118C2.046279 -6.95118 1.614401 -6.776373 1.233937 -6.416474C0.637534 -5.840637 0.246787 -4.658113 0.246787 -3.455025C0.246787 -2.334198 0.58612 -1.131109 1.069412 -0.555272C1.449876 -0.102828 1.9743 0.143959 2.570703 0.143959C3.095126 0.143959 3.537287 -0.030848 3.907468 -0.390747C4.503871 -0.956301 4.894618 -2.149108 4.894618 -3.393328C4.894618 -5.501304 3.958882 -6.95118 2.611834 -6.95118ZM2.580986 -6.683827C3.444742 -6.683827 3.907468 -5.52187 3.907468 -3.372762S3.455025 -0.123394 2.570703 -0.123394S1.233937 -1.223655 1.233937 -3.362479C1.233937 -5.542435 1.696664 -6.683827 2.580986 -6.683827Z'/>
<path id='g6-49' d='M2.992298 -6.95118L1.141392 -6.015445V-5.871485C1.264786 -5.922899 1.377897 -5.964031 1.419028 -5.984596C1.604119 -6.056576 1.778926 -6.097707 1.881754 -6.097707C2.097693 -6.097707 2.190239 -5.943465 2.190239 -5.614415V-0.956301C2.190239 -0.616969 2.107976 -0.380464 1.943451 -0.287919C1.789209 -0.195373 1.64525 -0.164525 1.213372 -0.154242V0H4.051428V-0.154242C3.239086 -0.164525 3.074561 -0.267353 3.074561 -0.760928V-6.930615L2.992298 -6.95118Z'/>
<path id='g6-50' d='M4.884335 -1.408745L4.750659 -1.460159C4.370195 -0.874039 4.236518 -0.781494 3.773792 -0.781494H1.3162L3.043712 -2.591268C3.958882 -3.54757 4.359912 -4.329064 4.359912 -5.131123C4.359912 -6.159404 3.527004 -6.95118 2.457592 -6.95118C1.892037 -6.95118 1.357331 -6.724959 0.976867 -6.313646C0.647817 -5.964031 0.493575 -5.634981 0.318767 -4.904901L0.534706 -4.853487C0.946019 -5.861202 1.3162 -6.190252 2.025714 -6.190252C2.88947 -6.190252 3.47559 -5.604132 3.47559 -4.740376C3.47559 -3.938317 3.002581 -2.982015 2.138825 -2.066845L0.308484 -0.123394V0H4.318781L4.884335 -1.408745Z'/>
</defs>
<g id='page1'>
<use x='212.735354' y='91.370009' xlink:href='#g3-121'/>
<use x='218.928055' y='93.477022' xlink:href='#g6-48'/>
<use x='227.686322' y='91.370009' xlink:href='#g11-61'/>
<use x='241.623003' y='91.370009' xlink:href='#g3-120'/>
<use x='247.857402' y='85.609795' xlink:href='#g6-50'/>
<use x='247.815703' y='94.815037' xlink:href='#g6-48'/>
<use x='212.735354' y='113.101215' xlink:href='#g3-121'/>
<use x='218.928055' y='115.208228' xlink:href='#g6-49'/>
<use x='227.686322' y='113.101215' xlink:href='#g11-61'/>
<use x='241.623003' y='113.101215' xlink:href='#g3-120'/>
<use x='247.857402' y='107.341002' xlink:href='#g6-50'/>
<use x='247.815703' y='116.546243' xlink:href='#g6-49'/>
<use x='212.735354' y='134.832422' xlink:href='#g3-121'/>
<use x='218.928055' y='136.939434' xlink:href='#g6-50'/>
<use x='227.686322' y='134.832422' xlink:href='#g11-61'/>
<use x='241.623003' y='134.832422' xlink:href='#g3-120'/>
<use x='247.857402' y='129.072208' xlink:href='#g6-50'/>
<use x='247.815703' y='138.27745' xlink:href='#g6-50'/>
<use x='226.136592' y='154.757702' xlink:href='#g2-58'/>
<use x='231.549694' y='154.757702' xlink:href='#g2-58'/>
<use x='236.962796' y='154.757702' xlink:href='#g2-58'/>
</g>
</svg>