<?xml version='1.0' encoding='UTF-8'?>
<!-- This file was generated by dvisvgm 2.6.1 -->
<svg height='13.780333pt' version='1.1' viewBox='56.413267 55.21095 53.627259 13.780333' width='53.627259pt' xmlns='http://www.w3.org/2000/svg' xmlns:xlink='http://www.w3.org/1999/xlink'>
<defs>
<path d='M4.188475 -1.604675H3.934628C3.916496 -1.486818 3.843968 -0.951926 3.726111 -0.806871C3.671715 -0.725277 3.046164 -0.725277 2.864844 -0.725277H1.251103L2.148633 -1.577478C3.635451 -2.864844 4.188475 -3.34534 4.188475 -4.270069C4.188475 -5.312654 3.327208 -6.037931 2.212095 -6.037931C1.169509 -6.037931 0.462364 -5.212929 0.462364 -4.387926C0.462364 -3.934628 0.852201 -3.889298 0.933794 -3.889298C1.133245 -3.889298 1.405224 -4.034354 1.405224 -4.360728C1.405224 -4.632707 1.214839 -4.832158 0.933794 -4.832158C0.888464 -4.832158 0.861266 -4.832158 0.825003 -4.823092C1.042586 -5.466776 1.622807 -5.756886 2.112369 -5.756886C3.037098 -5.756886 3.354406 -4.89562 3.354406 -4.270069C3.354406 -3.34534 2.656327 -2.592865 2.221161 -2.121435L0.56209 -0.326375C0.462364 -0.226649 0.462364 -0.208517 0.462364 0H3.934628L4.188475 -1.604675Z' id='g1-50'/>
<path d='M5.776339 -5.206476C6.035367 -5.206476 6.138979 -5.206476 6.138979 -5.452553C6.138979 -5.582067 6.035367 -5.582067 5.802242 -5.582067H4.753176C4.999253 -6.916065 5.180573 -7.835616 5.284184 -8.250062C5.361893 -8.560897 5.633873 -8.85878 5.97061 -8.85878C6.24259 -8.85878 6.51457 -8.742217 6.644085 -8.625654C6.138979 -8.573848 5.983562 -8.198257 5.983562 -7.978082C5.983562 -7.719054 6.177833 -7.563636 6.42391 -7.563636C6.682939 -7.563636 7.071482 -7.783811 7.071482 -8.275965C7.071482 -8.819925 6.527522 -9.117808 5.957659 -9.117808C5.400747 -9.117808 4.856787 -8.703362 4.597758 -8.198257C4.364633 -7.744956 4.235118 -7.278705 3.937235 -5.582067H3.069489C2.823412 -5.582067 2.693898 -5.582067 2.693898 -5.348941C2.693898 -5.206476 2.771606 -5.206476 3.030635 -5.206476H3.859527C3.626401 -4.001993 3.095392 -1.074969 2.797509 0.310834C2.577335 1.437609 2.383064 2.383064 1.735492 2.383064C1.696638 2.383064 1.321046 2.383064 1.08792 2.136986C1.748443 2.085181 1.748443 1.515318 1.748443 1.502366C1.748443 1.243337 1.554172 1.08792 1.308095 1.08792C1.049066 1.08792 0.660523 1.308095 0.660523 1.800249C0.660523 2.357161 1.230386 2.642092 1.735492 2.642092C3.056538 2.642092 3.600498 0.27198 3.742964 -0.375592C3.97609 -1.372852 4.61071 -4.817933 4.675467 -5.206476H5.776339Z' id='g0-102'/>
<path d='M6.138979 -5.284184C5.724533 -5.206476 5.569116 -4.895641 5.569116 -4.649564C5.569116 -4.33873 5.815193 -4.235118 5.996513 -4.235118C6.385056 -4.235118 6.657036 -4.571856 6.657036 -4.921544C6.657036 -5.465504 6.035367 -5.711582 5.491407 -5.711582C4.70137 -5.711582 4.261021 -4.934496 4.144458 -4.688418C3.846575 -5.659776 3.043587 -5.711582 2.810461 -5.711582C1.489415 -5.711582 0.790037 -4.014944 0.790037 -3.730012C0.790037 -3.678207 0.841843 -3.61345 0.932503 -3.61345C1.036115 -3.61345 1.062017 -3.691158 1.08792 -3.742964C1.528269 -5.180573 2.396015 -5.452553 2.771606 -5.452553C3.354421 -5.452553 3.470984 -4.908593 3.470984 -4.597758C3.470984 -4.312827 3.393275 -4.014944 3.237858 -3.393275L2.797509 -1.618929C2.603238 -0.841843 2.227646 -0.129514 1.54122 -0.129514C1.476463 -0.129514 1.152677 -0.129514 0.880697 -0.297883C1.346949 -0.388543 1.45056 -0.777086 1.45056 -0.932503C1.45056 -1.191532 1.256289 -1.346949 1.010212 -1.346949C0.699377 -1.346949 0.36264 -1.074969 0.36264 -0.660523C0.36264 -0.116563 0.971357 0.129514 1.528269 0.129514C2.149938 0.129514 2.590286 -0.36264 2.862267 -0.893649C3.069489 -0.129514 3.717061 0.129514 4.196264 0.129514C5.51731 0.129514 6.216687 -1.567123 6.216687 -1.852055C6.216687 -1.916812 6.164882 -1.968618 6.087173 -1.968618C5.97061 -1.968618 5.957659 -1.903861 5.918804 -1.800249C5.569116 -0.660523 4.817933 -0.129514 4.235118 -0.129514C3.781818 -0.129514 3.535741 -0.466252 3.535741 -0.99726C3.535741 -1.282192 3.587547 -1.489415 3.79477 -2.344209L4.24807 -4.105604C4.442341 -4.88269 4.88269 -5.452553 5.478456 -5.452553C5.504359 -5.452553 5.866999 -5.452553 6.138979 -5.284184Z' id='g0-120'/>
<path d='M4.209215 3.147198C4.209215 3.108344 4.209215 3.082441 3.989041 2.862267C2.693898 1.554172 1.968618 -0.582814 1.968618 -3.224907C1.968618 -5.737484 2.577335 -7.900374 4.079701 -9.428643C4.209215 -9.545205 4.209215 -9.571108 4.209215 -9.609963C4.209215 -9.687671 4.144458 -9.713574 4.092653 -9.713574C3.924284 -9.713574 2.862267 -8.781071 2.227646 -7.511831C1.567123 -6.203736 1.26924 -4.817933 1.26924 -3.224907C1.26924 -2.072229 1.45056 -0.531009 2.124035 0.854795C2.888169 2.408966 3.950187 3.250809 4.092653 3.250809C4.144458 3.250809 4.209215 3.224907 4.209215 3.147198Z' id='g2-40'/>
<path d='M3.652304 -3.224907C3.652304 -4.209215 3.52279 -5.815193 2.797509 -7.317559C2.033375 -8.871731 0.971357 -9.713574 0.828892 -9.713574C0.777086 -9.713574 0.712329 -9.687671 0.712329 -9.609963C0.712329 -9.571108 0.712329 -9.545205 0.932503 -9.325031C2.227646 -8.016936 2.952927 -5.87995 2.952927 -3.237858C2.952927 -0.72528 2.344209 1.437609 0.841843 2.965878C0.712329 3.082441 0.712329 3.108344 0.712329 3.147198C0.712329 3.224907 0.777086 3.250809 0.828892 3.250809C0.99726 3.250809 2.059278 2.318306 2.693898 1.049066C3.354421 -0.27198 3.652304 -1.670735 3.652304 -3.224907Z' id='g2-41'/>
<path d='M8.742217 -4.196264C8.923537 -4.196264 9.156663 -4.196264 9.156663 -4.42939C9.156663 -4.675467 8.936488 -4.675467 8.742217 -4.675467H1.113823C0.932503 -4.675467 0.699377 -4.675467 0.699377 -4.442341C0.699377 -4.196264 0.919552 -4.196264 1.113823 -4.196264H8.742217ZM8.742217 -1.787298C8.923537 -1.787298 9.156663 -1.787298 9.156663 -2.020423C9.156663 -2.266501 8.936488 -2.266501 8.742217 -2.266501H1.113823C0.932503 -2.266501 0.699377 -2.266501 0.699377 -2.033375C0.699377 -1.787298 0.919552 -1.787298 1.113823 -1.787298H8.742217Z' id='g2-61'/>
</defs>
<g id='page1'>
<use x='56.413267' xlink:href='#g0-102' y='65.753425'/>
<use x='64.046903' xlink:href='#g2-40' y='65.753425'/>
<use x='68.978589' xlink:href='#g0-120' y='65.753425'/>
<use x='76.185017' xlink:href='#g2-41' y='65.753425'/>
<use x='84.714281' xlink:href='#g2-61' y='65.753425'/>
<use x='98.175231' xlink:href='#g0-120' y='65.753425'/>
<use x='105.381659' xlink:href='#g1-50' y='61.053459'/>
</g>
</svg>