<?xml version='1.0' encoding='UTF-8'?>
<!-- This file was generated by dvisvgm 2.8.1 -->
<svg version='1.1' xmlns='http://www.w3.org/2000/svg' xmlns:xlink='http://www.w3.org/1999/xlink' width='188.182404pt' height='31.219094pt' viewBox='56.413267 53.752015 188.182404 31.219094'>
<defs>
<use id='g11-48' xlink:href='#g3-48' transform='scale(.740005)'/>
<use id='g11-49' xlink:href='#g3-49' transform='scale(.740005)'/>
<path id='g3-48' d='M3.529479-9.393417C2.765222-9.393417 2.181607-9.157192 1.667471-8.670847C.861526-7.892694 .333494-6.294701 .333494-4.668917C.333494-3.154298 .792048-1.528515 1.445141-.750362C1.959278-.138956 2.667953 .194538 3.473897 .194538C4.182572 .194538 4.780082-.041687 5.280323-.528032C6.086267-1.29229 6.6143-2.904178 6.6143-4.585544C6.6143-7.434139 5.349801-9.393417 3.529479-9.393417ZM3.487793-9.032132C4.655022-9.032132 5.280323-7.461931 5.280323-4.557753S4.668917-.166747 3.473897-.166747S1.667471-1.653575 1.667471-4.543857C1.667471-7.489722 2.292772-9.032132 3.487793-9.032132Z'/>
<path id='g3-49' d='M4.043616-9.393417L1.54241-8.128919V-7.934381C1.709157-8.003859 1.862009-8.059441 1.917591-8.087232C2.167712-8.184501 2.403937-8.240083 2.542893-8.240083C2.8347-8.240083 2.95976-8.03165 2.95976-7.586991V-1.29229C2.95976-.833735 2.848595-.514137 2.626266-.389076C2.417832-.264016 2.223294-.222329 1.639679-.208434V0H5.474862V-.208434C4.37711-.222329 4.154781-.361285 4.154781-1.028273V-9.365626L4.043616-9.393417Z'/>
<path id='g3-98' d='M2.126025-9.462895L2.056547-9.490686C1.472932-9.282253 1.097751-9.171088 .444659-8.990445L.041687-8.879281V-8.656951C.12506-8.670847 .180643-8.670847 .277912-8.670847C.833735-8.670847 .958796-8.545786 .958796-7.962172V-.750362C.958796-.319599 2.139921 .138956 3.251568 .138956C5.085785 .138956 6.503135-1.389559 6.503135-3.376628C6.503135-5.085785 5.44707-6.39197 4.057512-6.39197C3.209881-6.39197 2.403937-5.891729 2.126025-5.210845V-9.462895ZM2.126025-4.474379C2.126025-5.016307 2.779118-5.516548 3.501688-5.516548C4.585544-5.516548 5.280323-4.432692 5.280323-2.737431C5.280323-1.195021 4.613335-.305703 3.473897-.305703C2.751326-.305703 2.126025-.625301 2.126025-.972691V-4.474379Z'/>
<path id='g3-100' d='M4.780082 .138956L6.822734-.583615V-.805944C6.572613-.792048 6.544822-.792048 6.503135-.792048C6.002894-.792048 5.891729-.9449 5.891729-1.584097V-9.462895L5.822251-9.490686C5.155263-9.254461 4.668917-9.115506 3.7796-8.879281V-8.656951C3.890765-8.670847 3.974138-8.670847 4.085303-8.670847C4.59944-8.670847 4.7245-8.531891 4.7245-7.962172V-5.79446C4.196467-6.239119 3.821287-6.39197 3.265463-6.39197C1.667471-6.39197 .375181-4.821769 .375181-2.848595C.375181-1.06996 1.41735 .138956 2.945865 .138956C3.724017 .138956 4.25205-.138956 4.7245-.792048V.097269L4.780082 .138956ZM4.7245-1.41735C4.7245-1.320081 4.627231-1.153334 4.488275-1.000482C4.238154-.722571 3.890765-.583615 3.487793-.583615C2.334459-.583615 1.570201-1.695262 1.570201-3.404419C1.570201-4.97462 2.251085-6.002894 3.30715-6.002894C4.043616-6.002894 4.7245-5.349801 4.7245-4.613335V-1.41735Z'/>
<path id='g3-101' d='M5.6694-2.278876C5.002412-1.222812 4.404901-.81984 3.515584-.81984C2.723535-.81984 2.126025-1.222812 1.723053-2.01486C1.472932-2.542893 1.375663-3.001447 1.347872-3.849078H5.627713C5.516548-4.752291 5.377592-5.155263 5.030203-5.599922C4.613335-6.100163 3.974138-6.39197 3.251568-6.39197C2.556788-6.39197 1.903696-6.14185 1.375663-5.6694C.722571-5.099681 .34739-4.113094 .34739-2.973656C.34739-1.056065 1.347872 .138956 2.945865 .138956C4.265945 .138956 5.308114-.680884 5.891729-2.181607L5.6694-2.278876ZM1.375663-4.293737C1.528515-5.377592 2.000965-5.891729 2.848595-5.891729S4.02972-5.502653 4.210363-4.293737H1.375663Z'/>
<path id='g3-106' d='M2.681848-6.350284L2.61237-6.39197C1.792531-6.072372 1.264498-5.891729 .444659-5.641609V-5.419279L.514137-5.433175C.722571-5.460966 .931004-5.474862 1.06996-5.474862C1.389559-5.474862 1.514619-5.238637 1.514619-4.641126V.625301C1.514619 1.681366 1.472932 2.028756 1.320081 2.306668C1.236707 2.445623 1.042169 2.556788 .847631 2.556788C.639197 2.556788 .500241 2.459519 .264016 2.167712C.013896 1.848113-.180643 1.723053-.402972 1.723053C-.722571 1.723053-.972691 1.959278-.972691 2.264981C-.972691 2.70964-.416868 3.029238 .333494 3.029238C1.862009 3.029238 2.681848 1.973173 2.681848 0V-6.350284ZM1.973173-9.490686C1.597993-9.490686 1.278394-9.171088 1.278394-8.782011S1.584097-8.073336 1.973173-8.073336C2.376145-8.073336 2.695744-8.379039 2.695744-8.782011C2.695744-9.171088 2.376145-9.490686 1.973173-9.490686Z'/>
<path id='g3-110' d='M.222329-5.530444C.305703-5.572131 .444659-5.586026 .59751-5.586026C.986587-5.586026 1.111647-5.377592 1.111647-4.696709V-1.250603C1.111647-.458554 .958796-.264016 .250121-.208434V0H3.195985V-.208434C2.48731-.264016 2.278876-.430763 2.278876-.931004V-4.835665C2.945865-5.460966 3.251568-5.627713 3.710122-5.627713C4.391006-5.627713 4.7245-5.19695 4.7245-4.279841V-1.375663C4.7245-.500241 4.543857-.264016 3.849078-.208434V0H6.73936V-.208434C6.058476-.277912 5.891729-.444659 5.891729-1.125543V-4.307632C5.891729-5.613817 5.280323-6.39197 4.25205-6.39197C3.612853-6.39197 3.18209-6.155745 2.23719-5.266428V-6.364179L2.139921-6.39197C1.459037-6.14185 .986587-5.988998 .222329-5.766669V-5.530444Z'/>
<path id='g3-111' d='M3.473897-6.39197C1.667471-6.39197 .402972-5.057994 .402972-3.140403C.402972-1.264498 1.695262 .138956 3.446106 .138956S6.530926-1.333976 6.530926-3.251568C6.530926-5.07189 5.252532-6.39197 3.473897-6.39197ZM3.293254-6.002894C4.460484-6.002894 5.280323-4.668917 5.280323-2.765222C5.280323-1.195021 4.655022-.250121 3.612853-.250121C3.070925-.250121 2.556788-.583615 2.264981-1.139438C1.875904-1.862009 1.653575-2.8347 1.653575-3.821287C1.653575-5.141367 2.306668-6.002894 3.293254-6.002894Z'/>
<path id='g12-61' d='M7.064291-3.362479C7.218533-3.362479 7.413907-3.362479 7.413907-3.568135S7.218533-3.773792 7.074574-3.773792H.91517C.771211-3.773792 .575837-3.773792 .575837-3.568135S.771211-3.362479 .925453-3.362479H7.064291ZM7.074574-1.367614C7.218533-1.367614 7.413907-1.367614 7.413907-1.57327S7.218533-1.778926 7.064291-1.778926H.925453C.771211-1.778926 .575837-1.778926 .575837-1.57327S.771211-1.367614 .91517-1.367614H7.074574Z'/>
<path id='g1-2' d='M5.405384-3.862973L2.626266-6.628195C2.459519-6.794942 2.431728-6.822734 2.320563-6.822734C2.181607-6.822734 2.042651-6.697673 2.042651-6.544822C2.042651-6.447553 2.070443-6.419762 2.223294-6.26691L5.002412-3.473897L2.223294-.680884C2.070443-.528032 2.042651-.500241 2.042651-.402972C2.042651-.250121 2.181607-.12506 2.320563-.12506C2.431728-.12506 2.459519-.152851 2.626266-.319599L5.391488-3.08482L8.267875-.208434C8.295666-.194538 8.392935-.12506 8.476308-.12506C8.643056-.12506 8.75422-.250121 8.75422-.402972C8.75422-.430763 8.75422-.486346 8.712533-.555824C8.698638-.583615 6.489239-2.765222 5.79446-3.473897L8.337353-6.016789C8.406831-6.100163 8.615264-6.280806 8.684742-6.364179C8.698638-6.39197 8.75422-6.447553 8.75422-6.544822C8.75422-6.697673 8.643056-6.822734 8.476308-6.822734C8.365144-6.822734 8.309561-6.767151 8.15671-6.6143L5.405384-3.862973Z'/>
<path id='g1-33' d='M11.58892-3.195985C10.824663-2.61237 10.449482-2.042651 10.338317-1.862009C9.713016-.903213 9.601851-.027791 9.601851-.013896C9.601851 .152851 9.768598 .152851 9.879763 .152851C10.115988 .152851 10.129883 .12506 10.185466-.12506C10.505064-1.486828 11.324904-2.654057 12.895105-3.293254C13.061852-3.348837 13.103539-3.376628 13.103539-3.473897S13.020166-3.612853 12.992374-3.626748C12.380969-3.862973 10.699603-4.557753 10.17157-6.892211C10.129883-7.058959 10.115988-7.100645 9.879763-7.100645C9.768598-7.100645 9.601851-7.100645 9.601851-6.933898C9.601851-6.906107 9.726911-6.030685 10.310526-5.099681C10.588438-4.682813 10.99141-4.196467 11.58892-3.751809H1.264498C1.014378-3.751809 .764257-3.751809 .764257-3.473897S1.014378-3.195985 1.264498-3.195985H11.58892Z'/>
<use id='g16-61' xlink:href='#g12-61' transform='scale(1.351341)'/>
<path id='g7-58' d='M2.667953-.736466C2.667953-1.139438 2.334459-1.472932 1.931487-1.472932S1.195021-1.139438 1.195021-.736466S1.528515 0 1.931487 0S2.667953-.333494 2.667953-.736466Z'/>
<use id='g15-48' xlink:href='#g3-48'/>
<use id='g15-49' xlink:href='#g3-49'/>
<use id='g15-98' xlink:href='#g3-98'/>
<use id='g15-100' xlink:href='#g3-100'/>
<use id='g15-101' xlink:href='#g3-101'/>
<use id='g15-106' xlink:href='#g3-106'/>
<use id='g15-110' xlink:href='#g3-110'/>
<use id='g15-111' xlink:href='#g3-111'/>
</defs>
<g id='page1'>
<use x='56.413267' y='75.208492' xlink:href='#g15-48'/>
<use x='63.387115' y='75.208492' xlink:href='#g7-58'/>
<use x='67.250487' y='75.208492' xlink:href='#g15-49'/>
<use x='77.323796' y='75.208492' xlink:href='#g16-61'/>
<use x='95.942914' y='65.766042' xlink:href='#g15-49'/>
<rect x='92.45599' y='71.442677' height='.557769' width='13.947696'/>
<use x='92.45599' y='84.77657' xlink:href='#g15-49'/>
<use x='99.429838' y='84.77657' xlink:href='#g15-48'/>
<use x='110.698661' y='75.208492' xlink:href='#g16-61'/>
<use x='125.830855' y='65.766042' xlink:href='#g15-49'/>
<use x='134.741867' y='65.766042' xlink:href='#g1-2'/>
<use x='147.516249' y='65.766042' xlink:href='#g15-49'/>
<use x='154.490097' y='65.766042' xlink:href='#g15-48'/>
<use x='161.463945' y='60.703195' xlink:href='#g11-48'/>
<rect x='125.830855' y='71.442677' height='.557769' width='41.291902'/>
<use x='136.673557' y='84.77657' xlink:href='#g15-49'/>
<use x='143.647405' y='84.77657' xlink:href='#g15-48'/>
<use x='150.621253' y='80.745833' xlink:href='#g11-49'/>
<use x='172.967463' y='75.208492' xlink:href='#g1-33'/>
<use x='193.501544' y='75.208492' xlink:href='#g15-106'/>
<use x='197.378869' y='75.208492' xlink:href='#g15-111'/>
<use x='204.352717' y='75.208492' xlink:href='#g15-98'/>
<use x='214.813489' y='75.208492' xlink:href='#g15-100'/>
<use x='221.787337' y='75.208492' xlink:href='#g15-111'/>
<use x='228.761185' y='75.208492' xlink:href='#g15-110'/>
<use x='235.735033' y='75.208492' xlink:href='#g15-101'/>
<use x='241.927719' y='75.208492' xlink:href='#g7-58'/>
</g>
</svg>