<?xml version='1.0' encoding='UTF-8'?>
<!-- This file was generated by dvisvgm 2.6.1 -->
<svg height='12.951432pt' version='1.1' viewBox='56.413267 56.039851 55.549966 12.951432' width='55.549966pt' xmlns='http://www.w3.org/2000/svg' xmlns:xlink='http://www.w3.org/1999/xlink'>
<defs>
<path d='M3.561644 -8.327771H5.012204V-8.884682C4.545953 -8.85878 3.250809 -8.85878 2.706849 -8.85878S0.867746 -8.85878 0.401494 -8.884682V-8.327771H1.852055V-0.556912H0.401494V0C0.867746 -0.025903 2.162889 -0.025903 2.706849 -0.025903S4.545953 -0.025903 5.012204 0V-0.556912H3.561644V-8.327771Z' id='g0-73'/>
<path d='M10.931009 -3.963138C10.931009 -5.15467 10.425903 -5.828144 8.975342 -5.828144C7.667248 -5.828144 7.058531 -4.947447 6.851308 -4.533001C6.644085 -5.633873 5.763387 -5.828144 4.934496 -5.828144C3.691158 -5.828144 3.017684 -5.025156 2.745704 -4.403487H2.732752V-5.828144L0.54396 -5.724533V-5.167621C1.346949 -5.167621 1.437609 -5.167621 1.437609 -4.662516V-0.556912H0.54396V0C0.841843 -0.025903 1.774346 -0.025903 2.136986 -0.025903S3.445081 -0.025903 3.742964 0V-0.556912H2.849315V-3.315567C2.849315 -4.727273 3.898381 -5.400747 4.714321 -5.400747C5.193524 -5.400747 5.478456 -5.115816 5.478456 -4.105604V-0.556912H4.584807V0C4.88269 -0.025903 5.815193 -0.025903 6.177833 -0.025903S7.485928 -0.025903 7.783811 0V-0.556912H6.890162V-3.315567C6.890162 -4.727273 7.939228 -5.400747 8.755168 -5.400747C9.234371 -5.400747 9.519303 -5.115816 9.519303 -4.105604V-0.556912H8.625654V0C8.923537 -0.025903 9.85604 -0.025903 10.21868 -0.025903S11.526775 -0.025903 11.824658 0V-0.556912H10.931009V-3.963138Z' id='g0-109'/>
<path d='M4.209215 3.147198C4.209215 3.108344 4.209215 3.082441 3.989041 2.862267C2.693898 1.554172 1.968618 -0.582814 1.968618 -3.224907C1.968618 -5.737484 2.577335 -7.900374 4.079701 -9.428643C4.209215 -9.545205 4.209215 -9.571108 4.209215 -9.609963C4.209215 -9.687671 4.144458 -9.713574 4.092653 -9.713574C3.924284 -9.713574 2.862267 -8.781071 2.227646 -7.511831C1.567123 -6.203736 1.26924 -4.817933 1.26924 -3.224907C1.26924 -2.072229 1.45056 -0.531009 2.124035 0.854795C2.888169 2.408966 3.950187 3.250809 4.092653 3.250809C4.144458 3.250809 4.209215 3.224907 4.209215 3.147198Z' id='g3-40'/>
<path d='M3.652304 -3.224907C3.652304 -4.209215 3.52279 -5.815193 2.797509 -7.317559C2.033375 -8.871731 0.971357 -9.713574 0.828892 -9.713574C0.777086 -9.713574 0.712329 -9.687671 0.712329 -9.609963C0.712329 -9.571108 0.712329 -9.545205 0.932503 -9.325031C2.227646 -8.016936 2.952927 -5.87995 2.952927 -3.237858C2.952927 -0.72528 2.344209 1.437609 0.841843 2.965878C0.712329 3.082441 0.712329 3.108344 0.712329 3.147198C0.712329 3.224907 0.777086 3.250809 0.828892 3.250809C0.99726 3.250809 2.059278 2.318306 2.693898 1.049066C3.354421 -0.27198 3.652304 -1.670735 3.652304 -3.224907Z' id='g3-41'/>
<path d='M2.991781 -8.664508C3.004732 -8.716314 3.030635 -8.794022 3.030635 -8.85878C3.030635 -8.988294 2.901121 -8.988294 2.875218 -8.988294C2.862267 -8.988294 2.396015 -8.94944 2.162889 -8.923537C1.942715 -8.910585 1.748443 -8.884682 1.515318 -8.871731C1.204483 -8.845828 1.113823 -8.832877 1.113823 -8.599751C1.113823 -8.470237 1.243337 -8.470237 1.372852 -8.470237C2.033375 -8.470237 2.033375 -8.353674 2.033375 -8.224159C2.033375 -8.133499 1.929763 -7.757908 1.877958 -7.524782L1.567123 -6.281445C1.437609 -5.763387 0.699377 -2.823412 0.647572 -2.590286C0.582814 -2.266501 0.582814 -2.046326 0.582814 -1.877958C0.582814 -0.556912 1.321046 0.129514 2.162889 0.129514C3.665255 0.129514 5.219427 -1.800249 5.219427 -3.678207C5.219427 -4.869738 4.545953 -5.711582 3.574595 -5.711582C2.901121 -5.711582 2.292403 -5.15467 2.046326 -4.895641L2.991781 -8.664508ZM2.175841 -0.129514C1.761395 -0.129514 1.308095 -0.440349 1.308095 -1.45056C1.308095 -1.877958 1.346949 -2.124035 1.580075 -3.030635C1.618929 -3.199004 1.826152 -4.027895 1.877958 -4.196264C1.903861 -4.299875 2.667995 -5.452553 3.548692 -5.452553C4.118555 -5.452553 4.377584 -4.88269 4.377584 -4.209215C4.377584 -3.587547 4.014944 -2.124035 3.691158 -1.45056C3.367372 -0.751183 2.771606 -0.129514 2.175841 -0.129514Z' id='g2-98'/>
<path d='M5.06401 -4.869738C4.817933 -4.869738 4.70137 -4.869738 4.52005 -4.714321C4.442341 -4.649564 4.299875 -4.455293 4.299875 -4.24807C4.299875 -3.989041 4.494147 -3.833624 4.740224 -3.833624C5.051059 -3.833624 5.400747 -4.092653 5.400747 -4.61071C5.400747 -5.232379 4.804981 -5.711582 3.911333 -5.711582C2.214695 -5.711582 0.518057 -3.859527 0.518057 -2.020423C0.518057 -0.893649 1.217435 0.129514 2.538481 0.129514C4.299875 0.129514 5.413699 -1.243337 5.413699 -1.411706C5.413699 -1.489415 5.33599 -1.554172 5.284184 -1.554172C5.24533 -1.554172 5.232379 -1.54122 5.115816 -1.424658C4.286924 -0.323786 3.056538 -0.129514 2.564384 -0.129514C1.670735 -0.129514 1.385803 -0.9066 1.385803 -1.554172C1.385803 -2.007472 1.605978 -3.263761 2.072229 -4.144458C2.408966 -4.753176 3.108344 -5.452553 3.924284 -5.452553C4.092653 -5.452553 4.804981 -5.42665 5.06401 -4.869738Z' id='g2-99'/>
<path d='M8.884682 -5.491407C9.104857 -5.491407 9.350934 -5.491407 9.350934 -5.750436S9.117808 -6.009465 8.897634 -6.009465H1.165629C0.945455 -6.009465 0.712329 -6.009465 0.712329 -5.750436S0.971357 -5.491407 1.17858 -5.491407H8.884682ZM8.897634 -0.466252C9.117808 -0.466252 9.350934 -0.466252 9.350934 -0.72528S9.104857 -0.984309 8.884682 -0.984309H1.17858C0.971357 -0.984309 0.712329 -0.984309 0.712329 -0.72528S0.945455 -0.466252 1.165629 -0.466252H8.897634ZM8.897634 -2.978829C9.117808 -2.978829 9.350934 -2.978829 9.350934 -3.237858S9.117808 -3.496887 8.897634 -3.496887H1.165629C0.945455 -3.496887 0.712329 -3.496887 0.712329 -3.237858S0.945455 -2.978829 1.165629 -2.978829H8.897634Z' id='g1-17'/>
</defs>
<g id='page1'>
<use x='56.413267' xlink:href='#g2-98' y='65.753425'/>
<use x='65.402709' xlink:href='#g1-17' y='65.753425'/>
<use x='79.073659' xlink:href='#g0-73' y='65.753425'/>
<use x='84.500082' xlink:href='#g0-109' y='65.753425'/>
<use x='96.642039' xlink:href='#g3-40' y='65.753425'/>
<use x='101.573726' xlink:href='#g2-99' y='65.753425'/>
<use x='107.031546' xlink:href='#g3-41' y='65.753425'/>
</g>
</svg>