<?xml version='1.0' encoding='UTF-8'?>
<!-- This file was generated by dvisvgm 2.6.1 -->
<svg height='10.887859pt' version='1.1' viewBox='56.413267 55.21095 42.707289 10.887859' width='42.707289pt' xmlns='http://www.w3.org/2000/svg' xmlns:xlink='http://www.w3.org/1999/xlink'>
<defs>
<path d='M6.119525 -2.076106C6.282712 -2.076106 6.454966 -2.076106 6.454966 -2.275557C6.454966 -2.465942 6.273646 -2.465942 6.119525 -2.465942H1.115113C0.960992 -2.465942 0.779673 -2.465942 0.779673 -2.275557C0.779673 -2.076106 0.951926 -2.076106 1.115113 -2.076106H6.119525Z' id='g0-0'/>
<path d='M2.756053 -5.79315C2.756053 -6.019799 2.746987 -6.037931 2.520338 -6.037931C1.958248 -5.45771 1.124179 -5.45771 0.843135 -5.45771V-5.176665C1.015388 -5.176665 1.568412 -5.176665 2.057974 -5.41238V-0.725277C2.057974 -0.389836 2.030776 -0.281045 1.187641 -0.281045H0.89753V0C1.223905 -0.027198 2.030776 -0.027198 2.40248 -0.027198S3.590121 -0.027198 3.916496 0V-0.281045H3.626385C2.783251 -0.281045 2.756053 -0.389836 2.756053 -0.725277V-5.79315Z' id='g2-49'/>
<path d='M0.94286 -3.127757C0.94286 -2.96457 0.94286 -2.864844 1.069784 -2.864844C1.142311 -2.864844 1.169509 -2.901108 1.223905 -2.982702C1.495884 -3.363472 1.93105 -3.581055 2.40248 -3.581055C3.372538 -3.581055 3.372538 -2.184897 3.372538 -1.858522C3.372538 -1.577478 3.372538 -1.015388 3.118691 -0.60742C2.87391 -0.226649 2.49314 -0.054396 2.139567 -0.054396C1.604675 -0.054396 0.997256 -0.389836 0.779673 -1.060718C0.788739 -1.060718 0.843135 -1.042586 0.906596 -1.042586C1.087916 -1.042586 1.350828 -1.160443 1.350828 -1.486818C1.350828 -1.767863 1.151377 -1.93105 0.906596 -1.93105C0.716211 -1.93105 0.462364 -1.822259 0.462364 -1.45962C0.462364 -0.634617 1.151377 0.199451 2.157699 0.199451C3.254681 0.199451 4.188475 -0.689013 4.188475 -1.813193C4.188475 -2.910174 3.408802 -3.807704 2.420612 -3.807704C1.985446 -3.807704 1.541214 -3.662649 1.223905 -3.336274V-5.122269C1.495884 -5.040675 1.776929 -4.995346 2.057974 -4.995346C3.173087 -4.995346 3.825836 -5.802216 3.825836 -5.920074C3.825836 -6.001667 3.771441 -6.037931 3.726111 -6.037931C3.707979 -6.037931 3.689847 -6.037931 3.608253 -5.992602C3.182153 -5.820348 2.765119 -5.747821 2.384348 -5.747821C1.994512 -5.747821 1.586544 -5.820348 1.169509 -5.992602C1.07885 -6.037931 1.060718 -6.037931 1.051652 -6.037931C0.94286 -6.037931 0.94286 -5.947272 0.94286 -5.79315V-3.127757Z' id='g2-53'/>
<path d='M8.534994 -6.307347C8.76812 -6.410959 8.794022 -6.501619 8.794022 -6.579328C8.794022 -6.721793 8.690411 -6.825405 8.547945 -6.825405C8.522042 -6.825405 8.509091 -6.812453 8.327771 -6.734745L1.321046 -3.509838C1.08792 -3.406227 1.062017 -3.315567 1.062017 -3.237858C1.062017 -3.147198 1.074969 -3.069489 1.321046 -2.952927L8.327771 0.27198C8.496139 0.349689 8.522042 0.36264 8.547945 0.36264C8.690411 0.36264 8.794022 0.259029 8.794022 0.116563C8.794022 0.038854 8.76812 -0.051806 8.534994 -0.155417L1.865006 -3.224907L8.534994 -6.307347Z' id='g1-60'/>
<path d='M5.802242 -4.144458C5.802242 -5.219427 5.737484 -6.268493 5.271233 -7.252802C4.740224 -8.327771 3.807721 -8.612702 3.173101 -8.612702C2.421918 -8.612702 1.502366 -8.237111 1.023163 -7.162142C0.660523 -6.346202 0.531009 -5.543213 0.531009 -4.144458C0.531009 -2.888169 0.621669 -1.942715 1.08792 -1.023163C1.593026 -0.038854 2.486675 0.27198 3.160149 0.27198C4.286924 0.27198 4.934496 -0.401494 5.310087 -1.152677C5.776339 -2.124035 5.802242 -3.393275 5.802242 -4.144458ZM3.160149 0.012951C2.745704 0.012951 1.903861 -0.220174 1.657783 -1.63188C1.515318 -2.408966 1.515318 -3.393275 1.515318 -4.299875C1.515318 -5.361893 1.515318 -6.320299 1.72254 -7.084433C1.942715 -7.952179 2.603238 -8.353674 3.160149 -8.353674C3.652304 -8.353674 4.403487 -8.055791 4.649564 -6.941968C4.817933 -6.203736 4.817933 -5.180573 4.817933 -4.299875C4.817933 -3.43213 4.817933 -2.447821 4.675467 -1.657783C4.42939 -0.233126 3.61345 0.012951 3.160149 0.012951Z' id='g3-48'/>
<path d='M3.730012 -8.301868C3.730012 -8.599751 3.730012 -8.612702 3.470984 -8.612702C3.160149 -8.263014 2.512578 -7.783811 1.17858 -7.783811V-7.408219C1.476463 -7.408219 2.124035 -7.408219 2.836364 -7.744956V-0.99726C2.836364 -0.531009 2.797509 -0.375592 1.657783 -0.375592H1.256289V0C1.605978 -0.025903 2.862267 -0.025903 3.289664 -0.025903S4.960399 -0.025903 5.310087 0V-0.375592H4.908593C3.768867 -0.375592 3.730012 -0.531009 3.730012 -0.99726V-8.301868Z' id='g3-49'/>
</defs>
<g id='page1'>
<use x='56.413267' xlink:href='#g1-60' y='65.753425'/>
<use x='69.874217' xlink:href='#g3-49' y='65.753425'/>
<use x='76.214957' xlink:href='#g3-48' y='65.753425'/>
<use x='82.555696' xlink:href='#g0-0' y='61.053459'/>
<use x='89.802823' xlink:href='#g2-49' y='61.053459'/>
<use x='94.461689' xlink:href='#g2-53' y='61.053459'/>
</g>
</svg>