<?xml version='1.0' encoding='UTF-8'?>
<!-- This file was generated by dvisvgm 2.6.1 -->
<svg height='9.425773pt' version='1.1' viewBox='56.413267 57.406946 58.250982 9.425773' width='58.250982pt' xmlns='http://www.w3.org/2000/svg' xmlns:xlink='http://www.w3.org/1999/xlink'>
<defs>
<path d='M5.038107 -3.600498L2.447821 -6.177833C2.292403 -6.33325 2.266501 -6.359153 2.162889 -6.359153C2.033375 -6.359153 1.903861 -6.24259 1.903861 -6.100125C1.903861 -6.009465 1.929763 -5.983562 2.072229 -5.841096L4.662516 -3.237858L2.072229 -0.63462C1.929763 -0.492154 1.903861 -0.466252 1.903861 -0.375592C1.903861 -0.233126 2.033375 -0.116563 2.162889 -0.116563C2.266501 -0.116563 2.292403 -0.142466 2.447821 -0.297883L5.025156 -2.875218L7.706102 -0.194271C7.732005 -0.18132 7.822665 -0.116563 7.900374 -0.116563C8.055791 -0.116563 8.159402 -0.233126 8.159402 -0.375592C8.159402 -0.401494 8.159402 -0.4533 8.120548 -0.518057C8.107597 -0.54396 6.048319 -2.577335 5.400747 -3.237858L7.770859 -5.60797C7.835616 -5.685679 8.029888 -5.854047 8.094645 -5.931756C8.107597 -5.957659 8.159402 -6.009465 8.159402 -6.100125C8.159402 -6.24259 8.055791 -6.359153 7.900374 -6.359153C7.796762 -6.359153 7.744956 -6.307347 7.602491 -6.164882L5.038107 -3.600498Z' id='g0-2'/>
<path d='M3.730012 -8.301868C3.730012 -8.599751 3.730012 -8.612702 3.470984 -8.612702C3.160149 -8.263014 2.512578 -7.783811 1.17858 -7.783811V-7.408219C1.476463 -7.408219 2.124035 -7.408219 2.836364 -7.744956V-0.99726C2.836364 -0.531009 2.797509 -0.375592 1.657783 -0.375592H1.256289V0C1.605978 -0.025903 2.862267 -0.025903 3.289664 -0.025903S4.960399 -0.025903 5.310087 0V-0.375592H4.908593C3.768867 -0.375592 3.730012 -0.531009 3.730012 -0.99726V-8.301868Z' id='g1-49'/>
<path d='M2.383064 -4.649564C2.162889 -4.636613 2.111083 -4.623661 2.111083 -4.507098C2.111083 -4.377584 2.175841 -4.377584 2.408966 -4.377584H3.004732C4.105604 -4.377584 4.597758 -3.470984 4.597758 -2.227646C4.597758 -0.531009 3.717061 -0.077709 3.082441 -0.077709C2.460772 -0.077709 1.398755 -0.375592 1.023163 -1.230386C1.437609 -1.165629 1.8132 -1.398755 1.8132 -1.865006C1.8132 -2.240598 1.54122 -2.499626 1.17858 -2.499626C0.867746 -2.499626 0.531009 -2.318306 0.531009 -1.826152C0.531009 -0.673474 1.683686 0.27198 3.121295 0.27198C4.662516 0.27198 5.802242 -0.9066 5.802242 -2.214695C5.802242 -3.406227 4.843836 -4.33873 3.600498 -4.558904C4.727273 -4.88269 5.452553 -5.828144 5.452553 -6.838356C5.452553 -7.861519 4.390535 -8.612702 3.134247 -8.612702C1.839103 -8.612702 0.880697 -7.822665 0.880697 -6.87721C0.880697 -6.359153 1.282192 -6.255542 1.476463 -6.255542C1.748443 -6.255542 2.059278 -6.449813 2.059278 -6.838356C2.059278 -7.252802 1.748443 -7.434122 1.463512 -7.434122C1.385803 -7.434122 1.3599 -7.434122 1.321046 -7.421171C1.8132 -8.301868 3.030635 -8.301868 3.095392 -8.301868C3.52279 -8.301868 4.364633 -8.107597 4.364633 -6.838356C4.364633 -6.592279 4.325778 -5.866999 3.950187 -5.310087C3.561644 -4.740224 3.121295 -4.70137 2.771606 -4.688418L2.383064 -4.649564Z' id='g1-51'/>
<path d='M1.657783 -7.421171C2.214695 -7.239851 2.667995 -7.226899 2.810461 -7.226899C4.273973 -7.226899 5.206476 -8.301868 5.206476 -8.483188C5.206476 -8.534994 5.180573 -8.599751 5.102864 -8.599751C5.076961 -8.599751 5.051059 -8.599751 4.934496 -8.547945C4.209215 -8.237111 3.587547 -8.198257 3.250809 -8.198257C2.396015 -8.198257 1.787298 -8.457285 1.54122 -8.560897C1.45056 -8.599751 1.424658 -8.599751 1.411706 -8.599751C1.308095 -8.599751 1.308095 -8.522042 1.308095 -8.314819V-4.468244C1.308095 -4.235118 1.308095 -4.15741 1.463512 -4.15741C1.528269 -4.15741 1.54122 -4.170361 1.670735 -4.325778C2.033375 -4.856787 2.642092 -5.167621 3.289664 -5.167621C3.97609 -5.167621 4.312827 -4.533001 4.416438 -4.312827C4.636613 -3.807721 4.649564 -3.173101 4.649564 -2.680946S4.649564 -1.45056 4.286924 -0.867746C4.001993 -0.401494 3.496887 -0.077709 2.927024 -0.077709C2.072229 -0.077709 1.230386 -0.660523 0.99726 -1.605978C1.062017 -1.580075 1.139726 -1.567123 1.204483 -1.567123C1.424658 -1.567123 1.774346 -1.696638 1.774346 -2.136986C1.774346 -2.499626 1.528269 -2.706849 1.204483 -2.706849C0.971357 -2.706849 0.63462 -2.590286 0.63462 -2.085181C0.63462 -0.984309 1.515318 0.27198 2.952927 0.27198C4.416438 0.27198 5.69863 -0.958406 5.69863 -2.603238C5.69863 -4.144458 4.662516 -5.42665 3.302615 -5.42665C2.564384 -5.42665 1.994521 -5.102864 1.657783 -4.740224V-7.421171Z' id='g1-53'/>
<path d='M8.742217 -4.196264C8.923537 -4.196264 9.156663 -4.196264 9.156663 -4.42939C9.156663 -4.675467 8.936488 -4.675467 8.742217 -4.675467H1.113823C0.932503 -4.675467 0.699377 -4.675467 0.699377 -4.442341C0.699377 -4.196264 0.919552 -4.196264 1.113823 -4.196264H8.742217ZM8.742217 -1.787298C8.923537 -1.787298 9.156663 -1.787298 9.156663 -2.020423C9.156663 -2.266501 8.936488 -2.266501 8.742217 -2.266501H1.113823C0.932503 -2.266501 0.699377 -2.266501 0.699377 -2.033375C0.699377 -1.787298 0.919552 -1.787298 1.113823 -1.787298H8.742217Z' id='g1-61'/>
</defs>
<g id='page1'>
<use x='56.413267' xlink:href='#g1-51' y='65.753425'/>
<use x='65.632069' xlink:href='#g0-2' y='65.753425'/>
<use x='78.583503' xlink:href='#g1-53' y='65.753425'/>
<use x='88.52182' xlink:href='#g1-61' y='65.753425'/>
<use x='101.98277' xlink:href='#g1-49' y='65.753425'/>
<use x='108.32351' xlink:href='#g1-53' y='65.753425'/>
</g>
</svg>