<?xml version='1.0' encoding='UTF-8'?>
<!-- This file was generated by dvisvgm 2.8.1 -->
<svg version='1.1' xmlns='http://www.w3.org/2000/svg' xmlns:xlink='http://www.w3.org/1999/xlink' width='61.608127pt' height='11.297113pt' viewBox='56.413267 56.360007 61.608127 11.297113'>
<defs>
<path id='g7-60' d='M9.379522-6.920003C9.546269-7.003376 9.643538-7.072854 9.643538-7.225706S9.518478-7.503617 9.365626-7.503617C9.323939-7.503617 9.296148-7.503617 9.115506-7.406348L1.41735-3.7796C1.264498-3.710122 1.153334-3.640644 1.153334-3.473897S1.264498-3.237672 1.41735-3.168194L9.115506 .458554C9.296148 .555824 9.323939 .555824 9.365626 .555824C9.518478 .555824 9.643538 .430763 9.643538 .277912S9.546269 .055582 9.379522-.027791L2.084338-3.473897L9.379522-6.920003Z'/>
<path id='g8-110' d='M6.39197-1.625784L6.100163-1.264498C5.697191-.750362 5.44707-.528032 5.252532-.528032C5.141367-.528032 5.030203-.639197 5.030203-.750362C5.030203-.847631 5.030203-.847631 5.224741-1.625784L6.016789-4.488275C6.086267-4.780082 6.14185-5.085785 6.14185-5.280323C6.14185-5.780564 5.766669-6.127954 5.224741-6.127954C4.335423-6.127954 3.460001-5.294219 2.028756-3.070925L2.95976-6.100163L2.918073-6.127954C2.167712-5.975103 1.875904-5.91952 .666988-5.697191V-5.474862C1.375663-5.460966 1.556306-5.377592 1.556306-5.099681C1.556306-5.016307 1.54241-4.932934 1.528515-4.863456L.194538 0H1.236707C1.8898-2.195503 2.01486-2.501206 2.626266-3.446106C3.460001-4.7245 4.168676-5.419279 4.682813-5.419279C4.891247-5.419279 5.016307-5.266428 5.016307-5.016307C5.016307-4.84956 4.932934-4.391006 4.821769-3.960242L4.210363-1.667471C4.02972-.958796 3.988034-.764257 3.988034-.625301C3.988034-.097269 4.182572 .12506 4.641126 .12506C5.266428 .12506 5.627713-.166747 6.586509-1.445141L6.39197-1.625784Z'/>
<path id='g3-48' d='M3.529479-9.393417C2.765222-9.393417 2.181607-9.157192 1.667471-8.670847C.861526-7.892694 .333494-6.294701 .333494-4.668917C.333494-3.154298 .792048-1.528515 1.445141-.750362C1.959278-.138956 2.667953 .194538 3.473897 .194538C4.182572 .194538 4.780082-.041687 5.280323-.528032C6.086267-1.29229 6.6143-2.904178 6.6143-4.585544C6.6143-7.434139 5.349801-9.393417 3.529479-9.393417ZM3.487793-9.032132C4.655022-9.032132 5.280323-7.461931 5.280323-4.557753S4.668917-.166747 3.473897-.166747S1.667471-1.653575 1.667471-4.543857C1.667471-7.489722 2.292772-9.032132 3.487793-9.032132Z'/>
<path id='g3-49' d='M4.043616-9.393417L1.54241-8.128919V-7.934381C1.709157-8.003859 1.862009-8.059441 1.917591-8.087232C2.167712-8.184501 2.403937-8.240083 2.542893-8.240083C2.8347-8.240083 2.95976-8.03165 2.95976-7.586991V-1.29229C2.95976-.833735 2.848595-.514137 2.626266-.389076C2.417832-.264016 2.223294-.222329 1.639679-.208434V0H5.474862V-.208434C4.37711-.222329 4.154781-.361285 4.154781-1.028273V-9.365626L4.043616-9.393417Z'/>
<path id='g3-52' d='M6.558717-3.209881H5.141367V-9.393417H4.529962L.166747-3.209881V-2.320563H4.071407V0H5.141367V-2.320563H6.558717V-3.209881ZM4.057512-3.209881H.722571L4.057512-7.976067V-3.209881Z'/>
<path id='g1-20' d='M9.379522-8.253979C9.532373-8.323457 9.643538-8.392935 9.643538-8.559682C9.643538-8.712533 9.532373-8.837594 9.365626-8.837594C9.296148-8.837594 9.171088-8.782011 9.115506-8.75422L1.431246-5.127472C1.195021-5.016307 1.153334-4.919038 1.153334-4.807873C1.153334-4.682813 1.236707-4.585544 1.431246-4.50217L9.115506-.889318C9.296148-.792048 9.323939-.792048 9.365626-.792048C9.518478-.792048 9.643538-.917109 9.643538-1.06996C9.643538-1.195021 9.587956-1.278394 9.351731-1.389559L2.084338-4.807873L9.379522-8.253979ZM9.157192 1.903696C9.393417 1.903696 9.643538 1.903696 9.643538 1.625784S9.351731 1.347872 9.143297 1.347872H1.653575C1.445141 1.347872 1.153334 1.347872 1.153334 1.625784S1.403454 1.903696 1.639679 1.903696H9.157192Z'/>
<use id='g11-48' xlink:href='#g3-48'/>
<use id='g11-49' xlink:href='#g3-49'/>
<use id='g11-52' xlink:href='#g3-52'/>
</defs>
<g id='page1'>
<use x='56.413267' y='65.753425' xlink:href='#g11-52'/>
<use x='66.486576' y='65.753425' xlink:href='#g1-20'/>
<use x='80.423257' y='65.753425' xlink:href='#g8-110'/>
<use x='90.496566' y='65.753425' xlink:href='#g7-60'/>
<use x='104.433246' y='65.753425' xlink:href='#g11-49'/>
<use x='111.407094' y='65.753425' xlink:href='#g11-48'/>
</g>
</svg>