<?xml version='1.0' encoding='UTF-8'?>
<!-- This file was generated by dvisvgm 2.6.1 -->
<svg height='12.951432pt' version='1.1' viewBox='56.413267 56.039851 52.139747 12.951432' width='52.139747pt' xmlns='http://www.w3.org/2000/svg' xmlns:xlink='http://www.w3.org/1999/xlink'>
<defs>
<path d='M3.652304 -3.224907C3.652304 -4.209215 3.52279 -5.815193 2.797509 -7.317559C2.033375 -8.871731 0.971357 -9.713574 0.828892 -9.713574C0.777086 -9.713574 0.712329 -9.687671 0.712329 -9.609963C0.712329 -9.571108 0.712329 -9.545205 0.932503 -9.325031C2.227646 -8.016936 2.952927 -5.87995 2.952927 -3.237858C2.952927 -0.72528 2.344209 1.437609 0.841843 2.965878C0.712329 3.082441 0.712329 3.108344 0.712329 3.147198C0.712329 3.224907 0.777086 3.250809 0.828892 3.250809C0.99726 3.250809 2.059278 2.318306 2.693898 1.049066C3.354421 -0.27198 3.652304 -1.670735 3.652304 -3.224907Z' id='g2-41'/>
<path d='M5.802242 -4.144458C5.802242 -5.219427 5.737484 -6.268493 5.271233 -7.252802C4.740224 -8.327771 3.807721 -8.612702 3.173101 -8.612702C2.421918 -8.612702 1.502366 -8.237111 1.023163 -7.162142C0.660523 -6.346202 0.531009 -5.543213 0.531009 -4.144458C0.531009 -2.888169 0.621669 -1.942715 1.08792 -1.023163C1.593026 -0.038854 2.486675 0.27198 3.160149 0.27198C4.286924 0.27198 4.934496 -0.401494 5.310087 -1.152677C5.776339 -2.124035 5.802242 -3.393275 5.802242 -4.144458ZM3.160149 0.012951C2.745704 0.012951 1.903861 -0.220174 1.657783 -1.63188C1.515318 -2.408966 1.515318 -3.393275 1.515318 -4.299875C1.515318 -5.361893 1.515318 -6.320299 1.72254 -7.084433C1.942715 -7.952179 2.603238 -8.353674 3.160149 -8.353674C3.652304 -8.353674 4.403487 -8.055791 4.649564 -6.941968C4.817933 -6.203736 4.817933 -5.180573 4.817933 -4.299875C4.817933 -3.43213 4.817933 -2.447821 4.675467 -1.657783C4.42939 -0.233126 3.61345 0.012951 3.160149 0.012951Z' id='g2-48'/>
<path d='M3.237858 3.237858V2.758655H1.981569V-9.234371H3.237858V-9.713574H1.502366V3.237858H3.237858Z' id='g2-91'/>
<path d='M2.525529 0.051806C2.525529 -0.699377 2.279452 -1.256289 1.748443 -1.256289C1.333998 -1.256289 1.126775 -0.919552 1.126775 -0.63462S1.321046 0 1.761395 0C1.929763 0 2.072229 -0.051806 2.188792 -0.168369C2.214695 -0.194271 2.227646 -0.194271 2.240598 -0.194271C2.266501 -0.194271 2.266501 -0.012951 2.266501 0.051806C2.266501 0.479203 2.188792 1.321046 1.437609 2.162889C1.295143 2.318306 1.295143 2.344209 1.295143 2.370112C1.295143 2.434869 1.3599 2.499626 1.424658 2.499626C1.528269 2.499626 2.525529 1.54122 2.525529 0.051806Z' id='g1-59'/>
<path d='M9.58406 -7.485928C9.726526 -8.042839 9.933748 -8.431382 10.918057 -8.470237C10.956912 -8.470237 11.112329 -8.483188 11.112329 -8.703362C11.112329 -8.845828 10.995766 -8.845828 10.94396 -8.845828C10.684932 -8.845828 10.024408 -8.819925 9.76538 -8.819925H9.143711C8.962391 -8.819925 8.729265 -8.845828 8.547945 -8.845828C8.470237 -8.845828 8.314819 -8.845828 8.314819 -8.599751C8.314819 -8.470237 8.418431 -8.470237 8.509091 -8.470237C9.286177 -8.444334 9.337983 -8.146451 9.337983 -7.913325C9.337983 -7.796762 9.325031 -7.757908 9.286177 -7.576588L7.822665 -1.735492L5.051059 -8.625654C4.960399 -8.832877 4.947447 -8.845828 4.662516 -8.845828H3.082441C2.823412 -8.845828 2.706849 -8.845828 2.706849 -8.599751C2.706849 -8.470237 2.797509 -8.470237 3.043587 -8.470237C3.108344 -8.470237 3.872478 -8.470237 3.872478 -8.353674C3.872478 -8.327771 3.846575 -8.224159 3.833624 -8.185305L2.111083 -1.321046C1.955666 -0.686426 1.644832 -0.414446 0.790037 -0.375592C0.72528 -0.375592 0.595766 -0.36264 0.595766 -0.129514C0.595766 0 0.72528 0 0.764134 0C1.023163 0 1.683686 -0.025903 1.942715 -0.025903H2.564384C2.745704 -0.025903 2.965878 0 3.147198 0C3.237858 0 3.380324 0 3.380324 -0.246077C3.380324 -0.36264 3.250809 -0.375592 3.199004 -0.375592C2.771606 -0.388543 2.357161 -0.466252 2.357161 -0.932503C2.357161 -1.036115 2.383064 -1.152677 2.408966 -1.256289L4.15741 -8.185305C4.235118 -8.055791 4.235118 -8.029888 4.286924 -7.913325L7.369365 -0.233126C7.434122 -0.077709 7.460025 0 7.576588 0C7.706102 0 7.719054 -0.038854 7.770859 -0.259029L9.58406 -7.485928Z' id='g1-78'/>
<path d='M3.665255 -1.852055C3.665255 -1.916812 3.61345 -1.968618 3.535741 -1.968618C3.419178 -1.968618 3.406227 -1.929763 3.341469 -1.709589C3.004732 -0.531009 2.473724 -0.129514 2.046326 -0.129514C1.890909 -0.129514 1.709589 -0.168369 1.709589 -0.556912C1.709589 -0.9066 1.865006 -1.295143 2.007472 -1.683686L2.914072 -4.092653C2.952927 -4.196264 3.043587 -4.42939 3.043587 -4.675467C3.043587 -5.219427 2.655044 -5.711582 2.020423 -5.711582C0.828892 -5.711582 0.349689 -3.833624 0.349689 -3.730012C0.349689 -3.678207 0.401494 -3.61345 0.492154 -3.61345C0.608717 -3.61345 0.621669 -3.665255 0.673474 -3.846575C0.984309 -4.934496 1.476463 -5.452553 1.981569 -5.452553C2.098132 -5.452553 2.318306 -5.439601 2.318306 -5.025156C2.318306 -4.688418 2.149938 -4.261021 2.046326 -3.97609L1.139726 -1.567123C1.062017 -1.3599 0.984309 -1.152677 0.984309 -0.919552C0.984309 -0.336737 1.385803 0.129514 2.007472 0.129514C3.199004 0.129514 3.665255 -1.761395 3.665255 -1.852055ZM3.561644 -8.081694C3.561644 -8.275965 3.406227 -8.509091 3.121295 -8.509091C2.823412 -8.509091 2.486675 -8.224159 2.486675 -7.887422C2.486675 -7.563636 2.758655 -7.460025 2.914072 -7.460025C3.263761 -7.460025 3.561644 -7.796762 3.561644 -8.081694Z' id='g1-105'/>
<path d='M7.097385 -2.978829C7.317559 -2.978829 7.550685 -2.978829 7.550685 -3.237858S7.317559 -3.496887 7.097385 -3.496887H1.605978C1.761395 -5.232379 3.250809 -6.475716 5.076961 -6.475716H7.097385C7.317559 -6.475716 7.550685 -6.475716 7.550685 -6.734745S7.317559 -6.993773 7.097385 -6.993773H5.051059C2.836364 -6.993773 1.074969 -5.310087 1.074969 -3.237858S2.836364 0.518057 5.051059 0.518057H7.097385C7.317559 0.518057 7.550685 0.518057 7.550685 0.259029S7.317559 0 7.097385 0H5.076961C3.250809 0 1.761395 -1.243337 1.605978 -2.978829H7.097385Z' id='g0-50'/>
</defs>
<g id='page1'>
<use x='56.413267' xlink:href='#g1-105' y='65.753425'/>
<use x='64.337063' xlink:href='#g0-50' y='65.753425'/>
<use x='76.568958' xlink:href='#g2-91' y='65.753425'/>
<use x='80.091591' xlink:href='#g2-48' y='65.753425'/>
<use x='86.43233' xlink:href='#g1-59' y='65.753425'/>
<use x='92.11351' xlink:href='#g1-78' y='65.753425'/>
<use x='103.621328' xlink:href='#g2-41' y='65.753425'/>
</g>
</svg>