<?xml version='1.0' encoding='UTF-8'?>
<!-- This file was generated by dvisvgm 2.8.1 -->
<svg version='1.1' xmlns='http://www.w3.org/2000/svg' xmlns:xlink='http://www.w3.org/1999/xlink' width='40.527708pt' height='12.208566pt' viewBox='56.413267 53.752015 40.527708 12.208566'>
<defs>
<use id='g7-48' xlink:href='#g3-48' transform='scale(.740005)'/>
<path id='g3-48' d='M3.529479-9.393417C2.765222-9.393417 2.181607-9.157192 1.667471-8.670847C.861526-7.892694 .333494-6.294701 .333494-4.668917C.333494-3.154298 .792048-1.528515 1.445141-.750362C1.959278-.138956 2.667953 .194538 3.473897 .194538C4.182572 .194538 4.780082-.041687 5.280323-.528032C6.086267-1.29229 6.6143-2.904178 6.6143-4.585544C6.6143-7.434139 5.349801-9.393417 3.529479-9.393417ZM3.487793-9.032132C4.655022-9.032132 5.280323-7.461931 5.280323-4.557753S4.668917-.166747 3.473897-.166747S1.667471-1.653575 1.667471-4.543857C1.667471-7.489722 2.292772-9.032132 3.487793-9.032132Z'/>
<path id='g3-49' d='M4.043616-9.393417L1.54241-8.128919V-7.934381C1.709157-8.003859 1.862009-8.059441 1.917591-8.087232C2.167712-8.184501 2.403937-8.240083 2.542893-8.240083C2.8347-8.240083 2.95976-8.03165 2.95976-7.586991V-1.29229C2.95976-.833735 2.848595-.514137 2.626266-.389076C2.417832-.264016 2.223294-.222329 1.639679-.208434V0H5.474862V-.208434C4.37711-.222329 4.154781-.361285 4.154781-1.028273V-9.365626L4.043616-9.393417Z'/>
<path id='g3-55' d='M6.239119-9.198879H1.097751L.277912-7.156228L.514137-7.045063C1.111647-7.989963 1.361768-8.170606 2.126025-8.170606H5.141367L2.390041 .111165H3.293254L6.239119-8.97655V-9.198879Z'/>
<path id='g1-2' d='M5.405384-3.862973L2.626266-6.628195C2.459519-6.794942 2.431728-6.822734 2.320563-6.822734C2.181607-6.822734 2.042651-6.697673 2.042651-6.544822C2.042651-6.447553 2.070443-6.419762 2.223294-6.26691L5.002412-3.473897L2.223294-.680884C2.070443-.528032 2.042651-.500241 2.042651-.402972C2.042651-.250121 2.181607-.12506 2.320563-.12506C2.431728-.12506 2.459519-.152851 2.626266-.319599L5.391488-3.08482L8.267875-.208434C8.295666-.194538 8.392935-.12506 8.476308-.12506C8.643056-.12506 8.75422-.250121 8.75422-.402972C8.75422-.430763 8.75422-.486346 8.712533-.555824C8.698638-.583615 6.489239-2.765222 5.79446-3.473897L8.337353-6.016789C8.406831-6.100163 8.615264-6.280806 8.684742-6.364179C8.698638-6.39197 8.75422-6.447553 8.75422-6.544822C8.75422-6.697673 8.643056-6.822734 8.476308-6.822734C8.365144-6.822734 8.309561-6.767151 8.15671-6.6143L5.405384-3.862973Z'/>
<use id='g11-48' xlink:href='#g3-48'/>
<use id='g11-49' xlink:href='#g3-49'/>
<use id='g11-55' xlink:href='#g3-55'/>
</defs>
<g id='page1'>
<use x='56.413267' y='65.766042' xlink:href='#g11-55'/>
<use x='65.324278' y='65.766042' xlink:href='#g1-2'/>
<use x='78.098661' y='65.766042' xlink:href='#g11-49'/>
<use x='85.072509' y='65.766042' xlink:href='#g11-48'/>
<use x='92.046357' y='60.703195' xlink:href='#g7-48'/>
</g>
</svg>