<?xml version='1.0' encoding='UTF-8'?>
<!-- This file was generated by dvisvgm 2.6.1 -->
<svg height='10.755061pt' version='1.1' viewBox='56.413267 56.759384 70.709227 10.755061' width='70.709227pt' xmlns='http://www.w3.org/2000/svg' xmlns:xlink='http://www.w3.org/1999/xlink'>
<defs>
<path d='M8.534994 -6.307347C8.76812 -6.410959 8.794022 -6.501619 8.794022 -6.579328C8.794022 -6.721793 8.690411 -6.825405 8.547945 -6.825405C8.522042 -6.825405 8.509091 -6.812453 8.327771 -6.734745L1.321046 -3.509838C1.08792 -3.406227 1.062017 -3.315567 1.062017 -3.237858C1.062017 -3.147198 1.074969 -3.069489 1.321046 -2.952927L8.327771 0.27198C8.496139 0.349689 8.522042 0.36264 8.547945 0.36264C8.690411 0.36264 8.794022 0.259029 8.794022 0.116563C8.794022 0.038854 8.76812 -0.051806 8.534994 -0.155417L1.865006 -3.224907L8.534994 -6.307347Z' id='g1-60'/>
<path d='M3.665255 -1.852055C3.665255 -1.916812 3.61345 -1.968618 3.535741 -1.968618C3.419178 -1.968618 3.406227 -1.929763 3.341469 -1.709589C3.004732 -0.531009 2.473724 -0.129514 2.046326 -0.129514C1.890909 -0.129514 1.709589 -0.168369 1.709589 -0.556912C1.709589 -0.9066 1.865006 -1.295143 2.007472 -1.683686L2.914072 -4.092653C2.952927 -4.196264 3.043587 -4.42939 3.043587 -4.675467C3.043587 -5.219427 2.655044 -5.711582 2.020423 -5.711582C0.828892 -5.711582 0.349689 -3.833624 0.349689 -3.730012C0.349689 -3.678207 0.401494 -3.61345 0.492154 -3.61345C0.608717 -3.61345 0.621669 -3.665255 0.673474 -3.846575C0.984309 -4.934496 1.476463 -5.452553 1.981569 -5.452553C2.098132 -5.452553 2.318306 -5.439601 2.318306 -5.025156C2.318306 -4.688418 2.149938 -4.261021 2.046326 -3.97609L1.139726 -1.567123C1.062017 -1.3599 0.984309 -1.152677 0.984309 -0.919552C0.984309 -0.336737 1.385803 0.129514 2.007472 0.129514C3.199004 0.129514 3.665255 -1.761395 3.665255 -1.852055ZM3.561644 -8.081694C3.561644 -8.275965 3.406227 -8.509091 3.121295 -8.509091C2.823412 -8.509091 2.486675 -8.224159 2.486675 -7.887422C2.486675 -7.563636 2.758655 -7.460025 2.914072 -7.460025C3.263761 -7.460025 3.561644 -7.796762 3.561644 -8.081694Z' id='g1-105'/>
<path d='M5.802242 -4.144458C5.802242 -5.219427 5.737484 -6.268493 5.271233 -7.252802C4.740224 -8.327771 3.807721 -8.612702 3.173101 -8.612702C2.421918 -8.612702 1.502366 -8.237111 1.023163 -7.162142C0.660523 -6.346202 0.531009 -5.543213 0.531009 -4.144458C0.531009 -2.888169 0.621669 -1.942715 1.08792 -1.023163C1.593026 -0.038854 2.486675 0.27198 3.160149 0.27198C4.286924 0.27198 4.934496 -0.401494 5.310087 -1.152677C5.776339 -2.124035 5.802242 -3.393275 5.802242 -4.144458ZM3.160149 0.012951C2.745704 0.012951 1.903861 -0.220174 1.657783 -1.63188C1.515318 -2.408966 1.515318 -3.393275 1.515318 -4.299875C1.515318 -5.361893 1.515318 -6.320299 1.72254 -7.084433C1.942715 -7.952179 2.603238 -8.353674 3.160149 -8.353674C3.652304 -8.353674 4.403487 -8.055791 4.649564 -6.941968C4.817933 -6.203736 4.817933 -5.180573 4.817933 -4.299875C4.817933 -3.43213 4.817933 -2.447821 4.675467 -1.657783C4.42939 -0.233126 3.61345 0.012951 3.160149 0.012951Z' id='g2-48'/>
<path d='M1.657783 -7.421171C2.214695 -7.239851 2.667995 -7.226899 2.810461 -7.226899C4.273973 -7.226899 5.206476 -8.301868 5.206476 -8.483188C5.206476 -8.534994 5.180573 -8.599751 5.102864 -8.599751C5.076961 -8.599751 5.051059 -8.599751 4.934496 -8.547945C4.209215 -8.237111 3.587547 -8.198257 3.250809 -8.198257C2.396015 -8.198257 1.787298 -8.457285 1.54122 -8.560897C1.45056 -8.599751 1.424658 -8.599751 1.411706 -8.599751C1.308095 -8.599751 1.308095 -8.522042 1.308095 -8.314819V-4.468244C1.308095 -4.235118 1.308095 -4.15741 1.463512 -4.15741C1.528269 -4.15741 1.54122 -4.170361 1.670735 -4.325778C2.033375 -4.856787 2.642092 -5.167621 3.289664 -5.167621C3.97609 -5.167621 4.312827 -4.533001 4.416438 -4.312827C4.636613 -3.807721 4.649564 -3.173101 4.649564 -2.680946S4.649564 -1.45056 4.286924 -0.867746C4.001993 -0.401494 3.496887 -0.077709 2.927024 -0.077709C2.072229 -0.077709 1.230386 -0.660523 0.99726 -1.605978C1.062017 -1.580075 1.139726 -1.567123 1.204483 -1.567123C1.424658 -1.567123 1.774346 -1.696638 1.774346 -2.136986C1.774346 -2.499626 1.528269 -2.706849 1.204483 -2.706849C0.971357 -2.706849 0.63462 -2.590286 0.63462 -2.085181C0.63462 -0.984309 1.515318 0.27198 2.952927 0.27198C4.416438 0.27198 5.69863 -0.958406 5.69863 -2.603238C5.69863 -4.144458 4.662516 -5.42665 3.302615 -5.42665C2.564384 -5.42665 1.994521 -5.102864 1.657783 -4.740224V-7.421171Z' id='g2-53'/>
<path d='M2.227646 -5.206476H3.691158V-5.582067H2.201743V-7.097385C2.201743 -8.263014 2.797509 -8.85878 3.328518 -8.85878C3.43213 -8.85878 3.626401 -8.832877 3.781818 -8.755168C3.730012 -8.742217 3.406227 -8.625654 3.406227 -8.250062C3.406227 -7.952179 3.61345 -7.744956 3.911333 -7.744956C4.222167 -7.744956 4.42939 -7.952179 4.42939 -8.263014C4.42939 -8.742217 3.963138 -9.117808 3.341469 -9.117808C2.434869 -9.117808 1.411706 -8.418431 1.411706 -7.097385V-5.582067H0.401494V-5.206476H1.411706V-0.958406C1.411706 -0.375592 1.26924 -0.375592 0.427397 -0.375592V0C0.790037 -0.025903 1.502366 -0.025903 1.890909 -0.025903C2.240598 -0.025903 3.160149 -0.025903 3.458032 0V-0.375592H3.199004C2.253549 -0.375592 2.227646 -0.518057 2.227646 -0.984309V-5.206476Z' id='g2-102'/>
<path d='M5.944707 -2.771606C5.944707 -4.442341 4.675467 -5.776339 3.173101 -5.776339C1.618929 -5.776339 0.388543 -4.403487 0.388543 -2.771606C0.388543 -1.113823 1.683686 0.129514 3.160149 0.129514C4.688418 0.129514 5.944707 -1.139726 5.944707 -2.771606ZM3.173101 -0.155417C2.693898 -0.155417 2.111083 -0.36264 1.735492 -0.99726C1.385803 -1.580075 1.372852 -2.344209 1.372852 -2.888169C1.372852 -3.380324 1.372852 -4.170361 1.774346 -4.753176C2.136986 -5.310087 2.706849 -5.51731 3.160149 -5.51731C3.665255 -5.51731 4.209215 -5.284184 4.558904 -4.779078C4.960399 -4.183313 4.960399 -3.367372 4.960399 -2.888169C4.960399 -2.434869 4.960399 -1.63188 4.623661 -1.023163C4.261021 -0.401494 3.665255 -0.155417 3.173101 -0.155417Z' id='g2-111'/>
<path d='M2.162889 -3.017684C2.162889 -4.273973 2.680946 -5.452553 3.678207 -5.452553C3.781818 -5.452553 3.807721 -5.452553 3.859527 -5.439601C3.755915 -5.387796 3.548692 -5.310087 3.548692 -4.960399C3.548692 -4.584807 3.846575 -4.442341 4.053798 -4.442341C4.312827 -4.442341 4.571856 -4.61071 4.571856 -4.960399C4.571856 -5.348941 4.222167 -5.711582 3.665255 -5.711582C2.564384 -5.711582 2.188792 -4.52005 2.111083 -4.273973H2.098132V-5.711582L0.36264 -5.569116V-5.193524C1.243337 -5.193524 1.346949 -5.102864 1.346949 -4.468244V-0.958406C1.346949 -0.375592 1.204483 -0.375592 0.36264 -0.375592V0C0.72528 -0.025903 1.437609 -0.025903 1.826152 -0.025903C2.175841 -0.025903 3.095392 -0.025903 3.393275 0V-0.375592H3.134247C2.188792 -0.375592 2.162889 -0.518057 2.162889 -0.984309V-3.017684Z' id='g2-114'/>
<path d='M8.742217 -7.693151C8.884682 -7.757908 8.988294 -7.822665 8.988294 -7.978082C8.988294 -8.120548 8.884682 -8.237111 8.729265 -8.237111C8.664508 -8.237111 8.547945 -8.185305 8.496139 -8.159402L1.333998 -4.779078C1.113823 -4.675467 1.074969 -4.584807 1.074969 -4.481196C1.074969 -4.364633 1.152677 -4.273973 1.333998 -4.196264L8.496139 -0.828892C8.664508 -0.738232 8.690411 -0.738232 8.729265 -0.738232C8.871731 -0.738232 8.988294 -0.854795 8.988294 -0.99726C8.988294 -1.113823 8.936488 -1.191532 8.716314 -1.295143L1.942715 -4.481196L8.742217 -7.693151ZM8.534994 1.774346C8.755168 1.774346 8.988294 1.774346 8.988294 1.515318S8.716314 1.256289 8.522042 1.256289H1.54122C1.346949 1.256289 1.074969 1.256289 1.074969 1.515318S1.308095 1.774346 1.528269 1.774346H8.534994Z' id='g0-20'/>
</defs>
<g id='page1'>
<use x='56.413267' xlink:href='#g2-102' y='65.753425'/>
<use x='60.288163' xlink:href='#g2-111' y='65.753425'/>
<use x='66.628903' xlink:href='#g2-114' y='65.753425'/>
<use x='75.787741' xlink:href='#g2-48' y='65.753425'/>
<use x='85.726058' xlink:href='#g0-20' y='65.753425'/>
<use x='99.397008' xlink:href='#g1-105' y='65.753425'/>
<use x='107.320804' xlink:href='#g1-60' y='65.753425'/>
<use x='120.781754' xlink:href='#g2-53' y='65.753425'/>
</g>
</svg>