<?xml version='1.0' encoding='UTF-8'?>
<!-- This file was generated by dvisvgm 2.6.3 -->
<svg version='1.1' xmlns='http://www.w3.org/2000/svg' xmlns:xlink='http://www.w3.org/1999/xlink' width='81.261346pt' height='28.735083pt' viewBox='194.031005 84.432393 81.261346 28.735083'>
<defs>
<path id='g3-105' d='M2.282784 -1.17224C2.035997 -0.843191 1.964017 -0.760928 1.861189 -0.647817C1.686381 -0.473009 1.532139 -0.370181 1.439594 -0.370181C1.357331 -0.370181 1.275069 -0.452444 1.275069 -0.524423C1.275069 -0.627251 1.305917 -0.781494 1.377897 -0.976867C1.377897 -1.007715 1.408745 -1.079695 1.429311 -1.161958V-1.182523L1.439594 -1.203089L2.344481 -4.514154L2.313633 -4.53472C1.275069 -4.339346 1.069412 -4.308498 0.668383 -4.277649V-4.113124C1.213372 -4.102842 1.3162 -4.071993 1.3162 -3.866337C1.3162 -3.784075 1.285351 -3.61955 1.223655 -3.413893L0.73008 -1.593836C0.565555 -0.997433 0.503858 -0.678666 0.503858 -0.473009C0.503858 -0.092545 0.668383 0.113111 0.976867 0.113111C1.449876 0.113111 1.83034 -0.195373 2.416461 -1.05913L2.282784 -1.17224ZM2.200522 -6.724959C1.922886 -6.724959 1.717229 -6.488454 1.717229 -6.17997C1.717229 -5.85092 1.912603 -5.634981 2.210804 -5.634981C2.478158 -5.634981 2.714662 -5.871485 2.714662 -6.159404C2.714662 -6.457605 2.478158 -6.724959 2.200522 -6.724959Z'/>
<path id='g10-48' d='M3.529479 -9.393417C2.765222 -9.393417 2.181607 -9.157192 1.667471 -8.670847C0.861526 -7.892694 0.333494 -6.294701 0.333494 -4.668917C0.333494 -3.154298 0.792048 -1.528515 1.445141 -0.750362C1.959278 -0.138956 2.667953 0.194538 3.473897 0.194538C4.182572 0.194538 4.780082 -0.041687 5.280323 -0.528032C6.086267 -1.29229 6.6143 -2.904178 6.6143 -4.585544C6.6143 -7.434139 5.349801 -9.393417 3.529479 -9.393417ZM3.487793 -9.032132C4.655022 -9.032132 5.280323 -7.461931 5.280323 -4.557753S4.668917 -0.166747 3.473897 -0.166747S1.667471 -1.653575 1.667471 -4.543857C1.667471 -7.489722 2.292772 -9.032132 3.487793 -9.032132Z'/>
<path id='g10-52' d='M6.558717 -3.209881H5.141367V-9.393417H4.529962L0.166747 -3.209881V-2.320563H4.071407V0H5.141367V-2.320563H6.558717V-3.209881ZM4.057512 -3.209881H0.722571L4.057512 -7.976067V-3.209881Z'/>
<path id='g10-102' d='M4.293737 -6.253014H2.584579V-7.864903C2.584579 -8.670847 2.848595 -9.10161 3.376628 -9.10161C3.668435 -9.10161 3.862973 -8.962654 4.113094 -8.559682C4.335423 -8.198397 4.50217 -8.059441 4.738395 -8.059441C5.057994 -8.059441 5.32201 -8.309561 5.32201 -8.62916C5.32201 -9.129401 4.710604 -9.490686 3.876869 -9.490686C3.015343 -9.490686 2.278876 -9.115506 1.917591 -8.476308C1.556306 -7.864903 1.445141 -7.364661 1.431246 -6.253014H0.291807V-5.808356H1.431246V-1.445141C1.431246 -0.430763 1.278394 -0.264016 0.277912 -0.208434V0H3.890765V-0.208434C2.751326 -0.250121 2.598475 -0.402972 2.598475 -1.445141V-5.808356H4.293737V-6.253014Z'/>
<path id='g10-111' d='M3.473897 -6.39197C1.667471 -6.39197 0.402972 -5.057994 0.402972 -3.140403C0.402972 -1.264498 1.695262 0.138956 3.446106 0.138956S6.530926 -1.333976 6.530926 -3.251568C6.530926 -5.07189 5.252532 -6.39197 3.473897 -6.39197ZM3.293254 -6.002894C4.460484 -6.002894 5.280323 -4.668917 5.280323 -2.765222C5.280323 -1.195021 4.655022 -0.250121 3.612853 -0.250121C3.070925 -0.250121 2.556788 -0.583615 2.264981 -1.139438C1.875904 -1.862009 1.653575 -2.8347 1.653575 -3.821287C1.653575 -5.141367 2.306668 -6.002894 3.293254 -6.002894Z'/>
<path id='g10-114' d='M0.097269 -5.419279C0.291807 -5.460966 0.416868 -5.474862 0.583615 -5.474862C0.931004 -5.474862 1.056065 -5.252532 1.056065 -4.641126V-1.167229C1.056065 -0.47245 0.958796 -0.375181 0.069478 -0.208434V0H3.404419V-0.208434C2.459519 -0.250121 2.223294 -0.458554 2.223294 -1.250603V-4.37711C2.223294 -4.821769 2.820804 -5.516548 3.195985 -5.516548C3.279359 -5.516548 3.404419 -5.44707 3.55727 -5.308114C3.7796 -5.113576 3.932451 -5.030203 4.113094 -5.030203C4.446588 -5.030203 4.655022 -5.266428 4.655022 -5.655504C4.655022 -6.114059 4.363215 -6.39197 3.890765 -6.39197C3.30715 -6.39197 2.904178 -6.072372 2.223294 -5.085785V-6.364179L2.153816 -6.39197C1.41735 -6.086267 0.917109 -5.905625 0.097269 -5.641609V-5.419279Z'/>
<use id='g7-105' xlink:href='#g3-105' transform='scale(1.351341)'/>
<use id='g7-120' xlink:href='#g3-120' transform='scale(1.351341)'/>
<use id='g7-121' xlink:href='#g3-121' transform='scale(1.351341)'/>
<use id='g6-58' xlink:href='#g2-58' transform='scale(1.351341)'/>
<use id='g6-59' xlink:href='#g2-59' transform='scale(1.351341)'/>
<path id='g2-58' d='M1.9743 -0.544989C1.9743 -0.843191 1.727512 -1.089978 1.429311 -1.089978S0.884322 -0.843191 0.884322 -0.544989S1.131109 0 1.429311 0S1.9743 -0.246787 1.9743 -0.544989Z'/>
<path id='g2-59' d='M2.087411 -0.010283C2.087411 -0.688948 1.83034 -1.089978 1.429311 -1.089978C1.089978 -1.089978 0.884322 -0.832908 0.884322 -0.544989C0.884322 -0.267353 1.089978 0 1.429311 0C1.552704 0 1.686381 -0.041131 1.789209 -0.133677C1.820058 -0.154242 1.83034 -0.164525 1.840623 -0.164525S1.861189 -0.154242 1.861189 -0.010283C1.861189 0.750645 1.50129 1.367614 1.161958 1.706947C1.048847 1.820058 1.048847 1.840623 1.048847 1.871472C1.048847 1.943451 1.100261 1.984583 1.151675 1.984583C1.264786 1.984583 2.087411 1.192806 2.087411 -0.010283Z'/>
<path id='g11-61' d='M9.546269 -4.543857C9.754703 -4.543857 10.018719 -4.543857 10.018719 -4.821769S9.754703 -5.099681 9.560164 -5.099681H1.236707C1.042169 -5.099681 0.778153 -5.099681 0.778153 -4.821769S1.042169 -4.543857 1.250603 -4.543857H9.546269ZM9.560164 -1.848113C9.754703 -1.848113 10.018719 -1.848113 10.018719 -2.126025S9.754703 -2.403937 9.546269 -2.403937H1.250603C1.042169 -2.403937 0.778153 -2.403937 0.778153 -2.126025S1.042169 -1.848113 1.236707 -1.848113H9.560164Z'/>
</defs>
<g id='page1'>
<use x='235.687856' y='90.560347' xlink:href='#g7-121'/>
<use x='241.880557' y='92.652492' xlink:href='#g3-105'/>
<use x='248.34738' y='90.560347' xlink:href='#g11-61'/>
<use x='262.284061' y='90.560347' xlink:href='#g7-120'/>
<use x='268.476761' y='92.652492' xlink:href='#g3-105'/>
<use x='271.844123' y='90.560347' xlink:href='#g6-59'/>
<use x='194.031005' y='110.485627' xlink:href='#g10-102'/>
<use x='198.675537' y='110.485627' xlink:href='#g10-111'/>
<use x='205.649385' y='110.485627' xlink:href='#g10-114'/>
<use x='213.780826' y='110.485627' xlink:href='#g7-105'/>
<use x='220.757612' y='110.485627' xlink:href='#g11-61'/>
<use x='234.694293' y='110.485627' xlink:href='#g10-48'/>
<use x='241.668141' y='110.485627' xlink:href='#g6-59'/>
<use x='247.081243' y='110.485627' xlink:href='#g6-58'/>
<use x='252.494345' y='110.485627' xlink:href='#g6-58'/>
<use x='257.907447' y='110.485627' xlink:href='#g6-58'/>
<use x='263.320531' y='110.485627' xlink:href='#g6-59'/>
<use x='268.733633' y='110.485627' xlink:href='#g10-52'/>
</g>
</svg>