<?xml version='1.0' encoding='UTF-8'?>
<!-- This file was generated by dvisvgm 2.8.1 -->
<svg version='1.1' xmlns='http://www.w3.org/2000/svg' xmlns:xlink='http://www.w3.org/1999/xlink' width='65.663199pt' height='8.809803pt' viewBox='56.038086 59.62547 65.663199 8.809803'>
<defs>
<path id='g2-58' d='M2.667953-.736466C2.667953-1.139438 2.334459-1.472932 1.931487-1.472932S1.195021-1.139438 1.195021-.736466S1.528515 0 1.931487 0S2.667953-.333494 2.667953-.736466Z'/>
<path id='g2-59' d='M2.820804-.013896C2.820804-.931004 2.473415-1.472932 1.931487-1.472932C1.472932-1.472932 1.195021-1.125543 1.195021-.736466C1.195021-.361285 1.472932 0 1.931487 0C2.098234 0 2.278876-.055582 2.417832-.180643C2.459519-.208434 2.473415-.222329 2.48731-.222329S2.515101-.208434 2.515101-.013896C2.515101 1.014378 2.028756 1.848113 1.570201 2.306668C1.41735 2.459519 1.41735 2.48731 1.41735 2.528997C1.41735 2.626266 1.486828 2.681848 1.556306 2.681848C1.709157 2.681848 2.820804 1.611888 2.820804-.013896Z'/>
<path id='g6-48' d='M2.611834-6.95118C2.046279-6.95118 1.614401-6.776373 1.233937-6.416474C.637534-5.840637 .246787-4.658113 .246787-3.455025C.246787-2.334198 .58612-1.131109 1.069412-.555272C1.449876-.102828 1.9743 .143959 2.570703 .143959C3.095126 .143959 3.537287-.030848 3.907468-.390747C4.503871-.956301 4.894618-2.149108 4.894618-3.393328C4.894618-5.501304 3.958882-6.95118 2.611834-6.95118ZM2.580986-6.683827C3.444742-6.683827 3.907468-5.52187 3.907468-3.372762S3.455025-.123394 2.570703-.123394S1.233937-1.223655 1.233937-3.362479C1.233937-5.542435 1.696664-6.683827 2.580986-6.683827Z'/>
<path id='g6-49' d='M2.992298-6.95118L1.141392-6.015445V-5.871485C1.264786-5.922899 1.377897-5.964031 1.419028-5.984596C1.604119-6.056576 1.778926-6.097707 1.881754-6.097707C2.097693-6.097707 2.190239-5.943465 2.190239-5.614415V-.956301C2.190239-.616969 2.107976-.380464 1.943451-.287919C1.789209-.195373 1.64525-.164525 1.213372-.154242V0H4.051428V-.154242C3.239086-.164525 3.074561-.267353 3.074561-.760928V-6.930615L2.992298-6.95118Z'/>
<path id='g6-50' d='M4.884335-1.408745L4.750659-1.460159C4.370195-.874039 4.236518-.781494 3.773792-.781494H1.3162L3.043712-2.591268C3.958882-3.54757 4.359912-4.329064 4.359912-5.131123C4.359912-6.159404 3.527004-6.95118 2.457592-6.95118C1.892037-6.95118 1.357331-6.724959 .976867-6.313646C.647817-5.964031 .493575-5.634981 .318767-4.904901L.534706-4.853487C.946019-5.861202 1.3162-6.190252 2.025714-6.190252C2.88947-6.190252 3.47559-5.604132 3.47559-4.740376C3.47559-3.938317 3.002581-2.982015 2.138825-2.066845L.308484-.123394V0H4.318781L4.884335-1.408745Z'/>
<path id='g3-120' d='M5.586026-1.54241C5.474862-1.41735 5.405384-1.333976 5.280323-1.167229C4.960725-.750362 4.793978-.611406 4.641126-.611406C4.432692-.611406 4.307632-.792048 4.210363-1.181125C4.182572-1.29229 4.168676-1.375663 4.154781-1.41735C3.807391-2.820804 3.65454-3.460001 3.65454-3.668435C4.265945-4.738395 4.766187-5.349801 5.016307-5.349801C5.099681-5.349801 5.210845-5.308114 5.349801-5.238637C5.516548-5.141367 5.613817-5.113576 5.724982-5.113576C6.016789-5.113576 6.211328-5.32201 6.211328-5.613817S5.975103-6.127954 5.641609-6.127954C5.030203-6.127954 4.50217-5.627713 3.543375-4.140885L3.390523-4.905142C3.195985-5.850042 3.043134-6.127954 2.667953-6.127954C2.36225-6.127954 1.8898-6.002894 1.042169-5.724982L.889318-5.6694L.9449-5.460966C1.472932-5.586026 1.597993-5.613817 1.723053-5.613817C2.070443-5.613817 2.153816-5.488757 2.348354-4.655022L2.751326-2.945865L1.611888-1.320081C1.333976-.903213 1.056065-.653093 .903213-.653093C.81984-.653093 .680884-.694779 .541928-.778153C.361285-.875422 .208434-.917109 .097269-.917109C-.166747-.917109-.375181-.708675-.375181-.430763C-.375181-.069478-.097269 .152851 .319599 .152851C.750362 .152851 .917109 .027791 1.611888-.81984C1.987069-1.264498 2.278876-1.639679 2.862491-2.445623L3.279359-.778153C3.460001-.069478 3.640644 .152851 4.085303 .152851C4.613335 .152851 4.97462-.180643 5.780564-1.431246L5.586026-1.54241Z'/>
</defs>
<g id='page1'>
<use x='56.413267' y='65.753425' xlink:href='#g3-120'/>
<use x='62.605968' y='67.860437' xlink:href='#g6-48'/>
<use x='68.264786' y='65.753425' xlink:href='#g2-59'/>
<use x='73.677888' y='65.753425' xlink:href='#g3-120'/>
<use x='79.870588' y='67.860437' xlink:href='#g6-49'/>
<use x='85.529406' y='65.753425' xlink:href='#g2-59'/>
<use x='90.942508' y='65.753425' xlink:href='#g3-120'/>
<use x='97.135209' y='67.860437' xlink:href='#g6-50'/>
<use x='102.794027' y='65.753425' xlink:href='#g2-59'/>
<use x='108.207129' y='65.753425' xlink:href='#g2-58'/>
<use x='113.620231' y='65.753425' xlink:href='#g2-58'/>
<use x='119.033333' y='65.753425' xlink:href='#g2-58'/>
</g>
</svg>