<?xml version='1.0' encoding='UTF-8'?>
<!-- This file was generated by dvisvgm 2.8.1 -->
<svg version='1.1' xmlns='http://www.w3.org/2000/svg' xmlns:xlink='http://www.w3.org/1999/xlink' width='18.842314pt' height='12.208566pt' viewBox='56.413267 53.752015 18.842314 12.208566'>
<defs>
<path id='g2-48' d='M2.611834-6.95118C2.046279-6.95118 1.614401-6.776373 1.233937-6.416474C.637534-5.840637 .246787-4.658113 .246787-3.455025C.246787-2.334198 .58612-1.131109 1.069412-.555272C1.449876-.102828 1.9743 .143959 2.570703 .143959C3.095126 .143959 3.537287-.030848 3.907468-.390747C4.503871-.956301 4.894618-2.149108 4.894618-3.393328C4.894618-5.501304 3.958882-6.95118 2.611834-6.95118ZM2.580986-6.683827C3.444742-6.683827 3.907468-5.52187 3.907468-3.372762S3.455025-.123394 2.570703-.123394S1.233937-1.223655 1.233937-3.362479C1.233937-5.542435 1.696664-6.683827 2.580986-6.683827Z'/>
<path id='g2-49' d='M2.992298-6.95118L1.141392-6.015445V-5.871485C1.264786-5.922899 1.377897-5.964031 1.419028-5.984596C1.604119-6.056576 1.778926-6.097707 1.881754-6.097707C2.097693-6.097707 2.190239-5.943465 2.190239-5.614415V-.956301C2.190239-.616969 2.107976-.380464 1.943451-.287919C1.789209-.195373 1.64525-.164525 1.213372-.154242V0H4.051428V-.154242C3.239086-.164525 3.074561-.267353 3.074561-.760928V-6.930615L2.992298-6.95118Z'/>
<use id='g6-48' xlink:href='#g2-48' transform='scale(1.351341)'/>
<use id='g6-49' xlink:href='#g2-49' transform='scale(1.351341)'/>
</defs>
<g id='page1'>
<use x='56.413267' y='65.766042' xlink:href='#g6-49'/>
<use x='63.387115' y='65.766042' xlink:href='#g6-48'/>
<use x='70.360963' y='60.703195' xlink:href='#g2-48'/>
</g>
</svg>