<?xml version='1.0' encoding='UTF-8'?>
<!-- This file was generated by dvisvgm 2.8.1 -->
<svg version='1.1' xmlns='http://www.w3.org/2000/svg' xmlns:xlink='http://www.w3.org/1999/xlink' width='6.73936pt' height='6.600404pt' viewBox='56.413267 59.347559 6.73936 6.600404'>
<defs>
<path id='g1-118' d='M6.73936-6.405866H4.641126V-6.072372C5.238637-6.044581 5.405384-5.947312 5.405384-5.613817C5.405384-5.460966 5.349801-5.238637 5.252532-4.988516L4.25205-2.459519L3.154298-5.280323C3.057029-5.544339 3.029238-5.627713 3.029238-5.711087C3.029238-5.91952 3.168194-6.016789 3.515584-6.044581C3.543375-6.044581 3.65454-6.058476 3.765704-6.072372V-6.405866H.291807V-6.072372C.611406-6.030685 .694779-5.988998 .778153-5.863938C.805944-5.877834 1.459037-4.488275 1.681366-3.918556L3.348837 .194538H3.710122L5.933416-5.308114C6.197432-5.91952 6.308597-6.030685 6.73936-6.072372V-6.405866Z'/>
</defs>
<g id='page1'>
<use x='56.413267' y='65.753425' xlink:href='#g1-118'/>
</g>
</svg>