<?xml version='1.0' encoding='UTF-8'?>
<!-- This file was generated by dvisvgm 2.6.1 -->
<svg height='8.850146pt' version='1.1' viewBox='56.413267 56.903279 34.907085 8.850146' width='34.907085pt' xmlns='http://www.w3.org/2000/svg' xmlns:xlink='http://www.w3.org/1999/xlink'>
<defs>
<path d='M6.15193 -8.042839V-8.340722H3.030635C1.463512 -8.340722 1.437609 -8.509091 1.385803 -8.755168H1.100872L0.699377 -6.164882H0.984309C1.023163 -6.398007 1.139726 -7.200996 1.308095 -7.343462C1.411706 -7.421171 2.383064 -7.421171 2.564384 -7.421171H5.310087L3.937235 -5.452553C3.587547 -4.947447 2.279452 -2.823412 2.279452 -0.388543C2.279452 -0.246077 2.279452 0.27198 2.810461 0.27198C3.354421 0.27198 3.354421 -0.233126 3.354421 -0.401494V-1.049066C3.354421 -2.978829 3.665255 -4.481196 4.273973 -5.348941L6.15193 -8.042839Z' id='g1-55'/>
<path d='M8.742217 -4.196264C8.923537 -4.196264 9.156663 -4.196264 9.156663 -4.42939C9.156663 -4.675467 8.936488 -4.675467 8.742217 -4.675467H1.113823C0.932503 -4.675467 0.699377 -4.675467 0.699377 -4.442341C0.699377 -4.196264 0.919552 -4.196264 1.113823 -4.196264H8.742217ZM8.742217 -1.787298C8.923537 -1.787298 9.156663 -1.787298 9.156663 -2.020423C9.156663 -2.266501 8.936488 -2.266501 8.742217 -2.266501H1.113823C0.932503 -2.266501 0.699377 -2.266501 0.699377 -2.033375C0.699377 -1.787298 0.919552 -1.787298 1.113823 -1.787298H8.742217Z' id='g1-61'/>
<path d='M9.58406 -7.485928C9.726526 -8.042839 9.933748 -8.431382 10.918057 -8.470237C10.956912 -8.470237 11.112329 -8.483188 11.112329 -8.703362C11.112329 -8.845828 10.995766 -8.845828 10.94396 -8.845828C10.684932 -8.845828 10.024408 -8.819925 9.76538 -8.819925H9.143711C8.962391 -8.819925 8.729265 -8.845828 8.547945 -8.845828C8.470237 -8.845828 8.314819 -8.845828 8.314819 -8.599751C8.314819 -8.470237 8.418431 -8.470237 8.509091 -8.470237C9.286177 -8.444334 9.337983 -8.146451 9.337983 -7.913325C9.337983 -7.796762 9.325031 -7.757908 9.286177 -7.576588L7.822665 -1.735492L5.051059 -8.625654C4.960399 -8.832877 4.947447 -8.845828 4.662516 -8.845828H3.082441C2.823412 -8.845828 2.706849 -8.845828 2.706849 -8.599751C2.706849 -8.470237 2.797509 -8.470237 3.043587 -8.470237C3.108344 -8.470237 3.872478 -8.470237 3.872478 -8.353674C3.872478 -8.327771 3.846575 -8.224159 3.833624 -8.185305L2.111083 -1.321046C1.955666 -0.686426 1.644832 -0.414446 0.790037 -0.375592C0.72528 -0.375592 0.595766 -0.36264 0.595766 -0.129514C0.595766 0 0.72528 0 0.764134 0C1.023163 0 1.683686 -0.025903 1.942715 -0.025903H2.564384C2.745704 -0.025903 2.965878 0 3.147198 0C3.237858 0 3.380324 0 3.380324 -0.246077C3.380324 -0.36264 3.250809 -0.375592 3.199004 -0.375592C2.771606 -0.388543 2.357161 -0.466252 2.357161 -0.932503C2.357161 -1.036115 2.383064 -1.152677 2.408966 -1.256289L4.15741 -8.185305C4.235118 -8.055791 4.235118 -8.029888 4.286924 -7.913325L7.369365 -0.233126C7.434122 -0.077709 7.460025 0 7.576588 0C7.706102 0 7.719054 -0.038854 7.770859 -0.259029L9.58406 -7.485928Z' id='g0-78'/>
</defs>
<g id='page1'>
<use x='56.413267' xlink:href='#g0-78' y='65.753425'/>
<use x='71.518663' xlink:href='#g1-61' y='65.753425'/>
<use x='84.979613' xlink:href='#g1-55' y='65.753425'/>
</g>
</svg>