<?xml version='1.0' encoding='UTF-8'?>
<!-- This file was generated by dvisvgm 2.6.1 -->
<svg height='10.864803pt' version='1.1' viewBox='56.413267 57.406946 30.047301 10.864803' width='30.047301pt' xmlns='http://www.w3.org/2000/svg' xmlns:xlink='http://www.w3.org/1999/xlink'>
<defs>
<path d='M5.802242 -4.144458C5.802242 -5.219427 5.737484 -6.268493 5.271233 -7.252802C4.740224 -8.327771 3.807721 -8.612702 3.173101 -8.612702C2.421918 -8.612702 1.502366 -8.237111 1.023163 -7.162142C0.660523 -6.346202 0.531009 -5.543213 0.531009 -4.144458C0.531009 -2.888169 0.621669 -1.942715 1.08792 -1.023163C1.593026 -0.038854 2.486675 0.27198 3.160149 0.27198C4.286924 0.27198 4.934496 -0.401494 5.310087 -1.152677C5.776339 -2.124035 5.802242 -3.393275 5.802242 -4.144458ZM3.160149 0.012951C2.745704 0.012951 1.903861 -0.220174 1.657783 -1.63188C1.515318 -2.408966 1.515318 -3.393275 1.515318 -4.299875C1.515318 -5.361893 1.515318 -6.320299 1.72254 -7.084433C1.942715 -7.952179 2.603238 -8.353674 3.160149 -8.353674C3.652304 -8.353674 4.403487 -8.055791 4.649564 -6.941968C4.817933 -6.203736 4.817933 -5.180573 4.817933 -4.299875C4.817933 -3.43213 4.817933 -2.447821 4.675467 -1.657783C4.42939 -0.233126 3.61345 0.012951 3.160149 0.012951Z' id='g1-48'/>
<path d='M8.742217 -4.196264C8.923537 -4.196264 9.156663 -4.196264 9.156663 -4.42939C9.156663 -4.675467 8.936488 -4.675467 8.742217 -4.675467H1.113823C0.932503 -4.675467 0.699377 -4.675467 0.699377 -4.442341C0.699377 -4.196264 0.919552 -4.196264 1.113823 -4.196264H8.742217ZM8.742217 -1.787298C8.923537 -1.787298 9.156663 -1.787298 9.156663 -2.020423C9.156663 -2.266501 8.936488 -2.266501 8.742217 -2.266501H1.113823C0.932503 -2.266501 0.699377 -2.266501 0.699377 -2.033375C0.699377 -1.787298 0.919552 -1.787298 1.113823 -1.787298H8.742217Z' id='g1-61'/>
<path d='M3.406227 1.45056C3.056538 1.942715 2.551432 2.383064 1.916812 2.383064C1.761395 2.383064 1.139726 2.357161 0.945455 1.761395C0.984309 1.774346 1.049066 1.774346 1.074969 1.774346C1.463512 1.774346 1.72254 1.437609 1.72254 1.139726S1.476463 0.738232 1.282192 0.738232C1.074969 0.738232 0.621669 0.893649 0.621669 1.528269C0.621669 2.188792 1.17858 2.642092 1.916812 2.642092C3.211955 2.642092 4.52005 1.45056 4.88269 0.012951L6.15193 -5.038107C6.164882 -5.102864 6.190785 -5.180573 6.190785 -5.258281C6.190785 -5.452553 6.035367 -5.582067 5.841096 -5.582067C5.724533 -5.582067 5.452553 -5.530262 5.348941 -5.141719L4.390535 -1.333998C4.325778 -1.100872 4.325778 -1.074969 4.222167 -0.932503C3.963138 -0.569863 3.535741 -0.129514 2.914072 -0.129514C2.188792 -0.129514 2.124035 -0.841843 2.124035 -1.191532C2.124035 -1.929763 2.473724 -2.927024 2.823412 -3.859527C2.965878 -4.235118 3.043587 -4.416438 3.043587 -4.675467C3.043587 -5.219427 2.655044 -5.711582 2.020423 -5.711582C0.828892 -5.711582 0.349689 -3.833624 0.349689 -3.730012C0.349689 -3.678207 0.401494 -3.61345 0.492154 -3.61345C0.608717 -3.61345 0.621669 -3.665255 0.673474 -3.846575C0.984309 -4.934496 1.476463 -5.452553 1.981569 -5.452553C2.098132 -5.452553 2.318306 -5.452553 2.318306 -5.025156C2.318306 -4.688418 2.175841 -4.312827 1.981569 -3.820672C1.346949 -2.124035 1.346949 -1.696638 1.346949 -1.385803C1.346949 -0.155417 2.227646 0.129514 2.875218 0.129514C3.250809 0.129514 3.717061 0.012951 4.170361 -0.466252L4.183313 -0.4533C3.989041 0.310834 3.859527 0.81594 3.406227 1.45056Z' id='g0-121'/>
</defs>
<g id='page1'>
<use x='56.413267' xlink:href='#g0-121' y='65.753425'/>
<use x='66.658878' xlink:href='#g1-61' y='65.753425'/>
<use x='80.119828' xlink:href='#g1-48' y='65.753425'/>
</g>
</svg>