<?xml version='1.0' encoding='UTF-8'?>
<!-- This file was generated by dvisvgm 2.8.1 -->
<svg version='1.1' xmlns='http://www.w3.org/2000/svg' xmlns:xlink='http://www.w3.org/1999/xlink' width='52.034303pt' height='13.895588pt' viewBox='56.413267 55.331734 52.034303 13.895588'>
<defs>
<path id='g3-40' d='M4.59944 3.334941C4.59944 3.293254 4.59944 3.265463 4.363215 3.029238C2.626266 1.278394 2.181607-1.347872 2.181607-3.473897C2.181607-5.891729 2.70964-8.309561 4.418797-10.04651C4.59944-10.213257 4.59944-10.241048 4.59944-10.282735C4.59944-10.380004 4.543857-10.421691 4.460484-10.421691C4.321528-10.421691 3.070925-9.476791 2.251085-7.712051C1.54241-6.183537 1.375663-4.641126 1.375663-3.473897C1.375663-2.390041 1.528515-.708675 2.292772 .861526C3.126507 2.570684 4.321528 3.473897 4.460484 3.473897C4.543857 3.473897 4.59944 3.43221 4.59944 3.334941Z'/>
<path id='g3-41' d='M4.015825-3.473897C4.015825-4.557753 3.862973-6.239119 3.098716-7.80932C2.264981-9.518478 1.06996-10.421691 .931004-10.421691C.847631-10.421691 .792048-10.366108 .792048-10.282735C.792048-10.241048 .792048-10.213257 1.056065-9.963136C2.417832-8.587473 3.209881-6.378075 3.209881-3.473897C3.209881-1.097751 2.695744 1.347872 .972691 3.098716C.792048 3.265463 .792048 3.293254 .792048 3.334941C.792048 3.418315 .847631 3.473897 .931004 3.473897C1.06996 3.473897 2.320563 2.528997 3.140403 .764257C3.849078-.764257 4.015825-2.306668 4.015825-3.473897Z'/>
<path id='g3-43' d='M5.683295-3.195985H9.560164C9.754703-3.195985 10.018719-3.195985 10.018719-3.473897S9.754703-3.751809 9.560164-3.751809H5.683295V-7.642573C5.683295-7.837111 5.683295-8.101128 5.405384-8.101128S5.127472-7.837111 5.127472-7.642573V-3.751809H1.236707C1.042169-3.751809 .778153-3.751809 .778153-3.473897S1.042169-3.195985 1.236707-3.195985H5.127472V.694779C5.127472 .889318 5.127472 1.153334 5.405384 1.153334S5.683295 .889318 5.683295 .694779V-3.195985Z'/>
<path id='g2-49' d='M4.043616-9.393417L1.54241-8.128919V-7.934381C1.709157-8.003859 1.862009-8.059441 1.917591-8.087232C2.167712-8.184501 2.403937-8.240083 2.542893-8.240083C2.8347-8.240083 2.95976-8.03165 2.95976-7.586991V-1.29229C2.95976-.833735 2.848595-.514137 2.626266-.389076C2.417832-.264016 2.223294-.222329 1.639679-.208434V0H5.474862V-.208434C4.37711-.222329 4.154781-.361285 4.154781-1.028273V-9.365626L4.043616-9.393417Z'/>
<path id='g2-50' d='M6.600404-1.903696L6.419762-1.973173C5.905625-1.181125 5.724982-1.056065 5.099681-1.056065H1.778635L4.113094-3.501688C5.349801-4.793978 5.891729-5.850042 5.891729-6.933898C5.891729-8.323457 4.766187-9.393417 3.321045-9.393417C2.556788-9.393417 1.834218-9.087714 1.320081-8.531891C.875422-8.059441 .666988-7.614782 .430763-6.628195L.722571-6.558717C1.278394-7.920485 1.778635-8.365144 2.737431-8.365144C3.90466-8.365144 4.696709-7.573095 4.696709-6.405866C4.696709-5.32201 4.057512-4.02972 2.890282-2.793013L.416868-.166747V0H5.836147L6.600404-1.903696Z'/>
<path id='g2-51' d='M2.126025-4.585544C2.945865-4.585544 3.265463-4.557753 3.598957-4.432692C4.460484-4.12699 5.002412-3.334941 5.002412-2.376145C5.002412-1.208916 4.210363-.305703 3.18209-.305703C2.806909-.305703 2.528997-.402972 2.01486-.736466C1.597993-.986587 1.361768-1.083856 1.125543-1.083856C.805944-1.083856 .59751-.889318 .59751-.59751C.59751-.111165 1.195021 .194538 2.167712 .194538C3.237672 .194538 4.335423-.166747 4.988516-.736466S6.002894-2.112129 6.002894-3.043134C6.002894-3.751809 5.780564-4.404901 5.377592-4.835665C5.099681-5.141367 4.835665-5.308114 4.224259-5.572131C5.183054-6.225223 5.530444-6.73936 5.530444-7.489722C5.530444-8.615264 4.641126-9.393417 3.362732-9.393417C2.667953-9.393417 2.056547-9.157192 1.556306-8.712533C1.139438-8.337353 .931004-7.976067 .625301-7.142332L.833735-7.08675C1.403454-8.101128 2.028756-8.559682 2.904178-8.559682C3.807391-8.559682 4.432692-7.948276 4.432692-7.072854C4.432692-6.572613 4.224259-6.072372 3.876869-5.724982C3.460001-5.308114 3.070925-5.099681 2.126025-4.766187V-4.585544Z'/>
<path id='g2-52' d='M6.558717-3.209881H5.141367V-9.393417H4.529962L.166747-3.209881V-2.320563H4.071407V0H5.141367V-2.320563H6.558717V-3.209881ZM4.057512-3.209881H.722571L4.057512-7.976067V-3.209881Z'/>
</defs>
<g id='page1'>
<use x='56.413267' y='65.753425' xlink:href='#g2-49'/>
<use x='63.387115' y='65.753425' xlink:href='#g2-50'/>
<use x='70.360963' y='65.753425' xlink:href='#g3-40'/>
<use x='75.772503' y='65.753425' xlink:href='#g2-52'/>
<use x='84.683514' y='65.753425' xlink:href='#g3-43'/>
<use x='97.457897' y='65.753425' xlink:href='#g2-51'/>
<use x='104.431745' y='65.753425' xlink:href='#g3-41'/>
</g>
</svg>