<?xml version='1.0' encoding='UTF-8'?>
<!-- This file was generated by dvisvgm 2.8.1 -->
<svg version='1.1' xmlns='http://www.w3.org/2000/svg' xmlns:xlink='http://www.w3.org/1999/xlink' width='39.984306pt' height='13.895588pt' viewBox='56.413267 55.331734 39.984306 13.895588'>
<defs>
<path id='g5-67' d='M6.704393-4.781507L7.084857-6.827787H6.868918C6.786655-6.663262 6.683827-6.601565 6.478171-6.601565C6.395909-6.601565 6.272515-6.62213 6.056576-6.673544C5.593849-6.786655 5.182537-6.848352 4.853487-6.848352C2.663248-6.848352 .678666-4.781507 .678666-2.498723C.678666-.925453 1.789209 .185091 3.362479 .185091C4.421609 .185091 5.244234-.267353 6.169687-1.347048L5.994879-1.491008C5.069426-.58612 4.473023-.277636 3.629832-.277636C2.48844-.277636 1.83034-1.05913 1.83034-2.385612C1.83034-3.609267 2.323915-4.853487 3.125975-5.686395C3.61955-6.190252 4.267367-6.478171 4.946032-6.478171C5.892051-6.478171 6.416474-5.922899 6.519302-4.812356L6.704393-4.781507Z'/>
<path id='g5-107' d='M4.257084-1.120826L4.102842-.853473C3.917751-.534706 3.794357-.421595 3.640115-.421595C3.424176-.421595 3.208237-.760928 2.807207-1.748078C2.755793-1.881754 2.601551-2.251936 2.426743-2.652965C3.938317-4.000014 4.257084-4.20567 4.740376-4.236518V-4.401043H2.858622V-4.236518H3.023146C3.280217-4.236518 3.424176-4.164539 3.424176-4.051428C3.424176-3.845771 2.910036-3.341914 1.953734-2.611834C1.809775-2.498723 1.686381-2.395895 1.511573-2.272501L2.745511-6.971746L2.694097-7.02316C2.087411-6.889484 1.696664-6.817504 1.089978-6.745524V-6.580999C1.583553-6.591282 1.778926-6.519302 1.789209-6.323929C1.768644-6.149121 1.696664-5.871485 1.562987-5.398476C1.521856-5.254517 1.491008-5.141406 1.470442-5.059143L1.449876-4.966598L.143959 0H.91517L1.408745-1.850906L1.840623-2.179956C2.005148-1.727512 2.272501-1.100261 2.457592-.73008C2.786642-.082262 2.971732 .113111 3.269934 .113111C3.681246 .113111 3.9486-.143959 4.411326-1.007715L4.257084-1.120826Z'/>
<use id='g9-67' xlink:href='#g5-67' transform='scale(1.351341)'/>
<path id='g13-40' d='M4.59944 3.334941C4.59944 3.293254 4.59944 3.265463 4.363215 3.029238C2.626266 1.278394 2.181607-1.347872 2.181607-3.473897C2.181607-5.891729 2.70964-8.309561 4.418797-10.04651C4.59944-10.213257 4.59944-10.241048 4.59944-10.282735C4.59944-10.380004 4.543857-10.421691 4.460484-10.421691C4.321528-10.421691 3.070925-9.476791 2.251085-7.712051C1.54241-6.183537 1.375663-4.641126 1.375663-3.473897C1.375663-2.390041 1.528515-.708675 2.292772 .861526C3.126507 2.570684 4.321528 3.473897 4.460484 3.473897C4.543857 3.473897 4.59944 3.43221 4.59944 3.334941Z'/>
<path id='g13-41' d='M4.015825-3.473897C4.015825-4.557753 3.862973-6.239119 3.098716-7.80932C2.264981-9.518478 1.06996-10.421691 .931004-10.421691C.847631-10.421691 .792048-10.366108 .792048-10.282735C.792048-10.241048 .792048-10.213257 1.056065-9.963136C2.417832-8.587473 3.209881-6.378075 3.209881-3.473897C3.209881-1.097751 2.695744 1.347872 .972691 3.098716C.792048 3.265463 .792048 3.293254 .792048 3.334941C.792048 3.418315 .847631 3.473897 .931004 3.473897C1.06996 3.473897 2.320563 2.528997 3.140403 .764257C3.849078-.764257 4.015825-2.306668 4.015825-3.473897Z'/>
<path id='g1-73' d='M1.570201-1.333976C1.570201-.639197 1.320081-.444659 .277912-.34739V0H5.141367V-.34739C4.085303-.416868 3.821287-.611406 3.821287-1.333976V-8.059441C3.821287-8.782011 4.113094-9.004341 5.141367-9.046028V-9.393417H.277912V-9.046028C1.278394-8.97655 1.570201-8.768116 1.570201-8.059441V-1.333976Z'/>
<path id='g1-109' d='M2.876387-6.405866H.222329V-6.072372C.833735-5.988998 .986587-5.822251 .986587-5.252532V-1.167229C.986587-.59751 .833735-.444659 .222329-.333494V0H3.55727V-.333494C3.070925-.402972 2.918073-.59751 2.918073-1.125543V-4.835665C2.918073-4.919038 3.140403-5.183054 3.321045-5.32201C3.612853-5.544339 3.849078-5.641609 4.085303-5.641609C4.627231-5.641609 4.835665-5.32201 4.835665-4.488275V-1.125543C4.835665-.555824 4.682813-.375181 4.168676-.333494V0H7.420244V-.333494C6.933898-.389076 6.767151-.59751 6.767151-1.125543V-4.835665C6.767151-4.905142 6.989481-5.169159 7.170123-5.308114C7.475826-5.544339 7.712051-5.641609 7.948276-5.641609C8.476308-5.641609 8.684742-5.308114 8.684742-4.488275V-1.125543C8.684742-.541928 8.531891-.375181 8.003859-.333494V0H11.311008V-.333494C10.76908-.361285 10.616229-.528032 10.616229-1.125543V-4.613335C10.616229-5.808356 9.879763-6.572613 8.740325-6.572613C7.948276-6.572613 7.420244-6.253014 6.697673-5.363697C6.280806-6.239119 5.79446-6.572613 4.919038-6.572613S3.404419-6.197432 2.876387-5.363697V-6.405866Z'/>
</defs>
<g id='page1'>
<use x='56.413267' y='65.753425' xlink:href='#g1-73'/>
<use x='61.838787' y='65.753425' xlink:href='#g1-109'/>
<use x='73.457156' y='65.753425' xlink:href='#g13-40'/>
<use x='78.171308' y='65.753425' xlink:href='#g9-67'/>
<use x='87.125626' y='68.061694' xlink:href='#g5-107'/>
<use x='92.381748' y='65.753425' xlink:href='#g13-41'/>
</g>
</svg>