<?xml version='1.0' encoding='UTF-8'?>
<!-- This file was generated by dvisvgm 2.8.1 -->
<svg version='1.1' xmlns='http://www.w3.org/2000/svg' xmlns:xlink='http://www.w3.org/1999/xlink' width='38.61177pt' height='11.46386pt' viewBox='56.413267 56.19326 38.61177 11.46386'>
<defs>
<use id='g7-37' xlink:href='#g3-37'/>
<use id='g7-48' xlink:href='#g3-48'/>
<use id='g7-53' xlink:href='#g3-53'/>
<path id='g3-37' d='M9.296148-5.155263C7.725947-5.155263 6.239119-3.529479 6.239119-1.792531C6.239119-.708675 6.906107 0 7.906589 0C8.531891 0 9.046028-.222329 9.532373-.708675C10.268839-1.459037 10.727394-2.584579 10.727394-3.668435C10.727394-4.613335 10.199361-5.155263 9.296148-5.155263ZM9.393417-4.710604C9.92145-4.710604 10.366108-4.210363 10.366108-3.598957C10.366108-2.806909 10.018719-1.862009 9.490686-1.208916C9.046028-.653093 8.643056-.416868 8.142814-.416868S7.295184-.778153 7.295184-1.306185C7.295184-2.042651 7.68426-3.18209 8.198397-3.90466C8.573578-4.460484 8.962654-4.710604 9.393417-4.710604ZM8.809803-9.393417H8.267875C7.517513-8.684742 6.961689-8.448517 6.100163-8.448517C5.544339-8.448517 5.224741-8.545786 4.891247-8.823698C4.529962-9.129401 4.349319-9.198879 3.918556-9.198879C2.334459-9.198879 .847631-7.545304 .847631-5.780564C.847631-4.807873 1.584097-4.015825 2.48731-4.015825C3.08482-4.015825 3.710122-4.293737 4.168676-4.780082C4.891247-5.516548 5.335906-6.6143 5.335906-7.628678C5.335906-7.823216 5.308114-7.989963 5.238637-8.240083C5.488757-8.142814 5.738878-8.101128 6.14185-8.101128C6.753256-8.101128 7.114541-8.198397 7.670364-8.517995L2.793013 .180643H3.460001L8.809803-9.393417ZM4.863456-8.337353C4.946829-8.059441 4.988516-7.851007 4.988516-7.656469C4.988516-6.086267 3.849078-4.488275 2.723535-4.488275C2.23719-4.488275 1.903696-4.835665 1.903696-5.335906C1.903696-5.91952 2.181607-6.86442 2.556788-7.5592C2.95976-8.309561 3.487793-8.782011 3.918556-8.782011C3.988034-8.782011 4.015825-8.768116 4.099198-8.698638C4.293737-8.517995 4.460484-8.448517 4.863456-8.337353Z'/>
<path id='g3-48' d='M3.529479-9.393417C2.765222-9.393417 2.181607-9.157192 1.667471-8.670847C.861526-7.892694 .333494-6.294701 .333494-4.668917C.333494-3.154298 .792048-1.528515 1.445141-.750362C1.959278-.138956 2.667953 .194538 3.473897 .194538C4.182572 .194538 4.780082-.041687 5.280323-.528032C6.086267-1.29229 6.6143-2.904178 6.6143-4.585544C6.6143-7.434139 5.349801-9.393417 3.529479-9.393417ZM3.487793-9.032132C4.655022-9.032132 5.280323-7.461931 5.280323-4.557753S4.668917-.166747 3.473897-.166747S1.667471-1.653575 1.667471-4.543857C1.667471-7.489722 2.292772-9.032132 3.487793-9.032132Z'/>
<path id='g3-53' d='M2.515101-8.101128H5.238637C5.460966-8.101128 5.516548-8.128919 5.558235-8.226188L6.086267-9.462895L5.961207-9.560164C5.752773-9.268357 5.613817-9.198879 5.32201-9.198879H2.417832L.903213-5.905625C.889318-5.877834 .889318-5.863938 .889318-5.836147C.889318-5.766669 .9449-5.724982 1.056065-5.724982C1.500723-5.724982 2.056547-5.627713 2.626266-5.44707C4.224259-4.932934 4.960725-4.071407 4.960725-2.695744C4.960725-1.361768 4.113094-.319599 3.029238-.319599C2.751326-.319599 2.515101-.416868 2.098234-.722571C1.653575-1.042169 1.333976-1.181125 1.042169-1.181125C.639197-1.181125 .444659-1.014378 .444659-.666988C.444659-.138956 1.097751 .194538 2.139921 .194538C3.30715 .194538 4.307632-.180643 5.002412-.889318C5.641609-1.514619 5.933416-2.306668 5.933416-3.362732C5.933416-4.363215 5.6694-5.002412 4.97462-5.697191C4.363215-6.308597 3.571166-6.628195 1.931487-6.920003L2.515101-8.101128Z'/>
<path id='g1-21' d='M9.365626-4.50217C9.560164-4.585544 9.643538-4.682813 9.643538-4.807873C9.643538-4.946829 9.587956-5.030203 9.365626-5.127472L1.709157-8.740325C1.514619-8.837594 1.459037-8.837594 1.431246-8.837594C1.264498-8.837594 1.153334-8.712533 1.153334-8.559682C1.153334-8.392935 1.264498-8.323457 1.41735-8.253979L8.712533-4.821769L1.445141-1.389559C1.167229-1.264498 1.153334-1.153334 1.153334-1.06996C1.153334-.917109 1.278394-.792048 1.431246-.792048C1.472932-.792048 1.500723-.792048 1.681366-.889318L9.365626-4.50217ZM9.157192 1.903696C9.393417 1.903696 9.643538 1.903696 9.643538 1.625784S9.351731 1.347872 9.143297 1.347872H1.653575C1.445141 1.347872 1.153334 1.347872 1.153334 1.625784S1.403454 1.903696 1.639679 1.903696H9.157192Z'/>
</defs>
<g id='page1'>
<use x='56.413267' y='65.753425' xlink:href='#g1-21'/>
<use x='70.349948' y='65.753425' xlink:href='#g7-53'/>
<use x='77.323796' y='65.753425' xlink:href='#g7-48'/>
<use x='84.297644' y='65.753425' xlink:href='#g7-37'/>
</g>
</svg>