<?xml version='1.0' encoding='UTF-8'?>
<!-- This file was generated by dvisvgm 2.1.3 -->
<svg height='9.42577pt' version='1.1' viewBox='56.4133 57.4069 28.511 9.42577' width='28.511pt' xmlns='http://www.w3.org/2000/svg' xmlns:xlink='http://www.w3.org/1999/xlink'>
<defs>
<path d='M5.03811 -3.6005L2.44782 -6.17783C2.2924 -6.33325 2.2665 -6.35915 2.16289 -6.35915C2.03337 -6.35915 1.90386 -6.24259 1.90386 -6.10012C1.90386 -6.00946 1.92976 -5.98356 2.07223 -5.8411L4.66252 -3.23786L2.07223 -0.63462C1.92976 -0.492154 1.90386 -0.466252 1.90386 -0.375592C1.90386 -0.233126 2.03337 -0.116563 2.16289 -0.116563C2.2665 -0.116563 2.2924 -0.142466 2.44782 -0.297883L5.02516 -2.87522L7.7061 -0.194271C7.732 -0.18132 7.82267 -0.116563 7.90037 -0.116563C8.05579 -0.116563 8.1594 -0.233126 8.1594 -0.375592C8.1594 -0.401494 8.1594 -0.4533 8.12055 -0.518057C8.1076 -0.54396 6.04832 -2.57733 5.40075 -3.23786L7.77086 -5.60797C7.83562 -5.68568 8.02989 -5.85405 8.09465 -5.93176C8.1076 -5.95766 8.1594 -6.00946 8.1594 -6.10012C8.1594 -6.24259 8.05579 -6.35915 7.90037 -6.35915C7.79676 -6.35915 7.74496 -6.30735 7.60249 -6.16488L5.03811 -3.6005Z' id='g0-2'/>
<path d='M5.69863 -2.17584H5.4137C5.37484 -1.95567 5.27123 -1.24334 5.14172 -1.03611C5.05106 -0.919552 4.31283 -0.919552 3.92428 -0.919552H1.52827C1.87796 -1.21743 2.668 -2.04633 3.00473 -2.35716C4.97335 -4.17036 5.69863 -4.84384 5.69863 -6.12603C5.69863 -7.61544 4.52005 -8.6127 3.01768 -8.6127S0.63462 -7.33051 0.63462 -6.21669C0.63462 -5.55616 1.20448 -5.55616 1.24334 -5.55616C1.51532 -5.55616 1.85205 -5.75044 1.85205 -6.16488C1.85205 -6.52752 1.60598 -6.7736 1.24334 -6.7736C1.12677 -6.7736 1.10087 -6.7736 1.06202 -6.76065C1.30809 -7.64134 2.00747 -8.23711 2.84932 -8.23711C3.95019 -8.23711 4.62366 -7.31756 4.62366 -6.12603C4.62366 -5.02516 3.98904 -4.06675 3.25081 -3.23786L0.63462 -0.310834V0H5.36189L5.69863 -2.17584Z' id='g1-50'/>
<path d='M2.38306 -4.64956C2.16289 -4.63661 2.11108 -4.62366 2.11108 -4.5071C2.11108 -4.37758 2.17584 -4.37758 2.40897 -4.37758H3.00473C4.1056 -4.37758 4.59776 -3.47098 4.59776 -2.22765C4.59776 -0.531009 3.71706 -0.0777086 3.08244 -0.0777086C2.46077 -0.0777086 1.39875 -0.375592 1.02316 -1.23039C1.43761 -1.16563 1.8132 -1.39875 1.8132 -1.86501C1.8132 -2.2406 1.54122 -2.49963 1.17858 -2.49963C0.867746 -2.49963 0.531009 -2.31831 0.531009 -1.82615C0.531009 -0.673474 1.68369 0.27198 3.1213 0.27198C4.66252 0.27198 5.80224 -0.9066 5.80224 -2.21469C5.80224 -3.40623 4.84384 -4.33873 3.6005 -4.5589C4.72727 -4.88269 5.45255 -5.82814 5.45255 -6.83836C5.45255 -7.86152 4.39054 -8.6127 3.13425 -8.6127C1.8391 -8.6127 0.880697 -7.82267 0.880697 -6.87721C0.880697 -6.35915 1.28219 -6.25554 1.47646 -6.25554C1.74844 -6.25554 2.05928 -6.44981 2.05928 -6.83836C2.05928 -7.2528 1.74844 -7.43412 1.46351 -7.43412C1.3858 -7.43412 1.3599 -7.43412 1.32105 -7.42117C1.8132 -8.30187 3.03064 -8.30187 3.09539 -8.30187C3.52279 -8.30187 4.36463 -8.1076 4.36463 -6.83836C4.36463 -6.59228 4.32578 -5.867 3.95019 -5.31009C3.56164 -4.74022 3.1213 -4.70137 2.77161 -4.68842L2.38306 -4.64956Z' id='g1-51'/>
</defs>
<g id='page1'>
<use x='56.4133' xlink:href='#g1-50' y='65.7534'/>
<use x='65.6321' xlink:href='#g0-2' y='65.7534'/>
<use x='78.5835' xlink:href='#g1-51' y='65.7534'/>
</g>
</svg>