<?xml version='1.0' encoding='UTF-8'?>
<!-- This file was generated by dvisvgm 2.6.3 -->
<svg version='1.1' xmlns='http://www.w3.org/2000/svg' xmlns:xlink='http://www.w3.org/1999/xlink' width='38.900144pt' height='12.693245pt' viewBox='55.71588 53.773053 38.900144 12.693245'>
<defs>
<use id='g12-53' xlink:href='#g4-53' transform='scale(0.740005)'/>
<path id='g0-90' d='M8.312827 -9.052055C8.438356 -9.233375 8.438356 -9.26127 8.438356 -9.303113C8.438356 -9.554172 8.229141 -9.554172 7.978082 -9.554172H1.590037C1.143711 -9.554172 1.143711 -9.512329 1.101868 -9.149689L0.892653 -7.26675L0.864757 -7.08543C0.864757 -6.890162 1.018182 -6.820423 1.115816 -6.820423C1.241345 -6.820423 1.325031 -6.918057 1.352927 -7.029639C1.408717 -7.364384 1.534247 -7.978082 2.385056 -8.508095C3.180075 -9.024159 4.156413 -9.066002 4.630635 -9.066002H5.760399L0.516065 -0.502117C0.390535 -0.320797 0.390535 -0.292902 0.390535 -0.251059C0.390535 0 0.613699 0 0.864757 0H8.019925C8.438356 0 8.438356 -0.027895 8.494147 -0.390535L8.870735 -3.138232C8.870735 -3.291656 8.745205 -3.38929 8.633624 -3.38929C8.424408 -3.38929 8.396513 -3.249813 8.35467 -2.970859C8.117559 -1.827148 7.029639 -0.488169 5.049066 -0.488169H3.068493L8.312827 -9.052055ZM1.57609 -9.066002H2.315318V-9.052055C1.93873 -8.842839 1.673724 -8.591781 1.506351 -8.438356L1.57609 -9.066002ZM6.332254 -9.066002H7.754919L2.496638 -0.488169H1.073973L6.332254 -9.066002ZM7.071482 -0.502117C7.462017 -0.72528 7.824658 -1.03213 8.145455 -1.422665C8.117559 -1.143711 8.089664 -0.990286 8.019925 -0.488169H7.071482V-0.502117Z'/>
<path id='g4-53' d='M2.515101 -8.101128H5.238637C5.460966 -8.101128 5.516548 -8.128919 5.558235 -8.226188L6.086267 -9.462895L5.961207 -9.560164C5.752773 -9.268357 5.613817 -9.198879 5.32201 -9.198879H2.417832L0.903213 -5.905625C0.889318 -5.877834 0.889318 -5.863938 0.889318 -5.836147C0.889318 -5.766669 0.9449 -5.724982 1.056065 -5.724982C1.500723 -5.724982 2.056547 -5.627713 2.626266 -5.44707C4.224259 -4.932934 4.960725 -4.071407 4.960725 -2.695744C4.960725 -1.361768 4.113094 -0.319599 3.029238 -0.319599C2.751326 -0.319599 2.515101 -0.416868 2.098234 -0.722571C1.653575 -1.042169 1.333976 -1.181125 1.042169 -1.181125C0.639197 -1.181125 0.444659 -1.014378 0.444659 -0.666988C0.444659 -0.138956 1.097751 0.194538 2.139921 0.194538C3.30715 0.194538 4.307632 -0.180643 5.002412 -0.889318C5.641609 -1.514619 5.933416 -2.306668 5.933416 -3.362732C5.933416 -4.363215 5.6694 -5.002412 4.97462 -5.697191C4.363215 -6.308597 3.571166 -6.628195 1.931487 -6.920003L2.515101 -8.101128Z'/>
<path id='g9-67' d='M9.059923 -6.461448L9.57406 -9.22667H9.282253C9.171088 -9.004341 9.032132 -8.920967 8.75422 -8.920967C8.643056 -8.920967 8.476308 -8.948758 8.184501 -9.018236C7.5592 -9.171088 7.003376 -9.254461 6.558717 -9.254461C3.598957 -9.254461 0.917109 -6.461448 0.917109 -3.376628C0.917109 -1.250603 2.417832 0.250121 4.543857 0.250121C5.975103 0.250121 7.08675 -0.361285 8.337353 -1.820322L8.101128 -2.01486C6.850525 -0.792048 6.044581 -0.375181 4.905142 -0.375181C3.362732 -0.375181 2.473415 -1.431246 2.473415 -3.223776C2.473415 -4.877351 3.140403 -6.558717 4.224259 -7.68426C4.891247 -8.365144 5.766669 -8.75422 6.683778 -8.75422C7.962172 -8.75422 8.670847 -8.003859 8.809803 -6.503135L9.059923 -6.461448Z'/>
<path id='g2-50' d='M7.614782 -3.195985C7.851007 -3.195985 8.101128 -3.195985 8.101128 -3.473897S7.851007 -3.751809 7.614782 -3.751809H1.723053C1.8898 -5.613817 3.487793 -6.947794 5.44707 -6.947794H7.614782C7.851007 -6.947794 8.101128 -6.947794 8.101128 -7.225706S7.851007 -7.503617 7.614782 -7.503617H5.419279C3.043134 -7.503617 1.153334 -5.697191 1.153334 -3.473897S3.043134 0.555824 5.419279 0.555824H7.614782C7.851007 0.555824 8.101128 0.555824 8.101128 0.277912S7.851007 0 7.614782 0H5.44707C3.487793 0 1.8898 -1.333976 1.723053 -3.195985H7.614782Z'/>
</defs>
<g id='page1'>
<use x='55.71588' y='65.910474' xlink:href='#g9-67'/>
<use x='68.425159' y='65.910474' xlink:href='#g2-50'/>
<use x='80.813658' y='65.910474' xlink:href='#g0-90'/>
<use x='90.112153' y='60.847627' xlink:href='#g12-53'/>
</g>
</svg>