<?xml version='1.0' encoding='UTF-8'?>
<!-- This file was generated by dvisvgm 2.8.1 -->
<svg version='1.1' xmlns='http://www.w3.org/2000/svg' xmlns:xlink='http://www.w3.org/1999/xlink' width='269.296673pt' height='16.185291pt' viewBox='97.531103 83.733228 269.296673 16.185291'>
<defs>
<use id='g11-58' xlink:href='#g7-58' transform='scale(1.351341)'/>
<use id='g11-59' xlink:href='#g7-59' transform='scale(1.351341)'/>
<use id='g11-60' xlink:href='#g7-60' transform='scale(1.351341)'/>
<path id='g6-112' d='M.904887-3.578418C1.336765-4.113124 1.532139-4.226235 2.025714-4.226235H2.498723L1.850906-1.943451C1.758361-1.655533 1.583553-1.429311 1.182523-1.110544C.812342-.822625 .699231-.6581 .6581-.431878C.606686-.123394 .812342 .133677 1.131109 .133677S1.737795-.102828 1.943451-.544989C2.077128-.812342 2.395895-1.861189 2.663248-2.899753L3.012864-4.226235H4.13369C3.866337-3.413893 3.588701-2.30335 3.496156-1.717229C3.300782-.565555 3.578418 .133677 4.20567 .133677C4.606699 .133677 5.007729-.143959 5.336779-.627251C5.532152-.91517 5.604132-1.110544 5.717243-1.624684H5.470456C5.336779-1.131109 5.100274-.874039 4.760942-.874039C4.555285-.874039 4.370195-1.017998 4.287932-1.233937C4.226235-1.419028 4.226235-1.583553 4.277649-1.922886C4.411326-2.704379 4.616982-3.660681 4.79179-4.226235H6.087424L6.241666-5.141406H2.642682C2.087411-5.141406 1.871472-5.069426 1.532139-4.781507S.976867-4.195387 .699231-3.578418H.904887Z'/>
<use id='g10-112' xlink:href='#g6-112' transform='scale(1.351341)'/>
<use id='g19-48' xlink:href='#g3-48'/>
<use id='g19-50' xlink:href='#g3-50'/>
<use id='g19-52' xlink:href='#g3-52'/>
<use id='g19-53' xlink:href='#g3-53'/>
<use id='g19-99' xlink:href='#g3-99'/>
<use id='g19-102' xlink:href='#g3-102'/>
<use id='g19-111' xlink:href='#g3-111'/>
<use id='g19-114' xlink:href='#g3-114'/>
<use id='g19-115' xlink:href='#g3-115'/>
<path id='g3-48' d='M3.529479-9.393417C2.765222-9.393417 2.181607-9.157192 1.667471-8.670847C.861526-7.892694 .333494-6.294701 .333494-4.668917C.333494-3.154298 .792048-1.528515 1.445141-.750362C1.959278-.138956 2.667953 .194538 3.473897 .194538C4.182572 .194538 4.780082-.041687 5.280323-.528032C6.086267-1.29229 6.6143-2.904178 6.6143-4.585544C6.6143-7.434139 5.349801-9.393417 3.529479-9.393417ZM3.487793-9.032132C4.655022-9.032132 5.280323-7.461931 5.280323-4.557753S4.668917-.166747 3.473897-.166747S1.667471-1.653575 1.667471-4.543857C1.667471-7.489722 2.292772-9.032132 3.487793-9.032132Z'/>
<path id='g3-50' d='M6.600404-1.903696L6.419762-1.973173C5.905625-1.181125 5.724982-1.056065 5.099681-1.056065H1.778635L4.113094-3.501688C5.349801-4.793978 5.891729-5.850042 5.891729-6.933898C5.891729-8.323457 4.766187-9.393417 3.321045-9.393417C2.556788-9.393417 1.834218-9.087714 1.320081-8.531891C.875422-8.059441 .666988-7.614782 .430763-6.628195L.722571-6.558717C1.278394-7.920485 1.778635-8.365144 2.737431-8.365144C3.90466-8.365144 4.696709-7.573095 4.696709-6.405866C4.696709-5.32201 4.057512-4.02972 2.890282-2.793013L.416868-.166747V0H5.836147L6.600404-1.903696Z'/>
<path id='g3-52' d='M6.558717-3.209881H5.141367V-9.393417H4.529962L.166747-3.209881V-2.320563H4.071407V0H5.141367V-2.320563H6.558717V-3.209881ZM4.057512-3.209881H.722571L4.057512-7.976067V-3.209881Z'/>
<path id='g3-53' d='M2.515101-8.101128H5.238637C5.460966-8.101128 5.516548-8.128919 5.558235-8.226188L6.086267-9.462895L5.961207-9.560164C5.752773-9.268357 5.613817-9.198879 5.32201-9.198879H2.417832L.903213-5.905625C.889318-5.877834 .889318-5.863938 .889318-5.836147C.889318-5.766669 .9449-5.724982 1.056065-5.724982C1.500723-5.724982 2.056547-5.627713 2.626266-5.44707C4.224259-4.932934 4.960725-4.071407 4.960725-2.695744C4.960725-1.361768 4.113094-.319599 3.029238-.319599C2.751326-.319599 2.515101-.416868 2.098234-.722571C1.653575-1.042169 1.333976-1.181125 1.042169-1.181125C.639197-1.181125 .444659-1.014378 .444659-.666988C.444659-.138956 1.097751 .194538 2.139921 .194538C3.30715 .194538 4.307632-.180643 5.002412-.889318C5.641609-1.514619 5.933416-2.306668 5.933416-3.362732C5.933416-4.363215 5.6694-5.002412 4.97462-5.697191C4.363215-6.308597 3.571166-6.628195 1.931487-6.920003L2.515101-8.101128Z'/>
<path id='g3-99' d='M5.530444-2.167712C4.863456-1.195021 4.363215-.861526 3.571166-.861526C2.306668-.861526 1.41735-1.973173 1.41735-3.571166C1.41735-5.002412 2.181607-5.988998 3.30715-5.988998C3.807391-5.988998 3.988034-5.836147 4.12699-5.32201L4.210363-5.016307C4.321528-4.627231 4.571648-4.37711 4.863456-4.37711C5.224741-4.37711 5.530444-4.641126 5.530444-4.960725C5.530444-5.738878 4.557753-6.39197 3.390523-6.39197C2.70964-6.39197 2.000965-6.114059 1.431246-5.613817C.736466-5.002412 .34739-4.057512 .34739-2.95976C.34739-1.153334 1.445141 .138956 2.987551 .138956C3.612853 .138956 4.168676-.083374 4.668917-.514137C5.044098-.847631 5.308114-1.222812 5.724982-2.042651L5.530444-2.167712Z'/>
<path id='g3-102' d='M4.293737-6.253014H2.584579V-7.864903C2.584579-8.670847 2.848595-9.10161 3.376628-9.10161C3.668435-9.10161 3.862973-8.962654 4.113094-8.559682C4.335423-8.198397 4.50217-8.059441 4.738395-8.059441C5.057994-8.059441 5.32201-8.309561 5.32201-8.62916C5.32201-9.129401 4.710604-9.490686 3.876869-9.490686C3.015343-9.490686 2.278876-9.115506 1.917591-8.476308C1.556306-7.864903 1.445141-7.364661 1.431246-6.253014H.291807V-5.808356H1.431246V-1.445141C1.431246-.430763 1.278394-.264016 .277912-.208434V0H3.890765V-.208434C2.751326-.250121 2.598475-.402972 2.598475-1.445141V-5.808356H4.293737V-6.253014Z'/>
<path id='g3-111' d='M3.473897-6.39197C1.667471-6.39197 .402972-5.057994 .402972-3.140403C.402972-1.264498 1.695262 .138956 3.446106 .138956S6.530926-1.333976 6.530926-3.251568C6.530926-5.07189 5.252532-6.39197 3.473897-6.39197ZM3.293254-6.002894C4.460484-6.002894 5.280323-4.668917 5.280323-2.765222C5.280323-1.195021 4.655022-.250121 3.612853-.250121C3.070925-.250121 2.556788-.583615 2.264981-1.139438C1.875904-1.862009 1.653575-2.8347 1.653575-3.821287C1.653575-5.141367 2.306668-6.002894 3.293254-6.002894Z'/>
<path id='g3-114' d='M.097269-5.419279C.291807-5.460966 .416868-5.474862 .583615-5.474862C.931004-5.474862 1.056065-5.252532 1.056065-4.641126V-1.167229C1.056065-.47245 .958796-.375181 .069478-.208434V0H3.404419V-.208434C2.459519-.250121 2.223294-.458554 2.223294-1.250603V-4.37711C2.223294-4.821769 2.820804-5.516548 3.195985-5.516548C3.279359-5.516548 3.404419-5.44707 3.55727-5.308114C3.7796-5.113576 3.932451-5.030203 4.113094-5.030203C4.446588-5.030203 4.655022-5.266428 4.655022-5.655504C4.655022-6.114059 4.363215-6.39197 3.890765-6.39197C3.30715-6.39197 2.904178-6.072372 2.223294-5.085785V-6.364179L2.153816-6.39197C1.41735-6.086267 .917109-5.905625 .097269-5.641609V-5.419279Z'/>
<path id='g3-115' d='M4.37711-4.363215L4.321528-6.253014H4.168676L4.140885-6.225223C4.015825-6.127954 4.001929-6.114059 3.946347-6.114059C3.862973-6.114059 3.724017-6.14185 3.571166-6.211328C3.265463-6.322492 2.95976-6.378075 2.598475-6.378075C1.500723-6.378075 .708675-5.6694 .708675-4.668917C.708675-3.890765 1.153334-3.334941 2.334459-2.667953L3.140403-2.209398C3.626748-1.931487 3.862973-1.597993 3.862973-1.167229C3.862973-.555824 3.418315-.166747 2.70964-.166747C2.23719-.166747 1.806426-.34739 1.54241-.653093C1.250603-1.000482 1.125543-1.320081 .9449-2.112129H.722571V.055582H.903213C1.000482-.083374 1.056065-.111165 1.222812-.111165C1.347872-.111165 1.54241-.083374 1.862009 0C2.251085 .083374 2.626266 .138956 2.876387 .138956C3.946347 .138956 4.835665-.666988 4.835665-1.639679C4.835665-2.334459 4.50217-2.793013 3.668435-3.293254L2.167712-4.182572C1.778635-4.404901 1.570201-4.752291 1.570201-5.127472C1.570201-5.683295 2.000965-6.072372 2.640162-6.072372C3.43221-6.072372 3.849078-5.599922 4.168676-4.363215H4.37711Z'/>
<path id='g1-0' d='M9.157192-3.195985C9.393417-3.195985 9.643538-3.195985 9.643538-3.473897S9.393417-3.751809 9.157192-3.751809H1.639679C1.403454-3.751809 1.153334-3.751809 1.153334-3.473897S1.403454-3.195985 1.639679-3.195985H9.157192Z'/>
<path id='g1-20' d='M9.379522-8.253979C9.532373-8.323457 9.643538-8.392935 9.643538-8.559682C9.643538-8.712533 9.532373-8.837594 9.365626-8.837594C9.296148-8.837594 9.171088-8.782011 9.115506-8.75422L1.431246-5.127472C1.195021-5.016307 1.153334-4.919038 1.153334-4.807873C1.153334-4.682813 1.236707-4.585544 1.431246-4.50217L9.115506-.889318C9.296148-.792048 9.323939-.792048 9.365626-.792048C9.518478-.792048 9.643538-.917109 9.643538-1.06996C9.643538-1.195021 9.587956-1.278394 9.351731-1.389559L2.084338-4.807873L9.379522-8.253979ZM9.157192 1.903696C9.393417 1.903696 9.643538 1.903696 9.643538 1.625784S9.351731 1.347872 9.143297 1.347872H1.653575C1.445141 1.347872 1.153334 1.347872 1.153334 1.625784S1.403454 1.903696 1.639679 1.903696H9.157192Z'/>
<use id='g15-50' xlink:href='#g3-50' transform='scale(.740005)'/>
<path id='g16-40' d='M3.403611 2.467875C3.403611 2.437026 3.403611 2.416461 3.228803 2.241653C1.943451 .946019 1.614401-.997433 1.614401-2.570703C1.614401-4.359912 2.005148-6.149121 3.269934-7.434473C3.403611-7.557866 3.403611-7.578432 3.403611-7.60928C3.403611-7.68126 3.362479-7.712108 3.300782-7.712108C3.197954-7.712108 2.272501-7.012877 1.665815-5.70696C1.141392-4.575851 1.017998-3.434459 1.017998-2.570703C1.017998-1.768644 1.131109-.524423 1.696664 .637534C2.313633 1.90232 3.197954 2.570703 3.300782 2.570703C3.362479 2.570703 3.403611 2.539854 3.403611 2.467875Z'/>
<path id='g16-41' d='M2.971732-2.570703C2.971732-3.372762 2.858622-4.616982 2.293067-5.77894C1.676098-7.043726 .791776-7.712108 .688948-7.712108C.627251-7.712108 .58612-7.670977 .58612-7.60928C.58612-7.578432 .58612-7.557866 .781494-7.372776C1.789209-6.354777 2.375329-4.71981 2.375329-2.570703C2.375329-.812342 1.994865 .997433 .719797 2.293067C.58612 2.416461 .58612 2.437026 .58612 2.467875C.58612 2.529572 .627251 2.570703 .688948 2.570703C.791776 2.570703 1.717229 1.871472 2.323915 .565555C2.848339-.565555 2.971732-1.706947 2.971732-2.570703Z'/>
<path id='g16-43' d='M4.20567-2.365047H7.074574C7.218533-2.365047 7.413907-2.365047 7.413907-2.570703S7.218533-2.776359 7.074574-2.776359H4.20567V-5.655546C4.20567-5.799506 4.20567-5.994879 4.000014-5.994879S3.794357-5.799506 3.794357-5.655546V-2.776359H.91517C.771211-2.776359 .575837-2.776359 .575837-2.570703S.771211-2.365047 .91517-2.365047H3.794357V.514141C3.794357 .6581 3.794357 .853473 4.000014 .853473S4.20567 .6581 4.20567 .514141V-2.365047Z'/>
<path id='g16-61' d='M7.064291-3.362479C7.218533-3.362479 7.413907-3.362479 7.413907-3.568135S7.218533-3.773792 7.074574-3.773792H.91517C.771211-3.773792 .575837-3.773792 .575837-3.568135S.771211-3.362479 .925453-3.362479H7.064291ZM7.074574-1.367614C7.218533-1.367614 7.413907-1.367614 7.413907-1.57327S7.218533-1.778926 7.064291-1.778926H.925453C.771211-1.778926 .575837-1.778926 .575837-1.57327S.771211-1.367614 .91517-1.367614H7.074574Z'/>
<use id='g20-40' xlink:href='#g16-40' transform='scale(1.351341)'/>
<use id='g20-41' xlink:href='#g16-41' transform='scale(1.351341)'/>
<use id='g20-43' xlink:href='#g16-43' transform='scale(1.351341)'/>
<use id='g20-61' xlink:href='#g16-61' transform='scale(1.351341)'/>
<path id='g8-67' d='M6.704393-4.781507L7.084857-6.827787H6.868918C6.786655-6.663262 6.683827-6.601565 6.478171-6.601565C6.395909-6.601565 6.272515-6.62213 6.056576-6.673544C5.593849-6.786655 5.182537-6.848352 4.853487-6.848352C2.663248-6.848352 .678666-4.781507 .678666-2.498723C.678666-.925453 1.789209 .185091 3.362479 .185091C4.421609 .185091 5.244234-.267353 6.169687-1.347048L5.994879-1.491008C5.069426-.58612 4.473023-.277636 3.629832-.277636C2.48844-.277636 1.83034-1.05913 1.83034-2.385612C1.83034-3.609267 2.323915-4.853487 3.125975-5.686395C3.61955-6.190252 4.267367-6.478171 4.946032-6.478171C5.892051-6.478171 6.416474-5.922899 6.519302-4.812356L6.704393-4.781507Z'/>
<path id='g8-78' d='M7.475604-6.714676H5.429324V-6.550151C6.015445-6.498737 6.149121-6.395909 6.149121-6.025727C6.149121-5.902334 6.128555-5.77894 6.056576-5.573284C6.046293-5.542435 6.03601-5.501304 6.03601-5.491021L4.987163-1.583553L2.848339-6.714676H1.192806V-6.550151C1.676098-6.50902 1.892037-6.375343 2.077128-5.974313L.853473-1.686381C.462727-.370181 .380464-.246787-.205656-.164525V0H1.83034V-.164525C1.305917-.205656 1.110544-.318767 1.110544-.606686C1.110544-.740362 1.141392-.946019 1.203089-1.161958L2.375329-5.501304L4.740376 .154242H4.925467L6.406191-5.018012C6.786655-6.344495 6.827787-6.406191 7.475604-6.550151V-6.714676Z'/>
<path id='g8-107' d='M4.257084-1.120826L4.102842-.853473C3.917751-.534706 3.794357-.421595 3.640115-.421595C3.424176-.421595 3.208237-.760928 2.807207-1.748078C2.755793-1.881754 2.601551-2.251936 2.426743-2.652965C3.938317-4.000014 4.257084-4.20567 4.740376-4.236518V-4.401043H2.858622V-4.236518H3.023146C3.280217-4.236518 3.424176-4.164539 3.424176-4.051428C3.424176-3.845771 2.910036-3.341914 1.953734-2.611834C1.809775-2.498723 1.686381-2.395895 1.511573-2.272501L2.745511-6.971746L2.694097-7.02316C2.087411-6.889484 1.696664-6.817504 1.089978-6.745524V-6.580999C1.583553-6.591282 1.778926-6.519302 1.789209-6.323929C1.768644-6.149121 1.696664-5.871485 1.562987-5.398476C1.521856-5.254517 1.491008-5.141406 1.470442-5.059143L1.449876-4.966598L.143959 0H.91517L1.408745-1.850906L1.840623-2.179956C2.005148-1.727512 2.272501-1.100261 2.457592-.73008C2.786642-.082262 2.971732 .113111 3.269934 .113111C3.681246 .113111 3.9486-.143959 4.411326-1.007715L4.257084-1.120826Z'/>
<path id='g7-58' d='M1.9743-.544989C1.9743-.843191 1.727512-1.089978 1.429311-1.089978S.884322-.843191 .884322-.544989S1.131109 0 1.429311 0S1.9743-.246787 1.9743-.544989Z'/>
<path id='g7-59' d='M2.087411-.010283C2.087411-.688948 1.83034-1.089978 1.429311-1.089978C1.089978-1.089978 .884322-.832908 .884322-.544989C.884322-.267353 1.089978 0 1.429311 0C1.552704 0 1.686381-.041131 1.789209-.133677C1.820058-.154242 1.83034-.164525 1.840623-.164525S1.861189-.154242 1.861189-.010283C1.861189 .750645 1.50129 1.367614 1.161958 1.706947C1.048847 1.820058 1.048847 1.840623 1.048847 1.871472C1.048847 1.943451 1.100261 1.984583 1.151675 1.984583C1.264786 1.984583 2.087411 1.192806 2.087411-.010283Z'/>
<path id='g7-60' d='M6.940898-5.12084C7.064291-5.182537 7.136271-5.233951 7.136271-5.347062S7.043726-5.552718 6.930615-5.552718C6.899766-5.552718 6.879201-5.552718 6.745524-5.480738L1.048847-2.796925C.935736-2.745511 .853473-2.694097 .853473-2.570703S.935736-2.395895 1.048847-2.344481L6.745524 .339333C6.879201 .411312 6.899766 .411312 6.930615 .411312C7.043726 .411312 7.136271 .318767 7.136271 .205656S7.064291 .041131 6.940898-.020566L1.542422-2.570703L6.940898-5.12084Z'/>
<use id='g12-67' xlink:href='#g8-67' transform='scale(1.351341)'/>
<use id='g12-78' xlink:href='#g8-78' transform='scale(1.351341)'/>
<use id='g12-107' xlink:href='#g8-107' transform='scale(1.351341)'/>
</defs>
<g id='page1'>
<use x='97.531103' y='96.444622' xlink:href='#g12-67'/>
<use x='106.485421' y='98.752891' xlink:href='#g8-107'/>
<use x='114.841004' y='96.444622' xlink:href='#g20-61'/>
<use x='128.777685' y='96.444622' xlink:href='#g12-107'/>
<use x='135.207366' y='90.684409' xlink:href='#g15-50'/>
<use x='142.803347' y='96.444622' xlink:href='#g1-0'/>
<use x='155.57773' y='96.444622' xlink:href='#g19-52'/>
<use x='162.551578' y='96.444622' xlink:href='#g12-107'/>
<use x='170.918422' y='96.444622' xlink:href='#g20-43'/>
<use x='183.692805' y='96.444622' xlink:href='#g19-50'/>
<use x='192.216383' y='96.444622' xlink:href='#g19-99'/>
<use x='198.409084' y='96.444622' xlink:href='#g19-111'/>
<use x='205.382932' y='96.444622' xlink:href='#g19-115'/>
<use x='210.808437' y='96.444622' xlink:href='#g20-40'/>
<use x='216.219977' y='96.444622' xlink:href='#g10-112'/>
<use x='225.006921' y='96.444622' xlink:href='#g12-107'/>
<use x='233.373765' y='96.444622' xlink:href='#g20-43'/>
<use x='246.148148' y='96.444622' xlink:href='#g19-48'/>
<use x='253.121996' y='96.444622' xlink:href='#g11-58'/>
<use x='256.985367' y='96.444622' xlink:href='#g19-53'/>
<use x='263.959215' y='96.444622' xlink:href='#g20-41'/>
<use x='269.370755' y='96.444622' xlink:href='#g11-59'/>
<use x='281.757705' y='96.444622' xlink:href='#g19-102'/>
<use x='286.402237' y='96.444622' xlink:href='#g19-111'/>
<use x='293.376086' y='96.444622' xlink:href='#g19-114'/>
<use x='304.994451' y='96.444622' xlink:href='#g19-48'/>
<use x='315.06776' y='96.444622' xlink:href='#g1-20'/>
<use x='329.00444' y='96.444622' xlink:href='#g12-107'/>
<use x='338.533582' y='96.444622' xlink:href='#g11-60'/>
<use x='352.470263' y='96.444622' xlink:href='#g12-78'/>
<use x='364.159824' y='96.444622' xlink:href='#g11-58'/>
</g>
</svg>