<?xml version='1.0' encoding='UTF-8'?>
<!-- This file was generated by dvisvgm 2.1.3 -->
<svg height='16.1883pt' version='1.1' viewBox='56.4133 53.7983 301.205 16.1883' width='301.205pt' xmlns='http://www.w3.org/2000/svg' xmlns:xlink='http://www.w3.org/1999/xlink'>
<defs>
<path d='M6.11953 -2.07611C6.28271 -2.07611 6.45497 -2.07611 6.45497 -2.27556C6.45497 -2.46594 6.27365 -2.46594 6.11953 -2.46594H1.11511C0.960992 -2.46594 0.779673 -2.46594 0.779673 -2.27556C0.779673 -2.07611 0.951926 -2.07611 1.11511 -2.07611H6.11953Z' id='g0-0'/>
<path d='M8.74222 -7.69315C8.88468 -7.75791 8.98829 -7.82267 8.98829 -7.97808C8.98829 -8.12055 8.88468 -8.23711 8.72927 -8.23711C8.66451 -8.23711 8.54795 -8.18531 8.49614 -8.1594L1.334 -4.77908C1.11382 -4.67547 1.07497 -4.58481 1.07497 -4.4812C1.07497 -4.36463 1.15268 -4.27397 1.334 -4.19626L8.49614 -0.828892C8.66451 -0.738232 8.69041 -0.738232 8.72927 -0.738232C8.87173 -0.738232 8.98829 -0.854795 8.98829 -0.99726C8.98829 -1.11382 8.93649 -1.19153 8.71631 -1.29514L1.94271 -4.4812L8.74222 -7.69315ZM8.53499 1.77435C8.75517 1.77435 8.98829 1.77435 8.98829 1.51532S8.71631 1.25629 8.52204 1.25629H1.54122C1.34695 1.25629 1.07497 1.25629 1.07497 1.51532S1.30809 1.77435 1.52827 1.77435H8.53499Z' id='g1-20'/>
<path d='M4.07968 -6.43683C4.13408 -6.56376 4.13408 -6.58189 4.13408 -6.60002C4.13408 -6.71788 4.04342 -6.79947 3.94369 -6.79947C3.81677 -6.79947 3.78051 -6.72694 3.77144 -6.70881L0.571156 1.90385C0.51676 2.03078 0.51676 2.04891 0.51676 2.06704C0.51676 2.1849 0.60742 2.26649 0.707145 2.26649C0.797805 2.26649 0.870332 2.23023 0.933794 2.04891L4.07968 -6.43683Z' id='g2-61'/>
<path d='M2.62913 -5.65716C2.62913 -5.85661 2.48407 -5.9926 2.28462 -5.9926C2.03984 -5.9926 1.79506 -5.75689 1.79506 -5.51211C1.79506 -5.33079 1.93105 -5.17666 2.13957 -5.17666C2.38435 -5.17666 2.62913 -5.40331 2.62913 -5.65716ZM2.75605 -1.29643C2.75605 -1.34176 2.72885 -1.40522 2.6382 -1.40522C2.53847 -1.40522 2.5294 -1.35989 2.49314 -1.24204C2.27556 -0.498628 1.90385 -0.126923 1.55935 -0.126923C1.41429 -0.126923 1.34176 -0.199451 1.34176 -0.4261C1.34176 -0.643683 1.41429 -0.843135 1.48682 -1.01539C1.65001 -1.45055 1.65001 -1.46869 1.76786 -1.74973C1.91292 -2.13957 2.11237 -2.65633 2.20303 -2.91017C2.26649 -3.07336 2.26649 -3.16402 2.26649 -3.24561C2.26649 -3.76237 1.85852 -4.00716 1.49588 -4.00716C0.616485 -4.00716 0.262913 -2.71072 0.262913 -2.611C0.262913 -2.5294 0.326375 -2.50221 0.389836 -2.50221C0.489562 -2.50221 0.498628 -2.5566 0.534892 -2.67446C0.725277 -3.31814 1.06978 -3.78051 1.46869 -3.78051C1.55935 -3.78051 1.68627 -3.76237 1.68627 -3.4904C1.68627 -3.26375 1.59561 -3.02803 1.51402 -2.81951L0.870332 -1.14231C0.806871 -0.970058 0.752475 -0.825003 0.752475 -0.661815C0.752475 -0.235715 1.06978 0.0997256 1.53215 0.0997256C2.41155 0.0997256 2.75605 -1.20577 2.75605 -1.29643Z' id='g2-105'/>
<path d='M2.38306 -0.621669C2.38306 -0.99726 2.07223 -1.25629 1.76139 -1.25629C1.3858 -1.25629 1.12677 -0.945455 1.12677 -0.63462C1.12677 -0.259029 1.43761 0 1.74844 0C2.12403 0 2.38306 -0.310834 2.38306 -0.621669Z' id='g3-58'/>
<path d='M2.52553 0.0518057C2.52553 -0.699377 2.27945 -1.25629 1.74844 -1.25629C1.334 -1.25629 1.12677 -0.919552 1.12677 -0.63462S1.32105 0 1.76139 0C1.92976 0 2.07223 -0.0518057 2.18879 -0.168369C2.21469 -0.194271 2.22765 -0.194271 2.2406 -0.194271C2.2665 -0.194271 2.2665 -0.0129514 2.2665 0.0518057C2.2665 0.479203 2.18879 1.32105 1.43761 2.16289C1.29514 2.31831 1.29514 2.34421 1.29514 2.37011C1.29514 2.43487 1.3599 2.49963 1.42466 2.49963C1.52827 2.49963 2.52553 1.54122 2.52553 0.0518057Z' id='g3-59'/>
<path d='M8.53499 -6.30735C8.76812 -6.41096 8.79402 -6.50162 8.79402 -6.57933C8.79402 -6.72179 8.69041 -6.8254 8.54795 -6.8254C8.52204 -6.8254 8.50909 -6.81245 8.32777 -6.73474L1.32105 -3.50984C1.08792 -3.40623 1.06202 -3.31557 1.06202 -3.23786C1.06202 -3.1472 1.07497 -3.06949 1.32105 -2.95293L8.32777 0.27198C8.49614 0.349689 8.52204 0.36264 8.54795 0.36264C8.69041 0.36264 8.79402 0.259029 8.79402 0.116563C8.79402 0.0388543 8.76812 -0.0518057 8.53499 -0.155417L1.86501 -3.22491L8.53499 -6.30735Z' id='g3-60'/>
<path d='M8.22416 -9.00125C8.22416 -9.11781 8.1335 -9.11781 8.1076 -9.11781C8.05579 -9.11781 8.04284 -9.10486 7.88742 -8.91059C7.80971 -8.81993 7.2787 -8.14645 7.26575 -8.1335C6.83836 -8.97534 5.98356 -9.11781 5.4396 -9.11781C3.79477 -9.11781 2.30535 -7.61544 2.30535 -6.15193C2.30535 -5.18057 2.88817 -4.61071 3.52279 -4.39054C3.66526 -4.33873 4.42939 -4.13151 4.81793 -4.04085C5.47846 -3.85953 5.64682 -3.80772 5.9188 -3.52279C5.97061 -3.45803 6.22964 -3.16015 6.22964 -2.55143C6.22964 -1.34695 5.11582 -0.103611 3.82067 -0.103611C2.75866 -0.103611 1.58007 -0.556912 1.58007 -2.00747C1.58007 -2.25355 1.63188 -2.56438 1.67073 -2.6939C1.67073 -2.73275 1.68369 -2.79751 1.68369 -2.82341C1.68369 -2.87522 1.65778 -2.93998 1.55417 -2.93998C1.43761 -2.93998 1.42466 -2.91407 1.37285 -2.6939L0.712329 -0.0388543C0.712329 -0.0259029 0.660523 0.142466 0.660523 0.155417C0.660523 0.27198 0.764134 0.27198 0.790037 0.27198C0.841843 0.27198 0.854795 0.259029 1.01021 0.0647572L1.60598 -0.712329C1.91681 -0.246077 2.59029 0.27198 3.79477 0.27198C5.4655 0.27198 6.99377 -1.34695 6.99377 -2.96588C6.99377 -3.50984 6.86426 -3.98904 6.3721 -4.46824C6.10012 -4.74022 5.867 -4.80498 4.67547 -5.11582C3.80772 -5.34894 3.69116 -5.3878 3.45803 -5.59502C3.23786 -5.81519 3.06949 -6.12603 3.06949 -6.56638C3.06949 -7.6543 4.17036 -8.76812 5.40075 -8.76812C6.66999 -8.76812 7.26575 -7.99103 7.26575 -6.76065C7.26575 -6.42391 7.201 -6.07422 7.201 -6.02242C7.201 -5.90585 7.30461 -5.90585 7.34346 -5.90585C7.46002 -5.90585 7.47298 -5.94471 7.52478 -6.15193L8.22416 -9.00125Z' id='g3-83'/>
<path d='M3.66526 -1.85205C3.66526 -1.91681 3.61345 -1.96862 3.53574 -1.96862C3.41918 -1.96862 3.40623 -1.92976 3.34147 -1.70959C3.00473 -0.531009 2.47372 -0.129514 2.04633 -0.129514C1.89091 -0.129514 1.70959 -0.168369 1.70959 -0.556912C1.70959 -0.9066 1.86501 -1.29514 2.00747 -1.68369L2.91407 -4.09265C2.95293 -4.19626 3.04359 -4.42939 3.04359 -4.67547C3.04359 -5.21943 2.65504 -5.71158 2.02042 -5.71158C0.828892 -5.71158 0.349689 -3.83362 0.349689 -3.73001C0.349689 -3.67821 0.401494 -3.61345 0.492154 -3.61345C0.608717 -3.61345 0.621669 -3.66526 0.673474 -3.84658C0.984309 -4.9345 1.47646 -5.45255 1.98157 -5.45255C2.09813 -5.45255 2.31831 -5.4396 2.31831 -5.02516C2.31831 -4.68842 2.14994 -4.26102 2.04633 -3.97609L1.13973 -1.56712C1.06202 -1.3599 0.984309 -1.15268 0.984309 -0.919552C0.984309 -0.336737 1.3858 0.129514 2.00747 0.129514C3.199 0.129514 3.66526 -1.76139 3.66526 -1.85205ZM3.56164 -8.08169C3.56164 -8.27597 3.40623 -8.50909 3.1213 -8.50909C2.82341 -8.50909 2.48667 -8.22416 2.48667 -7.88742C2.48667 -7.56364 2.75866 -7.46002 2.91407 -7.46002C3.26376 -7.46002 3.56164 -7.79676 3.56164 -8.08169Z' id='g3-105'/>
<path d='M4.2882 -2.90111C4.2882 -3.50853 4.261 -4.2882 3.94369 -4.96815C3.54479 -5.82035 2.85578 -6.03793 2.32995 -6.03793C1.78599 -6.03793 1.09698 -5.82035 0.698079 -4.95002C0.407968 -4.32446 0.362639 -3.59012 0.362639 -2.90111C0.362639 -2.31182 0.38077 -1.43242 0.770607 -0.716211C1.19671 0.0543958 1.90385 0.199451 2.32089 0.199451C2.91017 0.199451 3.58106 -0.0543958 3.96183 -0.888464C4.2338 -1.49588 4.2882 -2.17583 4.2882 -2.90111ZM2.32995 -0.0271979C2.05797 -0.0271979 1.40522 -0.154121 1.23297 -1.17858C1.14231 -1.71347 1.14231 -2.49314 1.14231 -3.0099C1.14231 -3.62639 1.14231 -4.3426 1.2511 -4.84122C1.43242 -5.64809 2.01264 -5.81128 2.32089 -5.81128C2.66539 -5.81128 3.23655 -5.62996 3.4088 -4.78683C3.50853 -4.2882 3.50853 -3.58106 3.50853 -3.0099C3.50853 -2.44781 3.50853 -1.68627 3.41787 -1.15138C3.22748 -0.117858 2.5566 -0.0271979 2.32995 -0.0271979Z' id='g4-48'/>
<path d='M2.75605 -5.79315C2.75605 -6.0198 2.74699 -6.03793 2.52034 -6.03793C1.95825 -5.45771 1.12418 -5.45771 0.843135 -5.45771V-5.17666C1.01539 -5.17666 1.56841 -5.17666 2.05797 -5.41238V-0.725277C2.05797 -0.389836 2.03078 -0.281045 1.18764 -0.281045H0.89753V0C1.22391 -0.0271979 2.03078 -0.0271979 2.40248 -0.0271979S3.59012 -0.0271979 3.9165 0V-0.281045H3.62639C2.78325 -0.281045 2.75605 -0.389836 2.75605 -0.725277V-5.79315Z' id='g4-49'/>
<path d='M4.18847 -1.60468H3.93463C3.9165 -1.48682 3.84397 -0.951926 3.72611 -0.806871C3.67172 -0.725277 3.04616 -0.725277 2.86484 -0.725277H1.2511L2.14863 -1.57748C3.63545 -2.86484 4.18847 -3.34534 4.18847 -4.27007C4.18847 -5.31265 3.32721 -6.03793 2.21209 -6.03793C1.16951 -6.03793 0.462364 -5.21293 0.462364 -4.38793C0.462364 -3.93463 0.852201 -3.8893 0.933794 -3.8893C1.13325 -3.8893 1.40522 -4.03435 1.40522 -4.36073C1.40522 -4.63271 1.21484 -4.83216 0.933794 -4.83216C0.888464 -4.83216 0.861266 -4.83216 0.825003 -4.82309C1.04259 -5.46678 1.62281 -5.75689 2.11237 -5.75689C3.0371 -5.75689 3.35441 -4.89562 3.35441 -4.27007C3.35441 -3.34534 2.65633 -2.59287 2.22116 -2.12144L0.56209 -0.326375C0.462364 -0.226649 0.462364 -0.208517 0.462364 0H3.93463L4.18847 -1.60468Z' id='g4-50'/>
<path d='M4.20922 3.1472C4.20922 3.10834 4.20922 3.08244 3.98904 2.86227C2.6939 1.55417 1.96862 -0.582814 1.96862 -3.22491C1.96862 -5.73748 2.57733 -7.90037 4.0797 -9.42864C4.20922 -9.54521 4.20922 -9.57111 4.20922 -9.60996C4.20922 -9.68767 4.14446 -9.71357 4.09265 -9.71357C3.92428 -9.71357 2.86227 -8.78107 2.22765 -7.51183C1.56712 -6.20374 1.26924 -4.81793 1.26924 -3.22491C1.26924 -2.07223 1.45056 -0.531009 2.12403 0.854795C2.88817 2.40897 3.95019 3.25081 4.09265 3.25081C4.14446 3.25081 4.20922 3.22491 4.20922 3.1472Z' id='g5-40'/>
<path d='M3.6523 -3.22491C3.6523 -4.20922 3.52279 -5.81519 2.79751 -7.31756C2.03337 -8.87173 0.971357 -9.71357 0.828892 -9.71357C0.777086 -9.71357 0.712329 -9.68767 0.712329 -9.60996C0.712329 -9.57111 0.712329 -9.54521 0.932503 -9.32503C2.22765 -8.01694 2.95293 -5.87995 2.95293 -3.23786C2.95293 -0.72528 2.34421 1.43761 0.841843 2.96588C0.712329 3.08244 0.712329 3.10834 0.712329 3.1472C0.712329 3.22491 0.777086 3.25081 0.828892 3.25081C0.99726 3.25081 2.05928 2.31831 2.6939 1.04907C3.35442 -0.27198 3.6523 -1.67073 3.6523 -3.22491Z' id='g5-41'/>
<path d='M5.16762 -2.99178H8.74222C8.92354 -2.99178 9.15666 -2.99178 9.15666 -3.22491C9.15666 -3.47098 8.93649 -3.47098 8.74222 -3.47098H5.16762V-7.04558C5.16762 -7.2269 5.16762 -7.46002 4.9345 -7.46002C4.68842 -7.46002 4.68842 -7.23985 4.68842 -7.04558V-3.47098H1.11382C0.932503 -3.47098 0.699377 -3.47098 0.699377 -3.23786C0.699377 -2.99178 0.919552 -2.99178 1.11382 -2.99178H4.68842V0.582814C4.68842 0.764134 4.68842 0.99726 4.92154 0.99726C5.16762 0.99726 5.16762 0.777086 5.16762 0.582814V-2.99178Z' id='g5-43'/>
<path d='M3.73001 -8.30187C3.73001 -8.59975 3.73001 -8.6127 3.47098 -8.6127C3.16015 -8.26301 2.51258 -7.78381 1.17858 -7.78381V-7.40822C1.47646 -7.40822 2.12403 -7.40822 2.83636 -7.74496V-0.99726C2.83636 -0.531009 2.79751 -0.375592 1.65778 -0.375592H1.25629V0C1.60598 -0.0259029 2.86227 -0.0259029 3.28966 -0.0259029S4.9604 -0.0259029 5.31009 0V-0.375592H4.90859C3.76887 -0.375592 3.73001 -0.531009 3.73001 -0.99726V-8.30187Z' id='g5-49'/>
<path d='M1.59303 -4.5071C1.59303 -7.78381 3.18605 -8.30187 3.88543 -8.30187C4.35168 -8.30187 4.81793 -8.1594 5.06401 -7.77086C4.90859 -7.77086 4.41644 -7.77086 4.41644 -7.23985C4.41644 -6.95492 4.61071 -6.70884 4.94745 -6.70884C5.27123 -6.70884 5.49141 -6.90311 5.49141 -7.2787C5.49141 -7.95218 4.99925 -8.6127 3.87248 -8.6127C2.2406 -8.6127 0.531009 -6.94197 0.531009 -4.09265C0.531009 -0.531009 2.08518 0.27198 3.18605 0.27198C4.59776 0.27198 5.80224 -0.958406 5.80224 -2.64209C5.80224 -4.36463 4.59776 -5.51731 3.30262 -5.51731C2.14994 -5.51731 1.72254 -4.52005 1.59303 -4.15741V-4.5071ZM3.18605 -0.0777086C2.37011 -0.0777086 1.98157 -0.802989 1.86501 -1.07497C1.74844 -1.41171 1.61893 -2.04633 1.61893 -2.95293C1.61893 -3.97609 2.08518 -5.25828 3.25081 -5.25828C3.96314 -5.25828 4.33873 -4.77908 4.533 -4.33873C4.74022 -3.85953 4.74022 -3.21196 4.74022 -2.65504C4.74022 -1.99452 4.74022 -1.41171 4.49415 -0.919552C4.17036 -0.297883 3.70411 -0.0777086 3.18605 -0.0777086Z' id='g5-54'/>
<path d='M8.74222 -4.19626C8.92354 -4.19626 9.15666 -4.19626 9.15666 -4.42939C9.15666 -4.67547 8.93649 -4.67547 8.74222 -4.67547H1.11382C0.932503 -4.67547 0.699377 -4.67547 0.699377 -4.44234C0.699377 -4.19626 0.919552 -4.19626 1.11382 -4.19626H8.74222ZM8.74222 -1.7873C8.92354 -1.7873 9.15666 -1.7873 9.15666 -2.02042C9.15666 -2.2665 8.93649 -2.2665 8.74222 -2.2665H1.11382C0.932503 -2.2665 0.699377 -2.2665 0.699377 -2.03337C0.699377 -1.7873 0.919552 -1.7873 1.11382 -1.7873H8.74222Z' id='g5-61'/>
<path d='M4.99925 -3.45803C4.99925 -4.15741 4.99925 -4.67547 4.42939 -5.18057C3.97609 -5.59502 3.39328 -5.77634 2.82341 -5.77634C1.76139 -5.77634 0.945455 -5.07696 0.945455 -4.23512C0.945455 -3.85953 1.19153 -3.67821 1.48941 -3.67821C1.80025 -3.67821 2.02042 -3.89838 2.02042 -4.20922C2.02042 -4.74022 1.55417 -4.74022 1.3599 -4.74022C1.65778 -5.28418 2.27945 -5.51731 2.79751 -5.51731C3.39328 -5.51731 4.15741 -5.02516 4.15741 -3.85953V-3.34147C1.55417 -3.30262 0.569863 -2.21469 0.569863 -1.21743C0.569863 -0.194271 1.76139 0.129514 2.55143 0.129514C3.40623 0.129514 3.98904 -0.388543 4.23512 -1.01021C4.28692 -0.401494 4.68842 0.0647572 5.24533 0.0647572C5.51731 0.0647572 6.26849 -0.116563 6.26849 -1.15268V-1.87796H5.98356V-1.15268C5.98356 -0.414446 5.67273 -0.310834 5.49141 -0.310834C4.99925 -0.310834 4.99925 -0.99726 4.99925 -1.19153V-3.45803ZM4.15741 -1.82615C4.15741 -0.556912 3.21196 -0.129514 2.65504 -0.129514C2.02042 -0.129514 1.48941 -0.595766 1.48941 -1.21743C1.48941 -2.92702 3.69116 -3.08244 4.15741 -3.10834V-1.82615Z' id='g5-97'/>
<path d='M3.88543 -8.84583V-8.47024C4.76613 -8.47024 4.86974 -8.37958 4.86974 -7.74496V-4.88269C4.59776 -5.25828 4.04085 -5.71158 3.25081 -5.71158C1.74844 -5.71158 0.4533 -4.44234 0.4533 -2.78456C0.4533 -1.13973 1.68369 0.129514 3.10834 0.129514C4.09265 0.129514 4.66252 -0.518057 4.84384 -0.764134V0.129514L6.66999 0V-0.375592C5.78929 -0.375592 5.68568 -0.466252 5.68568 -1.10087V-8.98829L3.88543 -8.84583ZM4.84384 -1.51532C4.84384 -1.28219 4.84384 -1.24334 4.66252 -0.958406C4.35168 -0.505106 3.82067 -0.129514 3.1731 -0.129514C2.83636 -0.129514 1.43761 -0.259029 1.43761 -2.77161C1.43761 -3.70411 1.59303 -4.22217 1.87796 -4.64956C2.13699 -5.05106 2.65504 -5.45255 3.30262 -5.45255C4.1056 -5.45255 4.5589 -4.86974 4.68842 -4.66252C4.84384 -4.44234 4.84384 -4.41644 4.84384 -4.18331V-1.51532Z' id='g5-100'/>
<path d='M2.22765 -5.20648H3.69116V-5.58207H2.20174V-7.09738C2.20174 -8.26301 2.79751 -8.85878 3.32852 -8.85878C3.43213 -8.85878 3.6264 -8.83288 3.78182 -8.75517C3.73001 -8.74222 3.40623 -8.62565 3.40623 -8.25006C3.40623 -7.95218 3.61345 -7.74496 3.91133 -7.74496C4.22217 -7.74496 4.42939 -7.95218 4.42939 -8.26301C4.42939 -8.74222 3.96314 -9.11781 3.34147 -9.11781C2.43487 -9.11781 1.41171 -8.41843 1.41171 -7.09738V-5.58207H0.401494V-5.20648H1.41171V-0.958406C1.41171 -0.375592 1.26924 -0.375592 0.427397 -0.375592V0C0.790037 -0.0259029 1.50237 -0.0259029 1.89091 -0.0259029C2.2406 -0.0259029 3.16015 -0.0259029 3.45803 0V-0.375592H3.199C2.25355 -0.375592 2.22765 -0.518057 2.22765 -0.984309V-5.20648Z' id='g5-102'/>
<path d='M5.76339 -3.1472C5.76339 -4.35168 5.76339 -4.71432 5.4655 -5.12877C5.08991 -5.63387 4.4812 -5.71158 4.04085 -5.71158C2.92702 -5.71158 2.40897 -4.86974 2.22765 -4.46824H2.21469V-8.98829L0.414446 -8.84583V-8.47024C1.29514 -8.47024 1.39875 -8.37958 1.39875 -7.74496V-0.958406C1.39875 -0.375592 1.25629 -0.375592 0.414446 -0.375592V0C0.751183 -0.0259029 1.45056 -0.0259029 1.8132 -0.0259029C2.18879 -0.0259029 2.88817 -0.0259029 3.22491 0V-0.375592C2.39601 -0.375592 2.2406 -0.375592 2.2406 -0.958406V-3.36737C2.2406 -4.72727 3.13425 -5.45255 3.93724 -5.45255S4.92154 -4.79203 4.92154 -4.00199V-0.958406C4.92154 -0.375592 4.77908 -0.375592 3.93724 -0.375592V0C4.27397 -0.0259029 4.97335 -0.0259029 5.33599 -0.0259029C5.71158 -0.0259029 6.41096 -0.0259029 6.7477 0V-0.375592C6.10012 -0.375592 5.77634 -0.375592 5.76339 -0.764134V-3.1472Z' id='g5-104'/>
<path d='M2.25355 -7.97808C2.25355 -8.31482 1.98157 -8.6127 1.61893 -8.6127C1.28219 -8.6127 0.99726 -8.34072 0.99726 -7.99103C0.99726 -7.60249 1.30809 -7.35641 1.61893 -7.35641C2.02042 -7.35641 2.25355 -7.69315 2.25355 -7.97808ZM0.466252 -5.56912V-5.19352C1.29514 -5.19352 1.41171 -5.11582 1.41171 -4.4812V-0.958406C1.41171 -0.375592 1.26924 -0.375592 0.427397 -0.375592V0C0.790037 -0.0259029 1.41171 -0.0259029 1.7873 -0.0259029C1.92976 -0.0259029 2.68095 -0.0259029 3.1213 0V-0.375592C2.27945 -0.375592 2.22765 -0.440349 2.22765 -0.945455V-5.71158L0.466252 -5.56912Z' id='g5-105'/>
<path d='M5.76339 -3.1472C5.76339 -4.35168 5.76339 -4.71432 5.4655 -5.12877C5.08991 -5.63387 4.4812 -5.71158 4.04085 -5.71158C2.78456 -5.71158 2.2924 -4.63661 2.18879 -4.37758H2.17584V-5.71158L0.414446 -5.56912V-5.19352C1.29514 -5.19352 1.39875 -5.10286 1.39875 -4.46824V-0.958406C1.39875 -0.375592 1.25629 -0.375592 0.414446 -0.375592V0C0.751183 -0.0259029 1.45056 -0.0259029 1.8132 -0.0259029C2.18879 -0.0259029 2.88817 -0.0259029 3.22491 0V-0.375592C2.39601 -0.375592 2.2406 -0.375592 2.2406 -0.958406V-3.36737C2.2406 -4.72727 3.13425 -5.45255 3.93724 -5.45255S4.92154 -4.79203 4.92154 -4.00199V-0.958406C4.92154 -0.375592 4.77908 -0.375592 3.93724 -0.375592V0C4.27397 -0.0259029 4.97335 -0.0259029 5.33599 -0.0259029C5.71158 -0.0259029 6.41096 -0.0259029 6.7477 0V-0.375592C6.10012 -0.375592 5.77634 -0.375592 5.76339 -0.764134V-3.1472Z' id='g5-110'/>
<path d='M5.94471 -2.77161C5.94471 -4.44234 4.67547 -5.77634 3.1731 -5.77634C1.61893 -5.77634 0.388543 -4.40349 0.388543 -2.77161C0.388543 -1.11382 1.68369 0.129514 3.16015 0.129514C4.68842 0.129514 5.94471 -1.13973 5.94471 -2.77161ZM3.1731 -0.155417C2.6939 -0.155417 2.11108 -0.36264 1.73549 -0.99726C1.3858 -1.58007 1.37285 -2.34421 1.37285 -2.88817C1.37285 -3.38032 1.37285 -4.17036 1.77435 -4.75318C2.13699 -5.31009 2.70685 -5.51731 3.16015 -5.51731C3.66526 -5.51731 4.20922 -5.28418 4.5589 -4.77908C4.9604 -4.18331 4.9604 -3.36737 4.9604 -2.88817C4.9604 -2.43487 4.9604 -1.63188 4.62366 -1.02316C4.26102 -0.401494 3.66526 -0.155417 3.1731 -0.155417Z' id='g5-111'/>
<path d='M2.16289 -3.01768C2.16289 -4.27397 2.68095 -5.45255 3.67821 -5.45255C3.78182 -5.45255 3.80772 -5.45255 3.85953 -5.4396C3.75592 -5.3878 3.54869 -5.31009 3.54869 -4.9604C3.54869 -4.58481 3.84658 -4.44234 4.0538 -4.44234C4.31283 -4.44234 4.57186 -4.61071 4.57186 -4.9604C4.57186 -5.34894 4.22217 -5.71158 3.66526 -5.71158C2.56438 -5.71158 2.18879 -4.52005 2.11108 -4.27397H2.09813V-5.71158L0.36264 -5.56912V-5.19352C1.24334 -5.19352 1.34695 -5.10286 1.34695 -4.46824V-0.958406C1.34695 -0.375592 1.20448 -0.375592 0.36264 -0.375592V0C0.72528 -0.0259029 1.43761 -0.0259029 1.82615 -0.0259029C2.17584 -0.0259029 3.09539 -0.0259029 3.39328 0V-0.375592H3.13425C2.18879 -0.375592 2.16289 -0.518057 2.16289 -0.984309V-3.01768Z' id='g5-114'/>
<path d='M2.17584 -5.20648H4.00199V-5.58207H2.17584V-7.96513H1.89091C1.87796 -6.7477 1.41171 -5.50436 0.233126 -5.4655V-5.20648H1.334V-1.60598C1.334 -0.168369 2.2924 0.129514 2.97883 0.129514C3.79477 0.129514 4.22217 -0.673474 4.22217 -1.60598V-2.34421H3.93724V-1.63188C3.93724 -0.699377 3.56164 -0.155417 3.05654 -0.155417C2.17584 -0.155417 2.17584 -1.3599 2.17584 -1.58007V-5.20648Z' id='g5-116'/>
<path d='M7.83562 -4.35168C8.12055 -5.16762 8.69041 -5.19352 8.91059 -5.20648V-5.58207C8.5868 -5.55616 8.35367 -5.55616 7.95218 -5.55616C7.57659 -5.55616 7.55068 -5.55616 6.85131 -5.58207V-5.20648C7.43412 -5.18057 7.58954 -4.83088 7.58954 -4.58481C7.58954 -4.57186 7.58954 -4.4812 7.53773 -4.35168L6.3462 -0.958406L5.05106 -4.62366C4.9863 -4.77908 4.9863 -4.80498 4.9863 -4.84384C4.9863 -5.20648 5.4655 -5.20648 5.73748 -5.20648V-5.58207C5.37484 -5.55616 4.84384 -5.55616 4.46824 -5.55616C4.0538 -5.55616 4.0279 -5.55616 3.30262 -5.58207V-5.20648C3.79477 -5.20648 3.96314 -5.18057 4.1056 -5.0122C4.17036 -4.9345 4.32578 -4.5071 4.41644 -4.24807L3.31557 -1.08792L2.07223 -4.61071C2.00747 -4.77908 2.00747 -4.80498 2.00747 -4.85679C2.00747 -5.20648 2.51258 -5.20648 2.75866 -5.20648V-5.58207C2.43487 -5.55616 1.7873 -5.55616 1.43761 -5.55616C1.07497 -5.55616 1.04907 -5.55616 0.233126 -5.58207V-5.20648C0.893649 -5.20648 1.02316 -5.15467 1.16563 -4.74022L2.79751 -0.103611C2.84932 0.0388543 2.88817 0.129514 3.03064 0.129514C3.1472 0.129514 3.21196 0.09066 3.27671 -0.116563L4.57186 -3.80772L5.867 -0.116563C5.93176 0.09066 5.99651 0.129514 6.11308 0.129514C6.25554 0.129514 6.2944 0.0388543 6.3462 -0.103611L7.83562 -4.35168Z' id='g5-119'/>
</defs>
<g id='page1'>
<use x='56.4133' xlink:href='#g3-83' y='65.9453'/>
<use x='64.2126' xlink:href='#g2-105' y='67.888'/>
<use x='71.4967' xlink:href='#g5-61' y='65.9453'/>
<use x='84.9576' xlink:href='#g5-40' y='65.9453'/>
<use x='89.8893' xlink:href='#g3-83' y='65.9453'/>
<use x='98.4426' xlink:href='#g4-50' y='60.5977'/>
<use x='97.6886' xlink:href='#g2-105' y='69.1471'/>
<use x='100.877' xlink:href='#g0-0' y='69.1471'/>
<use x='108.124' xlink:href='#g4-49' y='69.1471'/>
<use x='116.159' xlink:href='#g5-43' y='65.9453'/>
<use x='128.901' xlink:href='#g5-49' y='65.9453'/>
<use x='135.241' xlink:href='#g5-41' y='65.9453'/>
<use x='140.173' xlink:href='#g4-49' y='60.5977'/>
<use x='144.832' xlink:href='#g2-61' y='60.5977'/>
<use x='149.491' xlink:href='#g4-50' y='60.5977'/>
<use x='154.648' xlink:href='#g3-59' y='65.9453'/>
<use x='168.783' xlink:href='#g5-102' y='65.9453'/>
<use x='172.658' xlink:href='#g5-111' y='65.9453'/>
<use x='178.999' xlink:href='#g5-114' y='65.9453'/>
<use x='192.385' xlink:href='#g5-49' y='65.9453'/>
<use x='202.323' xlink:href='#g1-20' y='65.9453'/>
<use x='215.994' xlink:href='#g3-105' y='65.9453'/>
<use x='223.918' xlink:href='#g3-60' y='65.9453'/>
<use x='237.379' xlink:href='#g5-49' y='65.9453'/>
<use x='243.72' xlink:href='#g5-54' y='65.9453'/>
<use x='250.06' xlink:href='#g3-59' y='65.9453'/>
<use x='264.196' xlink:href='#g5-97' y='65.9453'/>
<use x='270.537' xlink:href='#g5-110' y='65.9453'/>
<use x='277.582' xlink:href='#g5-100' y='65.9453'/>
<use x='288.854' xlink:href='#g5-119' y='65.9453'/>
<use x='298.013' xlink:href='#g5-105' y='65.9453'/>
<use x='301.536' xlink:href='#g5-116' y='65.9453'/>
<use x='306.467' xlink:href='#g5-104' y='65.9453'/>
<use x='317.74' xlink:href='#g3-83' y='65.9453'/>
<use x='325.539' xlink:href='#g4-48' y='67.888'/>
<use x='334.294' xlink:href='#g5-61' y='65.9453'/>
<use x='347.755' xlink:href='#g5-49' y='65.9453'/>
<use x='354.095' xlink:href='#g3-58' y='65.9453'/>
</g>
</svg>