<?xml version='1.0' encoding='UTF-8'?>
<!-- This file was generated by dvisvgm 2.6.1 -->
<svg height='8.99404pt' version='1.1' viewBox='56.413267 56.759384 5.391864 8.99404' width='5.391864pt' xmlns='http://www.w3.org/2000/svg' xmlns:xlink='http://www.w3.org/1999/xlink'>
<defs>
<path d='M2.991781 -8.664508C3.004732 -8.716314 3.030635 -8.794022 3.030635 -8.85878C3.030635 -8.988294 2.901121 -8.988294 2.875218 -8.988294C2.862267 -8.988294 2.396015 -8.94944 2.162889 -8.923537C1.942715 -8.910585 1.748443 -8.884682 1.515318 -8.871731C1.204483 -8.845828 1.113823 -8.832877 1.113823 -8.599751C1.113823 -8.470237 1.243337 -8.470237 1.372852 -8.470237C2.033375 -8.470237 2.033375 -8.353674 2.033375 -8.224159C2.033375 -8.133499 1.929763 -7.757908 1.877958 -7.524782L1.567123 -6.281445C1.437609 -5.763387 0.699377 -2.823412 0.647572 -2.590286C0.582814 -2.266501 0.582814 -2.046326 0.582814 -1.877958C0.582814 -0.556912 1.321046 0.129514 2.162889 0.129514C3.665255 0.129514 5.219427 -1.800249 5.219427 -3.678207C5.219427 -4.869738 4.545953 -5.711582 3.574595 -5.711582C2.901121 -5.711582 2.292403 -5.15467 2.046326 -4.895641L2.991781 -8.664508ZM2.175841 -0.129514C1.761395 -0.129514 1.308095 -0.440349 1.308095 -1.45056C1.308095 -1.877958 1.346949 -2.124035 1.580075 -3.030635C1.618929 -3.199004 1.826152 -4.027895 1.877958 -4.196264C1.903861 -4.299875 2.667995 -5.452553 3.548692 -5.452553C4.118555 -5.452553 4.377584 -4.88269 4.377584 -4.209215C4.377584 -3.587547 4.014944 -2.124035 3.691158 -1.45056C3.367372 -0.751183 2.771606 -0.129514 2.175841 -0.129514Z' id='g0-98'/>
</defs>
<g id='page1'>
<use x='56.413267' xlink:href='#g0-98' y='65.753425'/>
</g>
</svg>