Region,RegionName,Admin0,Indicator,IndicatorName,Unit,Date,Value
5,Burkina Faso,Burkina Faso,11820916,"Principal repayments on external debt, long-term (AMT, current US$)",US$,2014,81720000
32,Mauritania,Mauritania,11820916,"Principal repayments on external debt, long-term (AMT, current US$)",US$,2014,205969000
5,Burkina Faso,Burkina Faso,11881516,Proportion of seats held by women in national parliaments (%),NA,2014,"18,9"
37,Niger,Niger,11850216,Ability to track and trace consignments (1=low to 5=high),NA,2014,"2,360,207"
31,Mali,Mali,11760916,Population in the largest city (% of urban population),NA,2014,"386,594,945"
37,Niger,Niger,11850516,Competence and quality of logistics services (1=low to 5=high),NA,2014,"2,276,874"
31,Mali,Mali,11881516,Proportion of seats held by women in national parliaments (%),NA,2014,"9,5"
37,Niger,Niger,11850716,Quality of trade and transport-related infrastructure (1=low to 5=high),NA,2014,"2,079,882"
5,Burkina Faso,Burkina Faso,11761016,Population in urban agglomerations of more than 1 million,NA,2014,2565194
37,Niger,Niger,11761116,Population in urban agglomerations of more than 1 million (% of total population),NA,2014,"570,576,747"
5,Burkina Faso,Burkina Faso,11850316,Frequency with which shipments reach consignee within scheduled or expected time (1=low to 5=high),NA,2014,"3,205,357"
37,Niger,Niger,11820916,"Principal repayments on external debt, long-term (AMT, current US$)",US$,2014,76194000
5,Burkina Faso,Burkina Faso,11850516,Competence and quality of logistics services (1=low to 5=high),NA,2014,"2,633,929"
10,Chad,Chad,11761016,Population in urban agglomerations of more than 1 million,NA,2014,1212075
10,Chad,Chad,11850716,Quality of trade and transport-related infrastructure (1=low to 5=high),NA,2014,"2,333,333"
31,Mali,Mali,11850816,Efficiency of customs clearance process (1=low to 5=high),NA,2014,"2,083,333"
32,Mauritania,Mauritania,11850316,Frequency with which shipments reach consignee within scheduled or expected time (1=low to 5=high),NA,2014,"2,75"
10,Chad,Chad,11850416,Overall (1=low to 5=high),NA,2014,"252,968"
32,Mauritania,Mauritania,11850516,Competence and quality of logistics services (1=low to 5=high),NA,2014,"2,058,333"
37,Niger,Niger,11761016,Population in urban agglomerations of more than 1 million,NA,2014,1057564
31,Mali,Mali,11822216,"Disbursements on external debt, long-term (DIS, current US$)",US$,2014,406118000
38,Nigeria,Nigeria,11820916,"Principal repayments on external debt, long-term (AMT, current US$)",US$,2014,232670000
37,Niger,Niger,11822516,"Interest payments on external debt, long-term (INT, current US$)",US$,2014,28374000
31,Mali,Mali,11850516,Competence and quality of logistics services (1=low to 5=high),NA,2014,"2,202,778"
38,Nigeria,Nigeria,11850716,Quality of trade and transport-related infrastructure (1=low to 5=high),NA,2014,"2,559,328"
38,Nigeria,Nigeria,11850516,Competence and quality of logistics services (1=low to 5=high),NA,2014,"2,702,476"
31,Mali,Mali,11850716,Quality of trade and transport-related infrastructure (1=low to 5=high),NA,2014,"2,202,778"
32,Mauritania,Mauritania,11760816,Population in largest city,NA,2014,944804
37,Niger,Niger,11850816,Efficiency of customs clearance process (1=low to 5=high),NA,2014,"2,485,543"
5,Burkina Faso,Burkina Faso,11850216,Ability to track and trace consignments (1=low to 5=high),NA,2014,"2,491,071"
10,Chad,Chad,11850816,Efficiency of customs clearance process (1=low to 5=high),NA,2014,"2,462,963"
38,Nigeria,Nigeria,11822516,"Interest payments on external debt, long-term (INT, current US$)",US$,2014,340339000
10,Chad,Chad,11850516,Competence and quality of logistics services (1=low to 5=high),NA,2014,"2,337,963"
10,Chad,Chad,11820916,"Principal repayments on external debt, long-term (AMT, current US$)",US$,2014,129252000
5,Burkina Faso,Burkina Faso,11850416,Overall (1=low to 5=high),NA,2014,"26,383"
38,Nigeria,Nigeria,11760816,Population in largest city,NA,2014,12613579
37,Niger,Niger,11760816,Population in largest city,NA,2014,1057564
38,Nigeria,Nigeria,11850616,Ease of arranging competitively priced shipments (1=low to 5=high),NA,2014,"2,627,793"
10,Chad,Chad,11760916,Population in the largest city (% of urban population),NA,2014,"41,073,365"
10,Chad,Chad,11760816,Population in largest city,NA,2014,1212075
10,Chad,Chad,11881516,Proportion of seats held by women in national parliaments (%),NA,2014,"14,9"
37,Niger,Niger,11881516,Proportion of seats held by women in national parliaments (%),NA,2014,"13,3"
5,Burkina Faso,Burkina Faso,11850716,Quality of trade and transport-related infrastructure (1=low to 5=high),NA,2014,"2,348,214"
32,Mauritania,Mauritania,11822516,"Interest payments on external debt, long-term (INT, current US$)",US$,2014,90469000